----- (0,0), 0, 'Building 2 target blinkers for DBCA reflectors, 1 target blinker for ECCA reflectors and glider to activate the cordership', priority=2 -----
----- (0,0), 0, 'Big move of stack bottom to ECCA target starts. It uses easily destroyable filler.', priority=2 -----
22112211111212121211 --[]~[PDBSSSD-2576]>[H6T-2566]
11111112 --[]~[H6(T18^1)T-2566]
11111112 --[]~[H6(T18^2)T-2566]
11111112 --[]~[H6(T18^3)T-2566]
11111112 --[]~[H6(T18^4)T-2566]
11111112 --[]~[H6(T18^5)T-2566]
11111112 --[]~[H6(T18^6)T-2566]
11111112 --[]~[H6(T18^7)T-2566]
11111112 --[]~[H6(T18^8)T-2566]
11111112 --[]~[H6(T18^9)T-2566]
11111112 --[]~[H6(T18^10)T-2566]
11111112 --[]~[H6(T18^11)T-2566]
11111112 --[]~[H6(T18^12)T-2566]
11111112 --[]~[H6(T18^13)T-2566]
11111112 --[]~[H6(T18^14)T-2566]
11111112 --[]~[H6(T18^15)T-2566]
11111112 --[]~[H6(T18^16)T-2566]
11111112 --[]~[H6(T18^17)T-2566]
11111112 --[]~[H6(T18^18)T-2566]
11111112 --[]~[H6(T18^19)T-2566]
11111112 --[]~[H6(T18^20)T-2566]
11111112 --[]~[H6(T18^21)T-2566]
11111112 --[]~[H6(T18^22)T-2566]
11111112 --[]~[H6(T18^23)T-2566]
--11111112 --[]~[H6(T18^24)T-2566]
--11111112 --[]~[H6(T18^25)T-2566]
--11111112 --[]~[H6(T18^26)T-2566] 
--11111112 --[]~[H6(T18^27)T-2566]
--11111112 --[]~[H6(T18^28)T-2566]
--11111112 --[]~[H6(T18^29)T-2566]
--11111112 --[]~[H6(T18^30)T-2566]
--11111112 --[]~[H6(T18^31)T-2566]
--11111112 --[]~[H6(T18^32)T-2566]
--11111112 --[]~[H6(T18^33)T-2566]
--11111112 --[]~[H6(T18^34)T-2566]
--11111112 --[]~[H6(T18^35)T-2566]
11111111111 11111111111 --[..h4t20(T18t20^0)(T18^23)T-2566]>[..H6(T18t20^1)(T18^23)T-2566]
11111111111 11111111111 --[..h4t20(T18t20^1)(T18^23)T-2566]>[..H6(T18t20^2)(T18^23)T-2566]
11111111111 11111111111 --[..h4t20(T18t20^2)(T18^23)T-2566]>[..H6(T18t20^3)(T18^23)T-2566]
11111111111 11111111111 --[..h4t20(T18t20^3)(T18^23)T-2566]>[..H6(T18t20^4)(T18^23)T-2566]
11111111111 11111111111 --[..h4t20(T18t20^4)(T18^23)T-2566]>[..H6(T18t20^5)(T18^23)T-2566]
----- (0,0), 0, 'Expensive part converting stack top to blinker.', priority=2 -----
111212212221111221121221121121121121121121121121121122211111211211121211211211211111122221121222211121121121121121121111122111211211211211211211211211111111212121 --[][D6d24(T+t)*]
S21 211 --[][S x (T18)*]
----- (0,0), 0, 'Filler removal.', priority=2 -----
11 11 11 11 11 11 11 11 11 11 11 11 11 11 11 11 11 11 11 11 11 11 11 11 11 11 11 11 11 11 11 11 11 --[S]
211211S 211211D211211D211211D211211D211211S211211D21 211122122211211211211111112112112112212211 --[S]>[SS]>[B6d6DSD^4S]>[S32S]
----- (0,0), 0, 'Gap separating ECCA reflector target from 1st DBCA reflector target was created', priority=2 -----
211211S 211211D211211D211211D211211D211211S211211D21 211122122211211211211111112112112112212211 --[S32S]>[SS32S]>[B6d6DSD^4S32S]>[S32S32S]
----- (0,0), 0, 'Gap separating 1st DBCA reflector target from 2nd DBCA reflector target was created', priority=2 -----
211211S211211D211211D211211D211211D211211S211211D211211B211>1122111112112111112112112111211112112111112211 --[]~[S32S32S]>[S6d6BDSDDDDS32S32S]>[S60S32S32S]
----- (0,0), 0, 'Gap separating glider construction stack from the reflector targets created', priority=2 -----
211211D211211D211211D211211D211211S211211D211211B211>1122111112112111112112112111211112112111112211 --[]~[S60S32S32S]>[S6d6BDSDDDD60S32S32S]>[S104S32S32S]
211211D211211S211211D211211S --[]~[S112S32S32S]>[SSDSD112S32S32S]
211211D211211D211211B211211D211211B211>1121211112112111121121121121111112112122
----- (0,0), 0, 'Activating the cordership to start DBCA reflectors', priority=1 -----
1
----- (0,0), 0, 'DBCA reflectors activated', priority=2 -----
12 --(g5%8)[27](27 5)~[SSDSD112S32S32S]>[S6d6BDBDDSDSD112S32S32S]>[SSDSD112S32S32S]~ (g5%8)[27]
1212112 -- []~[SSDSDD112S32S32S]>[1S32S32S]
----- (0,0), 0, 'remnants of the original arm removed, green DBCA activated, white DBCA is going to be built', priority=0 -----
