e401 e403 e401 e407 e407 o409 o409 o408 e395 e397 o419 o439 o439 o438 e425 e427 o449 o469 o469 o468
e455 e457 o479 o499 o502 e509 e517 e536 e538 e540 e539 e542 e550 o562 o565 e572 e563 e580 e599 e601
e603 e602 e605 e613 o625 o628 e635 e643 e662 e664 e666 e665 e668 e676 o688 o691 e698 e689 e706 e725
e727 e729 e728 e731 e739 o751 o754 e761 e769 e788 e790 e792 e791 e794 e802 e814 e816 e818 e817 e820
e828 e831 e834 e836 e835 e838 e846 e849 e852 e854 e853 e856 e864 e867 e870 e872 e871 e874 e882 e885
e888 e890 e889 e892 e900 e903 e906 e908 e907 e910 e918 e921 e924 e926 e925 e928 e936 e939 e942 e944
e943 e946 e954 e957 e960 e962 e961 e964 e972 e975 e978 e980 e979 e982 e990 e993 e996 e998 e997
e1000 e1008 e1011 e1014 e1016 e1015 e1018 e1026 e1029 e1032 e1034 e1033 e1036 e1044 e1047 e1050
e1052 e1051 e1054 e1062 e1065 e1068 e1070 e1069 e1072 e1080 e1083 e1086 e1088 e1087 e1090 e1098
e1101 e1104 e1106 e1105 e1108 e1116 e1119 e1122 e1124 e1123 e1126 e1134 e1137 e1140 e1142 e1141
e1144 e1152 e1155 e1158 e1160 e1159 e1162 e1170 e1173 e1176 e1178 e1177 e1180 e1188 e1191 e1194
e1196 e1195 e1198 e1206 e1209 e1212 e1214 e1213 e1216 e1224 e1227 e1231 e1229 e1227 e1244 e1243
o1250 o1253 e1260 e1251 e1268 o1287 o1290 e1297 e1288 e1305 o1324 o1327 e1334 e1325 e1342 o1352
o1362 o1353 o1359 o1345 o1352 e1353 e1346 e1357 e1347 e1374 e1363 e1373 e1397 e1393 o1397 e1401
e1390 e1400 e1424 e1420 o1424 e1428 e1417 e1427 e1451 e1447 o1451 o1446 o1446 o1453 o1447 e1443
o1443 o1450 o1435 e1459 e1458 o1467 o1466 e1461 e1482 e1481 e1480 o1489 o1488 e1483 e1504 e1503
e1502 o1511 o1510 e1505 e1526 e1525 e1524 e1533 e1540 e1525 e1548 e1543 e1543 e1538 e1549 e1546
e1542 o1546 e1550 e1560 e1548 e1545 e1547 e1550 e1536 e1522 o1527 o1524 e1517 e1509 e1526 o1576
o1579 e1586 e1594 o1613 o1616 e1623 e1614 e1631 o1650 o1653 e1660 e1651 e1668 o1687 o1690 e1697
e1705 o1724 o1727 e1734 e1742 o1752 o1753 e1751 e1759 e1748 e1738 e1725 e1730 e1729 e1729 e1733
o1730 e1718 e1726 e1718 e1708 o1712 e1702 e1688 e1694 e1698 o1695 o1683 o1680 e1673 e1682 e1652
e1665 o1650 o1650 e1648 e1656 e1645 e1631 e1635 e1626 e1630 o1627 e1615 e1608 e1614 e1616 e1577
e1583 o1594 e1573 e1572 o1582 o1572 o1570 o1580 o1568 e1571 e1586 e1596 e1589 e1600 e1574 e1576
e1554 e1551 e1553 e1558 e1554 o1549 o1559 o1551 e1565 e1563 e1545 e1556 e1554 e1555 e1555 e1558
o1551 e1546 e1548 e1555 e1554 e1549 e1554 e1579 e1569 o1578 o1570 o1578 e1591 o1600 e1572 o1567
o1571 o1580 o1583 e1575 o1559 e1551 o1543 o1540 e1529 e1533 e1542 e1544 e1541 o1554 e1542 e1549
e1552 e1525 o1506 o1503 o1490 o1487 e1480 e1472 e1489 e1496 e1505 e1488 o1469 o1466 o1453 o1450
o1419 e1417 e1424 e1427 e1435 o1426 e1429 e1427 e1443 e1452 e1435 o1413 o1410 e1403 e1395 e1412
o1416 o1424 o1418 o1416 e1418 o1419 o1416 e1409 e1401 e1418 o1450 e1459 e1468 e1451 o1432 o1429
e1422 e1414 e1404 e1400 e1402 o1415 e1431 e1432 e1436 e1444 o1439 o1434 o1437 e1432 e1424 e1428
e1428 e1436 e1428 o1422 e1420 e1422 e1418 e1425 e1425 e1421 o1428 e1424 e1430 o1430 e1423 o1432
o1428 o1425 e1436 e1432 e1416 e1427 e1417 e1433 e1436 e1436 e1431 e1435 o1427 e1434 e1433 o1416
e1419 o1394 o1393 o1376 o1373 e1366 e1375 e1358 e1348 e1350 e1323 e1324 e1323 e1313 o1320 e1311
o1304 o1288 e1280 e1291 e1281 e1345 o1343 o1344 o1345 o1349 e1346 o1391 o1388 e1381 e1390 e1373
o1376 o1375 o1366 o1366 o1370 e1369 o1376 o1370 e1379 e1373 o1312 o1305 o1322 o1310 e1314 o1217
o1214 e1207 e1216 e1199 o1180 o1177 e1170 e1179 e1162 o1143 o1140 e1133 e1142 e1125 e1115 e1118
e1111 o1105 e1113 e1138 o1133 e1121 e1130 e1137 e1122 e1145 e1140 e1140 o1135 o1143 o1135 e1122
o1113 e1142 e1137 e1148 e1136 e1121 e1133 o1137 e1141 e1150 e1150 e1153 o1148 e1137 e1132 e1131
o1127 e1124 o1135 o1133 e1146 e1155 e1162 e1147 e1170 e1165 e1165 o1169 o1161 o1169 e1182 o1191
e1163 e1167 e1176 e1176 e1179 o1174 e1163 e1149 e1159 e1159 e1162 o1157 e1146 e1132 e1136 o1133
o1118 o1121 e1118 o1122 e1126 e1118 e1125 o1111 e1106 o1107 o1104 e1097 e1089 o1070 o1067 e1060
e1052 o1033 o1030 e1023 e1015 e1032 e1069 e1106 o1096 o1091 e1088 o1115 e1111 e1099 e1098 o1100
e1083 o1107 e1100 e1092 o1109 o1112 o1112 o1120 o1112 e1097 e1133 e1131 e1127 o1121 e1133 e1124
e1120 o1132 o1135 o1135 o1125 o1148 o1151 e1158 e1149 o1139 e1134 o1141 o1136 e1136 e1126 o1133
e1125 e1154 e1166 e1185 e1185 e1185 o1185 e1190 e1187 e1181 e1191 e1188 o1191 o1194 o1202 o1194
e1181 o1172 e1201 e1196 e1207 e1195 e1192 o1196 e1200 e1209 e1209 e1212 o1207 e1196 e1180 e1182
e1187 o1176 o1178 o1195 o1193 o1165 e1166 e1166 e1177 e1167 e1257 e1257 o1263 e1268 o1269 o1254
e1270 e1273 o1280 o1273 o1281 o1268 e1237 e1227 e1220 e1242 e1245 e1245 o1248 e1232 e1237 e1242
e1231 e1241 e1240 e1247 e1249 e1238 e1238 e1251 o1249 o1251 o1248 o1253 e1258 e1241 e1246 o1259
e1260 e1262 e1261 o1312 e1299 e1302 e1300 e1315 e1310 e1297 o1310 o1318 o1312 o1316 o1315 e1304
e1292 e1310 e1311 e1311 e1275 e1273 o1268 e1259 e1249 e1266 e1256 e1259 e1256 o1256 e1260 e1287
e1283 e1291 e1285 e1288 e1296 e1303 e1320 e1316 e1299 e1300 e1327 o1318 o1326 o1318 e1310 e1295
o1305 e1296 o1308 o1300 o1317 o1303 e1312 o1304 e1297 e1299 e1333 o1342 o1339 o1351 o1348 o1343
e1365 o1368 o1370 e1369 e1377 e1365 o1369 e1371 e1369 e1368 e1352 o1343 o1334 o1339 o1344 o1336
e1342 e1339 e1335 e1344 e1351 e1334 o1337 e1341 o1352 o1368 o1393 o1403 o1398 o1399 o1397 e1397
e1376 o1376 o1401 e1403 e1399 o1397 e1397 o1394 e1401 e1397 o1393 e1400 e1403 e1395 e1398 e1399
o1399 e1400 e1378 e1369 e1376 e1375 e1372 e1369 o1375 e1370 e1375 o1377 o1377 o1391 o1390 e1402
o1416 o1418 o1416 o1428 o1431 e1426 e1418 e1418 e1416 o1390 o1393 e1391 e1395 e1387 e1388 o1381
o1372 o1389 o1376 o1387 e1389 o1396 e1386 o1382 e1391 e1387 o1400 o1394 o1392 o1395 o1383 e1389
e1354 e1364 e1359 e1364 o1361 e1366 e1366 e1354 e1355 e1365 e1389 e1385 o1389 e1393 e1382 e1392
o1398 o1395 o1395 e1394 o1395 o1398 e1423 e1426 e1418 e1440 o1440 o1440 e1441 e1428 e1433 o1437
e1444 e1435 e1441 e1455 e1445 e1458 e1465 o1448 e1457 o1460 o1470 o1463 e1463 o1449 e1443 e1455
e1454 e1455 e1462 e1453 e1450 e1446 e1451 e1449 o1454 o1461 e1463 o1449 o1457 o1452 e1445 o1467
o1445 o1452 o1448 o1439 e1446 e1452 e1461 e1470 e1465 e1456 e1474 e1477 e1474 e1474 e1471 e1471
e1476 o1466 e1475 e1471 e1477 e1461 o1459 o1463 o1472 o1460 e1456 e1460 e1468 o1494 o1490 e1488
o1480 e1491 e1484 o1479 o1482 e1483 o1466 o1459 o1462 o1455 o1471 o1475 e1416 e1412 o1416 e1420
e1409 e1402 e1396 e1400 o1391 o1399 o1393 o1391 o1397 e1419 o1425 e1421 e1443 e1439 o1443 e1431
e1422 e1421 e1421 e1400 e1396 e1399 e1394 e1399 e1403 e1393 o1395 e1394 e1397 e1394 e1402 e1401
o1399 e1395 e1424 e1426 e1451 e1459 e1459 o1450 o1454 o1452 e1469 o1449 e1433 e1471 o1471 o1464
o1457 o1460 o1453 o1469 o1473 o1433 o1433 o1424 o1425 e1423 o1431 e1424 e1428 e1417 e1417 e1420
e1422 e1431 e1422 o1428 o1416 o1421 o1422 o1436 o1426 o1431 o1436 o1453 o1457 o1461 o1450 o1476
o1473 e1467 o1463 o1467 e1454 e1462 e1468 o1462 o1474 e1429 e1422 e1422 e1432 e1425 o1419 e1430
o1419 e1421 e1426 o1416 e1435 o1426 o1430 o1423 e1419 o1449 o1452 o1432 o1431 e1432 e1424 e1434
e1431 e1431 e1424 o1436 e1431 e1451 e1461 e1429 o1458 o1450 o1467 o1455 e1452 o1454 o1453 o1459
o1463 e1450 e1458 e1464 o1458 o1470 e1430 e1428 e1420 e1424 e1427 e1422 o1436 e1432 e1419 e1429
e1432 e1430 o1434 e1434 e1434 o1449 o1435 e1423 o1423 o1434 o1430 e1420 o1436 o1431 o1426 o1433
e1450 o1451 e1467 e1463 o1476 o1470 o1465 e1477 o1453 e1465 e1466 o1466 o1456 o1456 e1418 e1422
o1428 e1436 e1432 o1429 o1422 e1426 e1434 o1434 o1430 o1421 e1431 o1453 o1454 e1458 e1465 o1476
e1455 e1452 e1461 e1457 e1449 e1458 e1468 e1465 e1449 o1453 e1462 o1462 o1459 o1450 o1461 o1467
o1468 o1473 e1454 e1449 e1454 e1456 e1460 e1458 e1464 o1460 o1468 e1455 e1449 e1449 e1449 o1450
o1451 o1456 o1456 o1455 o1429 o1426 o1417 e1427 e1392 o1392 o1395 o1395 o1388 o1393 e1383 e1374
e1397 o1377 e1369 e1369 e1360 e1377 e1376 e1376 e1385 o1385 e1390 e1379 e1382 o1392 o1374 e1384
e1394 e1383 e1388 e1392 e1401 e1401 o1395 e1393 e1397 o1389 e1386 e1395 e1401 e1403 e1403 e1390
o1394 o1397 e1399 e1389 e1386 e1395 e1402 e1399 e1397 e1403 e1403 o1430 o1433 e1435 e1424 e1419
e1433 e1434 o1427 o1430 o1425 e1422 e1385 e1387 e1391 e1387 o1400 o1394 o1392 o1395 o1383 e1389
o1398 o1395 o1395 e1394 o1395 o1398 e1402 e1396 e1389 o1389 o1389 o1403 o1401 e1396 e1422 e1433
o1433 o1426 e1432 e1432 e1435 e1435 e1431 o1429 o1428 e1428 o1423 o1435 e1434 o1425 o1430 o1431
o1422 o1432 e1428 e1423 o1428 e1434 o1453 o1456 o1464 o1455 o1466 e1453 e1449 e1456 e1455 e1454
e1463 e1459 o1457 o1455 o1451 e1457 o1460 o1474 o1478 e1490 o1489 o1488 o1502 o1500 e1495 o1516
e1524 o1515 o1508 o1516 e1526 e1535 e1539 o1529 e1549 e1552 e1555 e1552 e1546 e1543 o1561 e1694
e1697 e1690 e1695 o1691 e1681 e1679 o1681 o1681 e1669 o1661 o1665 o1663 o1660 o1681 e1680 e1678
e1688 e1681 e1692 e1666 e1668 o1685 o1685 e1687 o1694 e1697 e1690 o1685 e1694 e1688 e1698 e1694
o1694 o1693 o1693 o1686 o1687 e1701 e1691 e1751 e1752 o1754 e1765 o1732 o1737 e1747 e1723 e1732
e1741 e1734 e1730 e1738 o1735 o1733 o1743 o1750 o1747 o1721 e1727 o1740 o1750 o1750 e1743 o1741
e1747 e1736 e1734 e1739 e1724 e1721 e1743 e1748 e1731 e1742 o1733 o1737 e1724 e1732 e1738 o1732
o1744 o1700 o1709 o1700 o1690 o1687 e1688 e1695 e1694 e1694 e1701 e1684 e1698 o1694 o1684 e1681
e1699 e1685 e1682 e1673 e1695 o1687 e1675 e1683 e1648 e1645 e1647 e1639 e1650 e1632 e1642 e1635
e1646 e1620 e1622 e1634 e1631 e1631 o1639 e1642 e1628 o1633 e1635 o1629 e1646 e1636 e1633 o1646
e1634 e1641 e1644 e1667 e1671 o1673 o1677 o1670 e1674 o1668 e1658 o1656 o1659 e1669 e1667 e1676
e1654 e1657 e1645 e1636 e1643 e1647 e1639 e1658 o1657 o1653 e1653 o1653 o1642 o1645 o1649 o1647
o1644 e1666 e1666 e1674 e1666 e1658 e1662 o1641 o1643 o1649 o1643 e1638 o1627 o1623 o1615 e1618
e1615 e1623 e1645 e1643 e1652 e1655 o1642 o1640 o1651 o1658 e1642 o1641 e1644 e1644 e1641 o1639
e1640 e1632 o1644 e1640 e1654 e1645 e1646 o1645 o1632 e1637 e1645 o1646 e1628 e1623 e1641 o1639
e1628 e1616 e1608 e1611 e1606 o1606 e1599 e1612 o1610 e1612 e1592 e1592 e1600 e1597 e1601 e1604
e1599 o1599 o1596 e1602 o1604 o1596 o1608 e1643 o1644 o1642 o1647 o1632 e1654 o1639 e1632 e1633
o1634 e1642 o1651 o1648 o1648 o1658 e1644 o1641 o1639 o1639 e1645 o1656 o1655 o1661 e1649 e1644
e1647 e1644 e1638 e1635 o1616 o1606 e1608 e1604 e1607 e1592 e1602 e1593 e1590 e1581 e1603 o1595
e1583 e1591 o1569 o1552 o1564 e1560 o1477 o1485 o1479 o1482 o1466 o1464 o1471 e1479 e1387 e1384
e1389 e1384 e1391 o1388 e1398 o1382 e1379 e1419 o1398 o1395 o1395 e1394 o1395 o1398 e1402 e1396
e1390 e1381 e1381 e1383 e1398 e1390 e1420 e1422 e1421 e1418 o1425 e1429 e1432 e1434 e1434 e1430
e1432 e1426 e1422 e1419 e1435 e1432 e1432 e1434 e1429 o1434 e1434 o1422 o1435 o1436 e1461 e1464
e1460 o1474 o1472 o1466 o1459 o1464 e1453 e1463 e1454 e1458 o1458 o1464 o1457 o1467 o1465 e1453
o1436 o1432 o1424 e1429 o1433 o1428 e1432 e1432 o1430 e1424 o1424 o1427 o1422 e1417 e1425 o1433
o1429 e1426 o1426 e1390 e1394 e1386 e1379 e1390 o1394 e1398 e1398 e1397 e1397 e1394 e1402 e1401
o1399 e1395 e1328 e1339 e1329 e1305 e1310 o1297 o1223 o1214 o1219 o1224 e1216 e1214 e1212 o1222
o1221 o1224 o1235 e1228 e1227 e1209 e1216 o1209 o1212 e1239 e1242 e1242 e1237 e1227 e1222 o1207
e1222 e1225 o1216 o1223 e1222 e1215 e1213 e1224 o1246 o1249 o1253 o1245 o1251 o1253 o1250 o1250
e1232 o1223 e1209 e1211 e1210 o1207 o1218 e1217 o1221 e1225 e1216 e1213 o1207 e1199 e1210 e1205
o1210 o1214 o1226 e1224 o1213 e1219 e1209 e1199 o1208 o1207 o1216 e1209 e1220 e1210 e1206 o1217
o1215 o1215 e1231 e1230 e1215 e1209 e1206 e1230 e1231 e1230 o1228 o1223 e1223 o1209 o1217 o1200
o1214 e1205 o1213 e1220 e1218 o1218 o1222 o1260 e1251 o1255 o1240 e1249 e1232 o1217 e1232 o1231
o1227 e1234 e1227 e1230 e1225 o1230 o1244 e1237 o1218 e1226 e1224 o1216 o1217 o1202 e1209 e1207
e1209 e1219 e1219 e1225 o1201 e1203 e1200 e1200 e1175 e1175 e1179 o1183 o1179 o1174 e1178 o1197
e1211 e1205 o1199 o1179 o1172 o1184 e1180 e1177 o1181 o1183 o1174 o1179 o1170 o1177 e1177 o1172
e1215 o1215 o1216 o1218 o1216 e1224 e1205 e1207 e1220 e1212 e1221 e1220 o1216 o1221 o1261 o1270
o1261 o1251 e1259 e1265 e1247 e1262 e1261 o1260 o1264 o1273 e1263 o1232 e1236 e1230 o1211 e1222
o1245 o1242 o1235 o1236 o1246 o1256 o1263 o1232 e1261 e1254 e1252 e1255 e1250 e1255 o1245 o1263
e1258 e1258 e1252 o1261 o1264 o1272 e1261 o1266 o1272 o1243 e1244 e1247 o1257 e1242 e1242 e1259
o1260 o1264 o1273 e1263 e1215 o1224 o1223 e1213 e1231 o1231 o1239 e1242 e1223 e1224 o1234 o1225
o1217 e1203 e1180 e1180 o1176 e1173 e1179 e1181 e1179 e1178 o1178 o1181 o1181 e1184 e1183 o1181
o1181 e1176 o1176 e1182 o1172 o1174 e1182 o1171 e1173 e1172 e1180 e1183 o1170 e1182 e1175 e1172
o1230 e1233 e1230 e1232 e1228 o1226 e1224 o1230 e1215 o1220 o1218 e1227 e1234 e1244 e1237 o1237
o1232 e1234 e1216 e1222 e1224 e1227 o1229 e1235 e1225 o1224 e1233 o1230 o1224 o1229 o1225 o1225
e1224 o1235 e1214 o1224 o1231 e1232 e1218 e1217 e1213 o1206 e1203 o1198 e1226 e1217 o1229 o1222
o1226 o1235 o1222 e1238 o1234 o1234 e1228 o1245 o1253 o1262 o1253 o1243 e1251 e1257 e1239 e1254
e1253 e1261 e1264 o1269 e1258 e1268 e1263 o1234 o1237 o1237 e1223 o1229 o1237 e1231 e1228 e1247
e1247 e1246 o1254 o1261 o1264 e1255 o1248 o1242 e1179 e1176 e1184 e1171 e1178 e1177 o1177 o1178
e1170 e1171 o1179 o1174 e1179 o1214 e1201 o1227 o1219 o1236 e1224 o1231 e1240 e1243 e1232 e1239
e1242 o1246 o1233 e1242 e1235 o1229 e1231 e1262 o1260 o1264 o1273 e1263 e1249 e1245 e1245 e1241
e1231 e1253 e1238 e1231 e1243 o1243 o1242 e1240 e1229 e1239 e1232 e1243 e1217 e1219 o1241 o1238
o1229 o1242 e1225 e1239 e1242 e1247 e1240 o1249 o1245 o1236 o1248 e1252 e1248 e1240 e1214 e1218
e1227 e1214 o1230 e1226 e1229 o1235 o1237 o1236 o1229 o1246 e1247 o1232 e1236 e1226 e1220 o1229
o1221 o1238 e1235 o1239 o1243 e1227 o1226 o1222 e1235 e1233 e1227 e1234 e1223 e1223 e1223 e1237
e1244 e1241 e1248 e1241 e1233 e1239 o1242 o1249 o1245 o1242 o1250 e1240 o1241 o1238 o1240 e1253
e1230 e1233 e1223 e1223 e1233 e1226 e1237 e1243 e1240 e1244 e1211 e1213 e1232 o1235 e1236 e1240
e1256 e1247 e1248 o1240 o1252 e1255 o1248 o1245 o1245 o1252 e1236 e1221 e1217 o1230 e1232 e1218
e1221 o1211 o1219 o1221 o1205 o1216 e1197 o1206 o1202 o1200 e1231 e1234 o1238 o1240 o1244 e1232
e1219 e1229 e1212 e1209 e1214 o1214 o1202 o1203 e1211 o1204 o1204 e1205 o1201 e1205 e1220 o1223
e1212 e1214 o1201 e1209 e1206 e1211 e1206 e1207 e1198 e1208 e1221 o1227 o1234 o1233 o1231 o1233
o1238 o1235 o1224 o1258 o1260 e1268 e1277 e1270 e1255 e1257 e1273 o1260 o1264 o1273 e1263 o1249
o1245 o1247 o1232 e1228 o1226 e1224 e1221 e1229 e1225 o1223 o1211 o1221 o1226 e1226 e1229 o1238
o1228 o1235 e1235 o1235 e1220 e1225 e1225 o1249 o1245 o1247 o1232 e1228 o1226 o1233 o1233 e1235
o1245 e1221 e1213 e1223 e1216 e1233 e1227 e1201 e1203 e1232 e1229 e1229 e1235 e1225 e1241 e1240
e1226 o1213 e1248 e1245 e1247 e1240 e1233 e1232 o1167 o1167 o1169 e1174 e1173 o1175 o1175 o1178
e1178 e1211 e1221 e1214 e1225 e1199 e1201 o1232 o1235 o1230 o1243 o1225 o1224 o1211 o1243 o1252
o1247 o1242 e1226 e1227 o1227 o1227 e1232 e1226 o1212 o1214 e1232 o1224 e1222 o1217 o1225 o1208
e1226 e1228 e1242 o1218 e1224 o1259 o1261 o1260 o1264 o1273 e1263 e1287 e1307 e1314 e1290 o1305
o1313 o1305 e1292 o1283 e1312 e1316 e1325 e1325 e1328 o1323 e1312 e1298 e1302 o1299 o1287 e1284
o1288 e1283 e1284 e1277 e1272 e1269 o1273 o1268 e1248 e1242 e1243 e1248 e1237 o1237 e1231 e1250
e1248 e1240 o1222 o1229 o1226 o1222 o1218 o1224 e1218 o1227 o1229 o1221 o1227 o1223 o1232 e1237
e1234 e1226 e1227 e1217 e1214 o1214 o1233 e1236 e1227 o1222 o1205 o1217 e1213 o1224 o1223 e1218
e1232 e1237 o1228 e1215 o1217 e1226 e1226 o1214 o1218 o1226 e1220 e1235 o1215 e1208 e1168 e1168
o1165 o1169 e1183 e1181 e1178 e1167 e1166 e1124 e1129 e1109 o1114 o1135 o1141 e1109 o1108 o1104
o1096 e1109 o1108 e1107 e1112 e1122 e1107 o1134 o1131 o1122 o1139 o1138 e1125 e1132 e1126 o1128
o1118 o1118 o1124 o1129 e1125 o1118 o1125 o1134 e1108 o1108 o1105 o1102 o1107 e1095 e1110 o1136
o1126 o1133 e1123 e1131 o1135 o1134 e1134 e1099 e1102 e1106 e1095 e1087 e1088 e1092 e1084 o1092
o1091 o1104 o1084 e1095 o1108 e1122 o1122 o1119 o1124 o1132 e1110 o1110 e1125 o1136 e1139 e1135
o1109 o1109 e1112 o1103 o1114 o1122 e1126 o1125 o1129 e1108 e1105 e1097 o1100 o1117 o1121 e1104
e1113 e1116 e1120 o1107 o1109 e1127 e1112 o1117 o1117 e1119 e1122 o1129 o1119 e1126 e1116 e1112
e1094 e1094 o1102 e1094 o1099 e1095 e1095 e1086 e1089 e1089 e1082 o1091 e1074 o1075 o1079 e1079
e1078 o1078 o1082 o1082 e1083 e1087 o1091 o1098 o1088 o1095 e1085 e1093 o1097 o1096 e1096 o1065
e1061 e1064 e1057 e1062 o1058 e1052 e1056 o1060 o1070 e1072 e1067 e1064 e1066 e1042 e1036 e1040
o1027 o1046 e1054 e1043 e1048 o1068 o1078 o1071 o1065 o1077 e1069 e1064 e1063 e1055 e1067 e1073
e1060 o1054 o1059 e1064 e1062 o1070 e1043 e1043 o1037 o1031 e1041 o1034 o1042 e1043 e1066 e1063
e1065 e1050 e1055 e1068 e1085 e1078 e1095 e1096 e1090 o1080 e1084 e1084 e1045 e1045 e1049 o1051
e1041 o1045 e1052 e1035 e1039 o1040 o1044 e1052 o1049 o1049 e1045 o1059 o1055 o1055 e1043 o1055
o1061 e1051 e1055 o1044 o1041 o1046 e1038 o1044 o1038 e1048 e1051 e1035 e1043 e1046 e1031 e1033
e1036 e1029 o1019 o1029 o996 o993 e986 e995 e978 e968 e963 o974 o985 o972 o955 o957 e974 e985 e973
e958 e970 o974 e969 e977 e969 e959 o963 e953 e944 e943 e943 e934 e943 e937 e938 e951 e945 e949 o953
e961 e966 e975 o972 o975 e982 e990 o1012 o1025 o1022 e1018 o1034 o1029 o1025 e1023 e1020 o1023
o1022 o1029 e1033 e1024 e1034 o1025 o1025 e1027 e1030 o1037 o1027 e1034 e1024 e1020 o1017 o1026
o1017 o1018 o1014 e1011 e1024 o1028 e1017 e1017 e1017 e1021 o1025 o1045 o1038 e1043 e1028 e1016
o1025 e1036 e1048 e1056 e1046 e1037 o1048 e1046 e1044 e1041 e1032 e1045 e1027 o1038 o1043 o1033
o1028 e1027 e1035 e1023 o1027 e1028 o1022 o1015 o1015 o1024 o1014 e1018 e1023 o1018 e1012 e1021
e1018 e1026 e1022 e1028 e1022 e1020 e1016 e1021 o1017 o1025 o1027 o1016 e1016 o1026 o1031 e1015
e1019 o1022 o998 e998 e995 o991 e990 o994 e973 e943 o922 o919 e912 e921 e891 e904 o889 o881 o888
o896 o911 o914 e921 e912 e929 o948 o951 e958 e966 e964 e964 e949 o956 o957 o965 e961 o968 o948 o955
o953 e942 e932 e945 e952 o935 e944 e947 e951 e943 o951 o950 o963 o943 o967 e954 o948 o944 o936 e939
e956 e960 o947 o948 o956 e946 o960 o967 o964 o971 o955 o951 o976 o981 e980 e993 e982 e981 e981 e985
o987 e987 o993 e988 e987 e1022 o1029 o1020 o1025 o1030 e1046 e1046 e1050 e1048 o1064 e1045 e1028
o1013 o1011 e1020 e1037 e1036 o1051 e1039 e998 e986 e971 o957 e961 o960 o959 e961 o964 o958 o946
e951 e983 o987 e976 e982 e975 e1003 e999 e1001 e1004 e992 e988 e999 e1000 e991 e995 o997 e997 o1003
e998 e997 e1008 o1009 e996 e993 e971 e972 e981 e951 e948 o942 e941 e934 e931 e955 e965 e968 e975
e964 e944 e948 o945 e933 e936 e943 e932 e921 o921 o922 o908 o910 e915 o894 o868 o873 o867 o864 e857
e849 e866 e886 o924 o921 e911 e913 o923 o934 e935 e947 o954 o951 e944 e953 e936 e940 e944 e911 o929
o937 o943 o941 e929 o928 e952 e945 e972 o997 o1006 o1006 e1003 e1004 o1006 e1006 e1008 e1009 o1012
o990 o986 o986 o982 o1001 o1008 o1000 e975 o984 e973 o973 o970 e963 e972 e942 e955 o931 o928 e921
e904 e906 e890 o883 o880 e873 e865 o846 o843 o830 o827 e820 e812 e829 e836 e845 e882 o976 o976 o974
o977 o983 o971 e964 e972 e974 e963 e963 e953 o976 o983 o997 o1004 o1011 o996 e1020 e1019 e1028
e1027 o1037 o1027 o1022 e1053 e1067 e1068 o1059 o1063 o1067 o1066 o1062 e1057 o1044 o1040 o1040
e1036 e1044 e1035 o1043 e1063 e1059 e1068 e1071 o1078 o1093 o1097 e1065 e1064 o1064 o1072 o1064
o1058 o1035 o1034 e1039 o1036 o1042 e1034 e1003 e1000 e1008 e1015 o996 o999 e997 e1001 e993 e997
o1003 e998 o1001 o993 e1005 e1009 o996 e1008 e1001 e1003 e1002 e999 o994 o998 o995 o1002 o1011 o999
o995 o1015 e1006 e1003 o1003 o996 o1013 e1010 o1000 e1012 o996 e1003 e1010 o1001 o1001 o997 o1015
e1017 o1012 e1006 e1019 e1032 e1032 e1032 e1037 o1016 o1018 e1018 e1004 o1004 o1008 e1010 e999 e994
o1014 e1005 e1011 e1005 o1006 o1014 o997 o1009 e1005 e1021 e1021 o1029 e1021 o1026 e1022 e1022
o1022 o1021 o1040 o1039 o1036 e1035 o1024 e1015 e1020 e1031 e1028 e1031 e1032 e1034 o1016 e1032
o1035 e1034 e1025 o1014 o1018 o1018 e1019 e1013 e1009 e997 e1001 e1009 e996 e993 o1005 e964 e954
o954 o951 o958 o967 o949 o949 e959 o957 o957 e952 e958 e958 e951 e958 o964 o957 e955 e964 e957 o965
e959 o948 e953 e949 o958 o955 o960 e951 e952 e967 o958 o948 o959 e963 e948 e953 e960 e957 o953 e959
e949 o947 e948 o959 o967 o963 e953 e962 e968 o965 o966 o962 e951 e941 e948 o945 o962 e958 e960 o951
o955 e953 o953 o953 e949 e957 e951 o952 e956 e958 o970 o967 e980 o972 e972 o978 o964 e967 e973 e999
e1019 e1037 e1043 e1046 e1050 e1050 e1045 o1045 o1047 o1035 e1031 e1039 e1029 e1029 e1020 e1029
e1023 e1024 o1008 o1005 e998 e1007 e977 e990 e917 e925 e911 e920 o911 o942 e949 e941 o952 o908 o912
o910 o916 o898 e917 e910 e951 e959 e947 o951 e950 o941 o949 o947 e944 o975 o971 e986 o989 o972 e999
o993 e979 o976 o973 e966 e975 e958 e939 e943 e941 e938 o912 o909 o909 e909 e925 e899 o901 e908 e895
e898 o883 o874 e883 e886 e906 e907 o890 o897 e892 e889 e891 e878 e876 e873 e867 e893 o888 e898 e895
e887 e887 o870 o878 o875 o882 o878 o873 o879 o870 e879 e869 o903 o903 e891 o903 e902 e893 e884 e888
o873 o881 o887 o885 e873 o872 e896 e889 e900 e904 o897 o903 e898 e886 o892 o895 e903 e890 o894 e885
o880 o888 o884 o880 e876 e873 e878 o880 o879 o878 o874 e877 e889 e886 e886 o881 o874 e879 o900 o902
e876 e875 e884 e887 e879 e828 o809 o806 o793 o790 e783 e775 e792 e799 e791 o772 o769 e752 o756 o753
e746 e738 e755 e762 e771 e754 o735 o732 o719 o716 e709 e701 e718 e725 e734 e717 o682 o685 o685 e688
e672 e675 e687 o669 o666 e659 e668 o698 o695 e688 e697 e680 e651 e626 o632 o629 e622 e631 e614 e604
e594 e603 e606 e613 o596 e592 o592 o589 e582 e574 e591 e614 e618 e626 o614 e630 e632 e640 e641 e631
o661 o658 e651 e660 e643 o624 o621 e603 e614 e623 e606 o596 o595 e603 e610 e612 o611 e614 o595 e604
o613 o620 o605 e629 e628 o612 o605 o622 o610 e614 o637 o640 e647 e664 e662 e640 e644 e656 e678 o685
o688 e695 e703 e704 o722 o725 e732 e740 e723 e712 e704 e686 e692 e682 e695 e686 e679 e696 e697 e691
o681 e685 e685 e689 e692 e692 e702 e708 o707 e703 o684 e696 e693 e685 e681 e673 e684 e680 o708 o704
e694 e719 e709 o714 e713 o718 o710 o714 e716 o716 o706 e700 o710 e710 o707 e719 e723 e726 e715 e717
o708 e710 o712 o708 o710 o704 e713 o697 e697 o704 o694 o701 e693 o693 o693 e686 o716 e711 o730 o730
o728 e725 o727 e742 e736 o741 o725 o732 o737 o742 o725 o732 o740 o743 o759 o762 e769 e777 e760 e753
e751 o741 o730 e729 e753 o759 o760 o759 o749 e752 e747 o726 o727 e692 e692 e683 e688 e679 e676 e679
o679 o676 o678 o663 e668 e661 e697 o691 e681 e685 o693 o697 e697 e710 e713 o723 e726 o727 o712 e715
e711 o676 e683 o671 e682 e689 e686 e678 e687 e686 o680 e683 e698 e708 o708 o698 o709 e709 e768 o787
o788 e790 e789 e808 o801 e770 o756 o754 o751 e744 e736 o717 o714 e707 e716 e699 o676 o680 o676 e673
o696 e691 e681 e696 e694 e685 e675 e687 e686 e686 e707 e701 e704 o710 o717 o702 e687 o686 e623 e637
o632 o640 e636 e612 o612 o608 o604 e631 e628 o653 o650 e642 o646 o649 o655 o661 e659 e645 e629 o629
o632 e640 e646 o608 e610 e619 o627 e627 e632 o655 e650 e659 e656 e661 o664 e650 e658 o666 o668 e667
e667 o665 e665 o668 o663 e663 o661 o657 o660 o658 e653 e650 o672 o672 e660 o672 o667 o674 o673 o676
o676 o671 e670 o681 e679 o674 e661 e670 e663 o649 e652 e668 e663 o659 e669 e660 e651 e656 e650 e666
e659 e668 e675 e662 o666 o667 o653 o655 e660 o678 o675 o673 o678 e678 e664 o682 o676 o675 e673 e681
e667 e667 e663 o569 o555 o552 e545 e554 o562 o574 e569 o564 e537 e527 e534 e526 o518 e516 e500 o508
e505 e500 e491 e500 e494 e495 e479 e487 e487 e475 e485 e472 e461 e457 e457 o447 e457 e459 e467 o462
o465 e467 e460 o451 e460 o474 o464 o471 e461 e469 o473 o472 e472 e508 o502 o506 e516 o501 e520 o504
e501 e507 e511 e519 e522 e522 o516 o521 o513 o524 e526 o526 o529 o528 o526 o529 o531 o532 o540 o550
e540 e526 e534 o526 o523 o530 o531 o533 o537 o532 o529 e539 e538 e536 e527 e527 e528 e540 o546 e533
e547 e549 e544 o541 e549 o544 o546 e529 e532 e535 e530 o533 e536 o540 o549 o542 e528 e550 e544 o533
e530 e547 o582 e570 e583 e586 o583 e592 e600 e591 e608 e611 e595 o602 o588 e591 e593 e602 e599 e599
o596 e597 o600 o593 o601 o595 o599 e612 e608 o583 e593 e589 o595 e584 e613 e620 e606 e608 e618 e613
e614 o624 o614 o619 o614 e584 e584 o587 e588 e585 e590 e593 o582 o583 e607 e628 e622 e627 e610 o586
o594 o588 o586 e588 e598 e595 e588 e585 o620 e616 e617 o614 e613 e616 e611 e608 o619 o618 e599 e593
e609 e612 e620 e611 e612 o618 e615 o622 o639 e641 e638 e643 o648 o646 e644 e646 e636 e637 o637 o634
o639 e642 e633 e638 o624 e625 o632 o634 o631 e629 o631 e637 e646 o645 o644 e646 e655 e646 o646 o630
e638 e600 e595 e598 o598 o608 o597 e597 o614 o611 o608 e614 e607 e609 e606 e597 e597 e590 e602 e595
e599 o603 e591 e595 e596 e587 e590 e590 e585 e582 e587 o597 e620 e622 e630 e624 e621 e614 e604 e631
e631 e628 e630 e622 e617 o617 o618 e620 e632 o631 e598 e603 e613 e609 e599 e596 e589 e599 e599 e596
e549 e545 o535 o537 o542 e539 e532 e521 e520 o521 e515 o516 o529 o532 o523 o518 e529 o529 o532 o532
e535 o521 o529 o537 e533 e530 o530 o527 o518 o535 o534 e525 e535 o526 o519 o517 o534 o521 e500 e515
e506 e520 e529 e528 o540 e549 e529 e531 e539 o539 o542 o542 e542 o529 e532 e529 o530 o524 o528 o550
e538 e520 o529 o523 e549 o516 e528 e513 e522 e512 e517 e522 o516 o509 o510 o509 e500 o504 o497 e503
o506 o499 e500 e497 e520 e509 e508 e495 e491 e487 e499 o485 o481 e479 e490 e495 e479 o461 o454 o457
o450 o466 o470 e434 e435 o429 o429 o428 e435 e436 o419 e427 e432 e428 e436 e430 o436 o445 o434 o426
o433 o441 e431 o437 e431 o447 o450 o447 o451 e539 e536 o536 o526 o537 e532 e541 e540 e539 e582 e582
e591 e590 o586 e583 o594 e594 e585 e601 o599 o602 o597 o586 o610 o604 e610 o598 e642 e645 o645 e655
o653 o646 e652 e658 o652 o663 o656 o670 o654 o650 o662 o676 o672 e672 o671 o680 o669 o682 e681 o651
o649 o659 o654 o649 o666 e664 o668 o665 o665 o678 o682 e726 e725 o734 o733 e728 e753 e749 e748 e747
o756 o763 o748 e772 e771 o783 o786 e793 e784 o780 o787 o772 e801 e796 e795 o804 o811 o796 e820 e819
e828 e831 o839 e830 e825 e825 e830 e833 e835 e838 e837 e839 e839 e835 e826 e835 e829 e830 e843 e840
e836 e838 e841 o847 o848 o848 o850 e853 o851 e836 e842 o853 e872 e883 e888 e892 o893 o896 o896 e896
o883 e886 e883 o884 e882 e885 o904 o891 e881 e885 e890 e893 e895 e896 e904 e905 e920 o870 o874 o877
o872 e884 e869 e890 o890 o887 o887 o879 o902 o905 e895 o893 e891 e884 e896 e889 e893 e885 o878 e903
o894 e893 e902 e895 o881 e878 e897 e896 e892 e887 o884 o906 o902 o904 e887 e896 o892 o893 o901 o893
e898 e895 o893 o885 e880 o892 e879 e814 e807 e813 e815 e782 o793 o811 o815 o807 e815 e814 e819 e815
e828 e828 o830 e832 e826 e826 e831 o835 o838 o833 e830 e841 o841 o808 e782 e793 o800 e783 e791 o800
o797 o802 e807 e811 e809 o810 o807 e806 o806 o803 o803 o812 o811 e786 e798 e808 e793 e790 e790 o790
o804 e790 e763 e756 e762 e764 e731 o742 o729 o732 o724 e736 e728 e724 e724 e729 o734 o728 e725 e740
e734 e747 e744 e736 e745 e744 o738 e741 o734 e756 o779 e772 e775 e775 o786 o754 o752 e745 e776 e779
e781 o773 o776 o804 o804 e808 e800 e808 o801 e835 o826 o829 o826 e831 e834 e843 e847 o855 e852 o842
o851 e832 e836 e839 e839 e836 o836 o826 o811 o813 e802 e786 o788 o781 o792 o790 o788 e741 e740 e743
e745 e746 e754 e755 e770 e802 e805 e812 o809 e797 e789 e807 e808 o805 e804 e807 e802 e799 o810 o809
e790 e793 e785 o786 e801 e807 e804 o808 e804 e789 e789 e792 e785 e777 e778 e779 e770 e796 e786 e790
o800 o791 o791 e773 e784 e786 o800 e782 o781 o777 e775 e782 o791 e782 e778 e778 e781 o783 o799 o802
o802 o797 e796 o807 e805 o800 o791 e776 e797 o776 o796 o789 o801 e794 o783 e806 o750 o750 e740 e749
e757 o771 e785 e782 o782 o772 o783 e783 e754 e748 e749 o742 o742 o737 o756 e754 e749 e746 e736 e739
e739 e732 e729 e746 o770 o777 o780 e788 e777 o785 o785 o771 e781 e784 o793 o796 o805 e800 e792 o810
e797 e798 o781 o785 e795 o780 e795 e803 o837 e837 o888 o888 e876 o888 e883 e893 e889 e878 e879 e870
e874 o876 e872 e871 e856 e856 o840 o849 o848 e839 e844 e835 e832 e842 o842 o849 o837 o829 o839 e837
e838 e833 e834 e837 o839 e847 e847 o836 o832 e837 o827 e840 e844 o848 o844 e843 e837 e845 e834 o843
o842 o856 o854 e849 e840 e840 o845 e839 e829 e851 e847 e844 o847 o848 e842 o852 e856 e846 o833 o834
o830 e843 e845 e834 o832 o806 o809 o797 e797 o812 e812 o807 o813 o800 o803 e805 e800 e800 o802 o793
e803 e787 e783 o773 e788 o773 e776 e774 e780 e773 o774 o771 o774 e780 o771 e773 e783 o737 e738 o727
e729 e731 e734 e734 o741 e747 o751 o749 e747 e730 e736 e744 e732 o739 e737 e742 e754 e743 e752 e748
e750 o733 o742 e738 e739 e746 o752 o741 o745 e730 e723 e740 o740 e729 e729 o729 o725 e725 o733 e731
o740 o726 o728 e731 e724 o730 o733 o741 o732 o726 e728 e724 o731 o733 o747 o743 o751 o750 o748 o743
e755 e754 e749 e745 o749 o746 o746 o736 o730 e727 e736 e731 e749 e746 e737 o742 e748 e743 e749 e748
o740 o743 o743 o730 o732 e738 e741 o730 e745 e745 e745 o737 e741 e733 e738 e739 e723 e768 e765 e758
e768 e768 o765 e757 o750 o760 o747 o755 o751 e746 e743 e736 o754 o758 e768 o753 e768 e776 e805 e815
e819 e817 o834 e824 o831 e814 o832 o835 o830 o823 e835 o841 e830 e827 e820 e849 e852 e852 o849 o851
o852 o884 e882 e885 o888 e875 o879 e885 e885 e887 e890 o877 e889 e882 e879 e907 e968 e969 o1013
o1012 e1007 e1037 e1028 e1027 e1026 e1013 e1016 e1016 o1019 o1012 o1015 e1012 o1035 o1034 e1029
e1050 e1049 e1048 o1057 o1057 e1055 o1052 o1058 o1070 e1040 e1012 e1001 e1000 e1010 e1001 o1005
e1007 o1000 o1002 o1005 o1005 o995 e1009 e1000 o980 o979 o999 o999 e995 e978 o949 o949 e951 o948
o953 e944 e941 e947 e949 e950 e943 e955 o951 o946 e953 e951 e946 e947 o945 o945 o951 e958 e958 o946
e941 o946 e930 e934 e937 e932 e935 e938 e929 e935 e928 e936 e954 e945 o943 e941 o940 e949 o946 o943
o935 e947 o931 e938 e938 o927 e930 e923 e926 e940 e932 e929 e930 e930 e933 e941 o938 o932 o923 e902
o902 o895 o901 o900 o906 e897 o905 e893 e901 e892 e895 e890 e897 e904 e886 e892 e880 e880 e880 e876
o872 o876 o881 e877 o909 o910 o915 o896 o906 e895 o893 o888 o871 e847 o841 e874 o874 o877 e877 o878
o869 o880 e870 e869 e878 e881 o883 e882 e886 e882 o874 e871 e887 o876 o883 o883 e930 o921 o924 o924
e927 e917 o908 e925 e926 e929 o929 o939 o914 o921 o907 o904 o922 o924 e933 e952 e960 e998 e1002
e1006 e1005 e1008 o998 o993 e991 e983 e968 e954 e954 e950 e942 e939 e932 e942 e943 e925 e918 e933
e942 e932 e939 o952 e936 e954 e956 e946 e943 e935 o948 e932 e937 e942 o947 o951 o961 o956 o951 o966
e961 e961 e954 e961 e969 o947 e942 e953 o944 o948 e958 o950 o948 e950 e953 e960 o942 o938 e928 o943
e928 e920 e925 e922 o938 o918 e898 e904 e917 e920 e915 e930 o919 e927 o923 o928 o924 e922 e918 e925
o930 e937 o933 o931 e948 e951 e997 e997 o1008 e1001 e984 e979 e971 e979 o992 e997 e1000 e999 o1008
o1004 o988 e994 o1009 e1012 e1109 e1118 e1110 e1124 e1124 e1128 o1166 o1166 e1161 e1167 o1181 o1179
e1161 o1169 e1171 o1176 o1179 o1171 o1164 e1171 e1166 e1166 e1170 e1179 e1157 o1165 e1177 e1169
e1174 e1174 o1166 e1167 e1175 e1184 o1158 o1156 e1170 o1168 e1163 e1164 o1166 o1177 e1168 e1168
o1169 o1183 o1200 o1184 o1166 o1176 o1163 o1162 o1171 o1183 o1163 o1178 o1174 o1171 o1174 e1184
e1166 o1177 e1180 e1179 o1204 o1206 e1233 e1236 e1228 e1235 o1238 o1259 o1266 e1268 e1275 e1278
o1262 e1273 e1276 e1272 o1275 o1289 e1287 e1286 o1287 o1281 e1281 o1296 o1284 e1288 e1289 e1288
o1294 o1286 e1296 e1289 o1299 o1304 o1306 o1299 o1295 o1286 e1291 e1297 e1308 e1305 o1307 e1281
e1342 e1334 e1348 e1348 e1352 o1289 o1286 o1286 e1286 e1302 e1261 o1253 o1256 e1252 e1255 e1276
o1278 e1285 e1285 o1285 o1278 o1295 o1283 e1287 e1335 e1339 e1347 o1335 e1328 o1339 o1353 o1342
e1349 e1339 o1339 o1342 o1330 o1345 e1326 o1303 o1303 o1288 e1293 o1283 e1301 o1298 o1294 o1285
o1307 e1301 e1300 e1306 e1297 e1305 e1293 o1298 o1286 e1287 e1291 o1299 e1288 o1289 o1285 o1277
o1306 o1298 e1276 o1286 o1283 o1277 o1280 e1293 e1286 e1253 e1274 o1284 o1284 e1278 e1283 e1288
e1292 e1288 o1281 o1295 o1293 o1286 o1289 o1293 o1295 o1278 e1289 e1276 e1273 e1281 e1275 o1281
o1279 o1275 o1275 e1295 o1284 e1280 e1295 o1292 o1289 o1295 o1288 o1298 e1273 o1285 o1280 e1299
o1297 e1288 o1292 o1291 e1289 e1294 e1276 o1278 e1289 o1299 e1302 o1301 o1297 o1294 o1299 e1274
o1285 e1290 o1302 e1293 o1285 o1289 o1298 e1288 e1348 e1353 e1350 e1343 e1342 e1346 e1343 e1349
o1354 e1354 o1354 o1358 o1367 e1357 o1328 o1327 e1335 e1342 o1345 o1322 e1346 o1346 o1342 e1340
o1342 o1339 e1334 e1325 e1329 e1329 e1345 e1347 o1336 e1338 e1350 o1338 e1330 e1328 o1337 o1338
e1330 o1330 e1334 o1340 o1338 o1332 e1327 e1299 e1302 e1303 e1299 e1306 e1287 e1295 o1295 o1292
e1305 o1300 o1287 o1293 o1307 e1322 o1307 o1307 e1299 e1300 e1292 o1300 o1292 o1289 o1297 o1293
o1292 e1285 e1296 e1309 e1300 e1291 e1301 e1296 e1301 o1288 e1284 e1292 e1306 e1311 e1315 e1307
e1313 o1307 o1298 e1318 e1310 e1324 e1324 e1352 e1352 e1349 e1349 o1349 e1362 o1346 e1363 e1420
e1419 o1427 e1435 e1420 e1420 e1424 e1418 e1428 o1436 o1436 o1422 o1431 e1426 e1424 e1433 e1431
o1428 o1432 o1424 o1427 o1417 o1418 o1423 o1429 o1417 o1425 o1419 o1423 e1433 o1434 o1430 o1418
e1427 e1432 e1435 e1428 e1434 o1453 o1461 e1460 e1451 e1456 e1456 e1449 o1453 o1463 o1468 o1467
o1466 e1480 e1479 e1471 e1483 o1485 o1465 e1450 o1478 o1482 o1482 o1473 o1476 o1469 o1467 e1478
e1488 e1475 e1474 e1482 e1477 e1457 e1466 e1469 e1477 e1461 e1459 o1451 e1449 o1456 o1454 o1451
e1416 o1433 e1451 e1476 e1479 o1483 o1471 o1461 e1470 e1465 e1475 e1458 e1468 e1475 e1469 e1455
e1496 e1486 e1486 e1487 e1492 o1504 o1478 e1489 e1497 e1489 e1481 e1464 e1488 e1499 e1503 e1503
o1509 o1515 e1505 o1512 o1504 e1503 e1485 e1476 e1479 e1479 o1470 o1471 e1468 e1470 o1480 e1471
e1495 o1502 o1511 o1506 o1501 o1475 o1479 o1488 e1478 e1516 e1521 e1514 e1524 o1524 o1527 e1534
o1563 o1551 o1536 e1550 e1550 e1542 e1556 e1556 e1560 e1522 o1496 o1504 o1487 o1499 e1495 e1414
e1410 e1402 o1413 o1418 o1426 o1426 o1414 o1418 e1436 e1453 e1456 o1447 o1443 e1441 o1427 e1417
e1433 e1429 e1432 o1429 o1445 e1437 o1437 o1447 o1413 o1411 o1411 o1400 e1424 e1420 o1435 o1426
o1431 o1436 e1452 e1452 e1455 e1443 e1454 o1464 o1463 e1475 o1463 e1464 e1484 o1475 o1472 o1480
e1472 e1470 e1439 o1419 o1417 o1418 o1421 o1413 e1414 e1420 e1407 o1410 o1420 o1417 o1413 o1415
o1418 e1435 e1438 e1438 e1433 e1423 o1442 o1445 o1449 o1441 o1447 o1449 o1446 o1446 o1456 e1463
e1460 e1452 o1465 o1449 o1455 e1471 o1470 e1396 e1397 o1397 o1397 e1385 o1397 e1396 e1387 e1378
e1382 o1392 e1377 e1377 e1394 e1395 e1392 o1405 o1399 o1394 o1406 e1403 o1412 o1419 o1421 o1410
e1410 o1400 o1401 o1401 e1385 e1386 o1387 o1378 o1375 o1366 o1363 e1376 o1382 o1379 o1387 o1370
o1384 o1400 e1405 o1390 e1384 o1373 o1404 o1401 o1401 e1401 e1390 e1394 e1386 o1429 o1423 o1420
o1420 o1430 o1460 o1460 e1456 e1461 e1467 o1465 e1474 o1452 e1465 e1468 e1475 e1476 e1481 e1483
o1469 e1484 e1483 e1487 e1487 o1494 e1501 e1486 e1488 o1480 o1478 e1485 e1482 e1482 o1482 e1495
o1479 e1496 o1407 e1407 e1395 e1395 e1381 e1383 o1388 e1369 o1371 e1373 e1355 e1365 e1372 e1380
o1358 e1353 o1363 o1360 o1372 o1386 o1386 e1387 e1390 e1394 o1400 o1386 o1407 o1403 o1405 e1388
e1382 e1383 e1384 o1375 o1379 o1388 e1378 o1357 e1348 e1362 e1358 e1354 e1328 o1219 e1223 o1232
o1229 o1234 e1236 e1235 e1224 o1222 o1234 o1231 o1229 e1233 e1226 e1227 e1217 o1222 e1236 e1227
o1175 o1178 e1163 e1177 o1176 o1172 e1172 o1168 e1168 e1165 o1174 o1170 o1172 o1166 e1171 e1169
e1175 e1155 e1165 e1176 o1176 o1179 o1179 o1174 e1175 e1171 e1177 e1166 e1158 e1168 e1168 e1168
o1160 e1161 e1173 e1168 e1157 e1143 e1140 e1140 e1136 e1143 o1132 o1119 o1110 o1117 o1121 e1112
e1130 e1110 o1103 o1111 o1108 o1111 e1113 e1121 e1125 e1122 o1125 o1109 o1127 o1117 o1122 o1127
o1119 e1115 e1122 e1144 e1141 e1138 e1145 o1131 e1149 o1147 e1149 o1186 e1205 e1205 e1220 o1213
e1212 e1211 e1229 e1207 o1228 e1227 e1231 e1232 e1222 e1216 e1227 e1236 e1228 e1225 e1229 e1228
e1237 e1226 o1232 e1226 e1233 e1233 e1235 e1215 e1235 e1233 e1226 e1227 e1217 o1222 e1236 e1227
o1216 o1217 o1217 e1222 o1206 o1202 o1222 o1217 o1190 o1199 e1189 e1175 o1174 o1166 o1180 o1164
o1160 e1167 e1168 o1180 o1176 o1166 o1178 o1179 o1161 o1165 o1182 o1195 o1185 o1185 o1192 e1180
o1174 o1178 e1166 e1165 o1177 e1169 e1164 e1186 e1187 o1178 o1171 o1177 o1176 o1173 o1184 e1162
e1162 e1161 e1163 o1172 o1175 o1173 e1189 e1182 o1182 o1183 e1160 o1169 o1171 e1176 e1185 e1188
e1194 o1186 o1210 e1216 e1216 e1209 e1209 o1226 o1221 e1210 e1216 o1198 e1206 e1210 o1220 o1213
o1219 o1216 e1219 e1227 o1215 e1213 e1218 e1218 o1230 e1219 e1225 e1225 o1229 o1220 o1225 o1230
o1222 o1221 e1218 e1218 e1222 e1222 o1232 e1222 e1220 e1217 e1203 e1214 e1216 o1210 e1213 e1228
e1224 o1224 o1231 o1228 o1235 o1234 o1230 o1219 o1219 e1219 e1219 e1211 e1218 e1226 e1231 e1231
e1232 e1232 o1198 e1198 e1201 e1218 e1218 e1219 e1219 e1211 o1220 o1216 o1212 o1213 o1211 e1231
e1197 e1201 e1194 o1149 e1156 o1147 o1151 e1161 o1146 e1161 e1169 o1122 o1122 e1114 e1125 o1122
e1113 o1101 o1102 e1104 e1103 o1117 e1113 o1094 e1098 e1100 e1082 e1086 e1086 e1080 e1072 e1081
e1081 e1073 o1068 o1070 o1073 e1083 o1068 e1083 o1083 e1081 e1080 e1080 e1081 o1085 o1077 e1084
e1088 o1080 o1077 o1098 o1105 o1107 o1088 e1099 e1114 e1105 e1116 o1118 e1106 e1116 e1119 e1127
o1116 o1111 o1102 e1118 e1117 e1114 o1108 o1127 e1119 e1109 e1105 e1104 e1098 e1114 e1128 e1130
e1120 e1107 e1104 e1109 e1094 e1112 e1112 e1092 e1095 e1095 e1088 e1093 e1093 e1082 e1081 e1074
e1083 e1082 o1090 e1102 o1097 e1096 e1098 e1081 o1071 o1071 e1066 o1077 o1087 e1066 e1066 e1052
e1043 e1046 e1052 o1030 e1029 e1040 o1049 o1052 o1038 o1030 o1028 e1016 e1014 o1047 e1036 o1041
o1032 e1029 o1025 e1032 e1032 e1024 e1083 o1075 e1073 e1073 e1071 o1071 o1076 e1086 e1082 o1089
o1077 o1084 o1081 o1088 o1086 e1091 e1086 o1086 o1090 e1100 o1085 e1100 e1122 e1114 e1108 e1126
o1134 e1138 o1119 e1124 o1131 o1141 o1134 o1142 e1155 o1140 e1149 o1140 o1143 o1150 o1135 e1130
o1136 e1136 o1133 o1132 o1130 o1119 e1129 o1130 o1140 e1135 e1131 e1117 e1151 e1152 e1163 o1163
o1163 o1165 e1151 o1190 o1224 e1217 e1206 e1207 e1196 e1200 e1217 e1216 o1231 e1216 e1228 e1224
e1226 o1217 o1215 o1208 o1212 e1222 o1207 o1172 o1179 o1167 e1164 o1169 e1150 e1147 e1159 e1148
e1163 e1166 o1157 o1147 o1160 o1160 o1163 o1161 o1158 e1172 e1169 o1182 e1160 o1165 o1168 o1156
o1160 e1164 e1146 o1170 o1173 o1180 e1189 o1189 o1197 e1222 e1234 e1230 e1253 o1261 o1264 o1271
e1249 e1246 e1244 e1241 e1249 e1228 e1231 e1238 e1238 e1227 e1235 o1235 o1228 o1231 o1224 o1240
o1241 e1244 e1243 e1240 e1230 o1222 o1219 o1216 e1227 e1234 e1234 e1234 e1231 e1223 e1207 e1211
e1219 e1223 e1223 o1189 e1164 e1165 e1181 e1165 e1165 e1165 o1171 o1166 o1171 o1152 o1156 o1159
e1160 o1163 o1166 o1164 e1181 o1161 e1145 o1145 o1135 o1152 o1139 o1132 e1130 e1125 e1115 e1119
o1127 o1124 e1128 o1106 e1108 e1118 e1129 e1132 e1139 e1139 e1128 e1136 e1136 e1129 e1132 e1125
e1141 o1151 o1144 e1146 e1146 e1149 e1141 o1153 e1153 o1141 o1132 o1146 o1147 e1139 o1146 e1149
e1183 o1183 o1176 o1176 e1188 o1179 e1176 e1177 o1171 e1176 e1168 e1171 e1168 e1195 o1204 o1213
o1208 o1203 o1220 o1222 o1221 o1225 e1210 e1208 e1208 o1225 e1210 e1216 o1256 e1251 o1257 e1257
o1254 o1253 o1251 o1240 e1250 o1251 o1261 e1256 e1252 e1238 e1272 e1273 e1284 o1284 o1284 o1286
e1272 o1293 o1300 o1288 e1285 o1290 e1271 e1268 e1280 e1269 e1284 e1287 o1278 o1268 o1281 o1281
o1284 o1282 o1279 e1293 e1290 o1303 e1281 o1286 o1289 o1277 o1281 e1285 e1267 o1291 o1294 o1301
e1310 o1310 o1318 o1310 e1285 e1286 e1286 e1302 e1295 e1298 o1285 o1293 e1297 o1302 o1291 o1273
o1283 o1284 o1276 o1283 o1291 o1297 o1297 e1309 o1300 e1297 e1298 o1292 e1297 e1289 e1292 e1289
e1265 e1274 o1273 e1265 e1258 e1275 o1257 o1255 o1244 e1244 e1224 e1223 e1232 e1229 e1234 o1234
o1220 e1234 e1248 e1250 e1253 e1245 e1261 o1254 e1239 o1258 o1250 o1253 o1246 o1262 e1270 e1267
e1267 e1267 e1267 o1277 o1267 o1265 o1275 e1297 e1297 e1290 e1294 o1281 e1297 o1297 o1303 e1301
o1306 o1297 o1301 e1288 o1296 o1310 e1312 e1296 o1295 o1296 e1284 e1276 e1258 e1269 o1293 e1306
o1303 e1296 e1286 e1285 e1304 o1285 o1287 e1287 e1284 e1293 e1300 e1283 e1282 e1288 o1298 e1294
e1294 e1229 e1236 e1219 e1233 o1229 o1219 e1216 e1234 e1229 e1219 e1224 e1223 e1221 e1229 e1227
o1227 o1230 e1240 e1222 o1243 o1220 o1217 o1208 e1218 e1176 o1176 o1180 e1155 e1144 e1145 o1145
o1148 o1136 o1151 e1132 e1130 e1133 e1126 e1123 e1131 e1120 o1150 e1142 e1145 e1142 o1137 e1167
o1175 o1189 e1191 e1175 o1174 o1175 e1163 e1155 e1148 o1172 e1185 o1182 e1175 e1165 e1164 e1183
o1164 o1166 e1166 e1163 e1172 e1179 e1162 e1161 e1167 o1177 e1173 e1173 o1111 o1115 o1115 e1107
e1119 e1109 o1099 o1087 o1068 o1072 e1082 o1067 e1082 e1090 e1055 e1063 e1049 e1049 e1045 e1038
e1038 e1042 e994 e986 o961 o943 o958 e968 e971 e959 e950 e947 e947 e952 e955 e950 e939 e947 e938
e941 e936 o945 o932 o947 e934 e943 e938 e919 e910 e918 e920 e909 e909 o922 o929 e937 e933 o925 e908
e905 e905 e910 e913 e908 o892 o869 o871 e876 e848 e848 o846 o839 o845 o837 o845 e851 o829 o844 e856
e853 e849 o845 o849 o854 e850 e798 o789 o792 o787 o802 o776 o785 e797 o803 o812 o807 o812 e798 o807
e791 o801 e806 o806 o814 o802 o809 e815 o809 e806 e806 e795 e796 e796 e799 e797 e803 o813 e812 e794
o817 o814 o814 e811 e821 o830 e813 o809 e816 o816 o812 o820 e827 o817 e803 e805 e827 e827 e836 e836
e839 e828 e822 e827 e842 o836 o836 e838 o843 o840 o844 e850 e847 e852 e847 e854 o855 o819 e830 e839
e886 e890 e895 e900 e900 e893 e896 e891 e896 e899 e894 e879 e879 e876 o876 o879 o874 e871 e880 e875
o889 e888 o881 o879 o886 o874 e881 o892 e919 o940 e948 e939 e931 e925 e945 e948 e940 e941 e952 e954
e963 e954 e955 e940 o951 e956 o930 e939 e931 e941 e937 o931 e925 e930 e920 e922 o943 o950 o938 e945
o956 e957 e957 o978 e972 o965 e964 e963 e981 e959 o980 e979 e976 e976 o975 e971 o960 e957 e978 e974
e971 o971 o961 o972 e972 e933 e922 e919 e911 o932 e920 o913 o933 e912 e912 o914 e911 e903 e905 e902
e910 e918 o932 o936 o945 e935 e902 e905 o905 o915 o904 e909 e889 e898 e895 e907 e896 e901 e885 e884
e884 e881 e889 e888 e869 e877 o872 o891 o890 o885 o875 o872 o872 e885 o886 e892 o895 e875 e893 e897
e889 e890 o891 e891 e891 e901 e902 e892 e882 e869 o884 e885 e887 e888 e885 o885 o875 o886 e886 e867
e864 e862 e861 e768 e768 o763 o769 e763 o765 o772 o810 e808 e813 e805 e812 o798 o805 o798 e788 e802
e805 e807 e810 e814 e799 e799 e822 o843 e826 e829 o829 o839 o828 e828 e853 e844 e854 e849 o773 o776
e776 e773 e775 e772 e760 e759 e768 e771 e769 e775 o785 e784 e766 e780 e785 e777 e784 o770 o777 o770
e760 e774 e777 e779 e782 e786 e771 e771 e794 o815 e798 e801 o801 o811 o800 e800 o749 o745 e735 e737
e728 e761 e747 e752 e757 e749 e756 o742 o749 o742 e732 e746 e749 e751 e754 e758 e743 e743 e766 o787
o770 o773 e783 e757 o756 o769 e772 e772 o756 o759 o759 e764 e759 e768 o754 o747 e743 e733 e742 e745
o745 o755 o744 e744 e706 e702 e699 e701 o706 o710 e708 e707 e705 e700 e709 e708 e709 e709 e681 o681
e684 e681 e675 o694 e687 o685 e693 e690 e702 e687 o676 e692 e690 o690 o701 o689 o686 o693 o694 o696
o700 o695 o692 o697 o704 o701 o706 e697 e702 e710 o721 o710 e713 o735 o728 e819 e828 e824 o837 e835
e833 e839 e842 o827 o824 o829 o816 e812 e829 o822 o811 e812 o803 o807 e792 e806 o805 o801 e801 o801
o799 o803 e813 e795 o804 o798 e824 o791 e803 o789 o793 o791 o797 o779 e798 e801 e799 e804 e800 o790
o792 o797 e794 e787 o776 o779 o777 o783 o765 o779 e791 e782 o793 o785 o791 o793 o759 e791 o781 o785
o777 o778 o778 o772 o782 e781 e788 e788 o786 o786 o794 o788 o779 e777 o781 o776 e777 e764 e775 e776
o800 e796 e797 e801 e793 e794 o796 e800 o754 o757 o757 o752 e751 o762 e760 o767 o775 o755 o758 o770
e766 o740 o748 e751 e730 e721 e704 o707 e711 o722 e734 e739 e729 e738 e734 o734 o726 e732 o720 o731
o734 e750 e751 o751 o747 o749 o743 o761 e742 e739 e741 o736 o740 o749 e739 o662 o632 o631 o626 o645
o635 e646 o648 o653 e611 o620 o617 o617 e614 e624 o633 e616 e615 e612 o612 o602 o627 o620 o634 o637
o619 o617 e608 e599 e602 e609 e599 e598 e616 e623 e608 e599 e609 e602 o589 e605 e548 e551 o536 o529
e532 o525 e532 o529 o533 e522 e514 e521 o516 e530 e515 o505 o525 e503 e498 e489 e496 e511 e491 o478
e470 e467 e459 e468 e461 o454 e459 e476 e504 o511 o514 o523 e518 e510 o528 e515 e516 e508 e511 o521
e506 o521 o524 o526 o528 e526 e535 e532 e544 e533 e548 e550 e550 o536 o537 o545 e538 e541 e551 o541
o537 e527 o542 e527 e519 o523 o520 e512 e533 o531 o512 e505 e506 e502 e499 e502 o509 o514 o553 o563
o556 e566 e558 o554 o555 e555 e584 o584 o585 o584 o584 o593 e596 e596 o608 e605 e605 o597 e601 e593
e598 e599 e583 o580 o570 o577 o592 o572 o592 o594 e559 o551 o555 e540 e554 o553 o563 e550 e549 e541
e543 e549 e541 e549 e562 e554 e553 e562 e565 o573 o578 o552 o561 e552 e577 e576 o588 e579 o582 e577
e587 e595 e589 e592 e585 e565 e573 o573 e570 e579 e582 e591 e574 e570 o571 o566 e580 e581 e581 e584
e590 o571 e578 o580 e581 e578 e571 e572 e577 e565 e591 e588 e586 e584 e590 e595 o586 o579 o591 e582
e581 e573 e563 o577 e587 e580 e587 e590 e582 e598 o591 e576 e595 e591 e583 o598 e605 e606 e583 e574
e578 e570 e573 o573 e566 o578 o574 o565 e573 e573 e574 e553 e548 e556 e542 e542 e538 o498 e498 o505
o485 o484 o485 o485 o476 e460 e465 e465 e470 o484 e438 o449 e443 e471 e478 e470 o465 o461 e443 e463
e471 e470 e469 e461 o466 o465 e464 e469 o477 e461 e460 e452 o465 o468 o463 e460 e471 e468 o475 e468
e465 o459 o478 e470 e475 e485 e460 e463 e436 o450 e458 o462 e474 o465 o466 o452 o454 e459 e468 e472
o474 o476 o459 o471 e473 e480 e480 e483 e483 o483 e470 o486 e469 e433 e434 o417 e427 e435 e421 e421
e417
