e87 e90 o92 e92 o98 e93 e92 e100 o91 e89 e97 e106 e91 o111 e110 e118 o109 e114 e106 e112 e95 e110
o102 e93 e101 o92 e94 o93 e100 e103 e95 e90 o98 e101 e103 e105 e100 o115 e116 o126 o129 e136 e127
e144 o154 o158 o150 e158 e157 e162 e158 o158 o166 o158 e153 o151 o142 e137 e143 o134 o144 o137
o122 o142 e155 e163 e166 o168 o168 e170 e163 o163 e173 e179 e178 o178 o183 e172 e184 o191 e126
o124 o121 o118 o137 o126 e120 o128 e133 e123 o123 o133 o128 o123 e136 e128 e128 e128 e124 e134
e129 e120 e130 e115 e112 e104