e132 e134 e134 o130 o133 e132 e131 o126 o147 o146 o155 o151 e143 o152 o157 o157 o153 o153 o160 o145
o161 e165 e164 o159 o180 o179 o188 o191 e188 e176 o173 e177 e181 e188 e173 o197 o196 o196 o206 o206
o209 e204 o193 e188 e195 e180 o204 o203 e212 e219 e204 o228 o227 o227 o224 e222 o222 e216 o221 o213
o217 e214 e202 o199 e203 o207 o197 o206 o200 o201 o185 o176 o185 o179 o180 o164 o155 o164 o158 o159
o143 o134 o143 o137 o138 o122 o113 o122 o116 o117 o130 o151 o172 o193 o214
e101 e92 e101 e95 e96 e80 e71 e76 e81 o75 o68 e109 e108 o99 o96 o104 o111 o94 e100 o87 o97 o90 e100
e92 o88 o89 e89 e69 e76 e69 o74 o75 o78 o85 e61 o46 o50 e52 o50 e60 e55 e58
