e2782 o2796 e2796 o2786 o2772 o2732 o2732 o2732 e2738 o2728 o2722 o2720 o2718 o2694 o2696 o2698
e2700 o2708 o2672 o2674 o2684 e2680 o2692 o2692 o2692 o2692 o2692 o2692 o2692 o2692 o2680 o2692
o2658 o2660 o2664 o2664 o2666 o2666 e2662 e2662 e2666 o2664 o2666 o2674 o2674 o2674 o2674 o2674
o2674 o2674 o2674 o2674 o2646 o2662 e2664 o2638 o2638 o2638 o2638 o2656 o2652 o2652 o2654 o2654
o2646 o2654 o2654 o2654 o2654 o2654 o2654 o2654 o2654 o2654 o2652 o2654 o2652 o2654 o2652 o2654
o2652 o2654 o2632 o2654 o2644 o2622 o2632 o2632 o2632 o2632 o2632 o2632 o2640 e2634 o2640 o2644
o2610 o2632 o2608 e2622 o2596 o2606 o2600 e2606 e2588 e2590 e2600 o2570 o2572 o2572 o2568 e2584
o2552 o2556 o2576 o2540 o2562 o2530 o2550 o2542 o2542 o2536 o2530 o2520 o2530 o2534 o2508 e2498
o2502 o2500 o2506 o2494 e2504 e2506 o2500 o2502 e2470 e2472 o2468 e2468 o2472 o2472 o2472 o2470
o2470 o2470 e2482 o2478 e2478 o2488 o2488 o2488 o2466 o2464 e2440 e2458 o2456 o2464 o2448 o2458
e2458 o2440 e2448 o2448 o2444 o2442 o2458 e2442 o2458 e2442 o2466 o2422 o2426 o2436 o2398 o2400
o2410 o2372 e2368 o2370 o2380 o2380 e2376 e2352 o2358 o2354 e2352 e2354 o2344 o2340 o2340 e2358
o2378 o2350 o2316 e2316 e2324 o2324 o2332 o2318 o2310 o2324 e2320 o2310 o2330 o2296 o2300 o2302
o2278 e2288 o2276 o2278 e2280 o2288 o2292 e2282 o2294 e2288 e2260 o2280 o2276 o2258 o2260 o2266
o2230 o2232 o2230 o2230 o2230 o2230 o2226 o2226 o2228 o2226 o2226 o2226 o2238 o2246 o2220 o2198
e2198 o2212 o2208 o2208 o2202 e2214 o2182 e2192 o2188 o2200 o2202 o2180 o2174 e2170 o2170 o2192
e2166 o2174 e2178 o2182 o2180 e2154 o2168 o2132 o2144 o2110 o2100 o2100 o2116 o2106 o2074 o2080
o2074 o2074 o2080 o2074 o2070 o2072 o2072 o2076 o2082 o2082 o2088 o2082 e2058 o2056 e2058 o2056
o2060 o2062 o2062 o2062 o2062 o2062 o2072 o2072 o2070 o2062 o2052 o2052 o2048 o2052 o2052 o2046
o2048 o2056 o2050 e2052 o2060 o2064 o2050 o2046 o2032 o2032 o2044 o2040 e2048 o2066 o2008 o2008
o2010 o2026 o2016 o2024 o1982 o1988 o1982 o1982 o1988 o1990 o1990 o1992 o1982 o1980 o1980 o1962
o1960 o1962 o1964 o1960 o1956 o1960 o1974 o1950 o1958 o1970 o1968 o1966 o1940 o1940 o1944 e1944
o1944 o1922 o1940 o1934 o1838 o1858 o1856 o1844 o1834 o1828 o1802 o1800 o1782 o1782 o1770 o1750
o1758 e1764 o1762 o1738 o1758 o1728 o1728 o1710 e1708 o1714 o1710 o1692 o1686 o1696 o1682 o1692
o1696 o1692 o1704 o1684 o1684 o1678 o1680 o1656 o1656 o1688 o1658 o1658 o1658 o1674 o1676 o1652
e1670 o1668 o1654 o1646 o1648 o1652 o1650 o1660 o1638 o1636 o1614 o1608 o1606 o1626 o1596 o1598
o1564 o1560 o1522 o1524 o1526 o1534 e1520 o1514 o1524 o1538 o1526 o1530 o1504 o1498 o1496 o1494
e1502 o1514 o1468 o1496 o1474 e1472 e1472 o1486 e1482 o1486 o1458 o1464 e1434 o1446 o1444 o1448
o1416 o1430 o1424 e1432 o1432 o1398 e1396 o1386 o1386 o1402 o1396 o1362 e1382 e1376 o1352 o1300
e1284 o1286 o1292
