o90 o108 e92 o129 e70 o79 o73 e76 o104 e96 e109 o73 e40 o51 o45 o62 e63 o55 o78 o31 o11 o13 o35
o25 o-29 o-31 e-31 o-69 e-68 o-44 o-64 e-49 o-43 o-38 o-55 o-55 o18 o25 o32 o36 e43 e60 o57 o76
e83 e72 e71 e81 o72 e70 o100 o94 o120 e123 e151 e154 o161 o152 o169 o188 o190 o192 o191 o194 o202
e214 e217 o224 o232 o251 o254 o262 e241 o253 e260 e270 e273 o280 o288 e307 e310 o317 o325 e344
e347 o354 o362 e381 e384 o391 o399 e418 e421 o428 o436 e455 e458 o465 o456 o473 e492 e495 o502
o493 o510 o529 o532 e542 o527 o527 o544 e554 e557 o564 o555 o572 e591 e594 o601 o592 o609 e628
e631 o638 o629 o646 e665 e668 o675 o666 o683 e702 e698 e695 e700 o702 e712 e715 o722 o713 o690
e688 e685 o678 o670 e651 e648 o641 o633 e614 e611 o604 o596 o577 o577 e572 o578 o588 e569 o573
e570 e581 e568 e556 e555 e569 o572 o613 e611 e614 o621 o612 o629 o650 e648 e651 o658 o649 o666
o687 e685 e688 o695 o686 o703 o730 e722 e714 e721 o716 o713 o703 o705 e689 e686 o679 o688 o671
o661 o661 o663 e663 o654 o648 o648 o667 o659 o649 o625 o626 o619 e631 e662 e672 e665 e650 e670
o683 o682 o692 o685 e672 o671 e650 e648 o640 o643 o651 e665 e663 e666 e666 e664 e650 e648 e640
e643 e643 e628 e637 e643 o653 o666 o656 o656 o656 o646 e657 e660 e664 o670 o677 e729 e735 e749
e752 o759 o750 e745 e740 e735 e752 e754 o767 o762 o769 o766 o762 o771 o759 e786 e789 o796 o804
e823 e826 o833 o841 e860 e863 o870 o878 e897 e900 o907 o898 o915 e934 e937 o944 o935 o952 o971
o981 o969 o972 o979 o971 o968 e947 e944 o937 o946 e994 e997 o1004 o1012 e1022 e1023 o1022 e1007
e1012 o995 o1003 o1014 o1014 o1007 o1005 o1025 o1024 e1013 o1020 o1004 o992 e1001 e993 e1000 e1008
e980 e985 o988 o984 o986 o973 o981 o972 o975 o988 o983 o998 o998 e1023 e1022 o1036 o1041 e1035
e1047 o1045 o1053 o1039 o1051 e1033 o1012 e1003 e982 e988 e987 e1002 o1007 o1008 e1024 e1041 e1028
e1027 o1024 e1020 e1025 e1028 e1028 o1029 o1039 e1037 e1022 o1051 e1044 e1041 e1043 o1033 o1036
o1026 o1035 o1031 o1039 o1038 o1056 o1049 e1029 o1025 o1026 o1028 o1020 o1034 o1034 o1038 e999
e1002 e1002 o996 o990 o999 o995 e991 o984 o985 o989 o976 o929 e910 e907 o900 o909 o892 o882 o882
e879 o888 o890 o895 o920 o927 o927 o936 o919 o936 o940 o908 e906 o913 o910 o908 o907 o905 o883
o882 o891 o883 o890 e896 e896 o890 o891 e876 o910 o913 e915 e920 e912 e907 o918 o926 o926 e910
o913 o912 o922 o913 e904 e914 e907 e892 e912 o925 o924 o917 o924 o932 e910 o905 o916 e892 e890
o861 o824 o787 o784 e794 e797 e797 e788 e789 o802 o792 e807 e815 e817 e806 o826 e817 o831 o840
o833 e820 o815 o826 e817 e820 e808 e809 e823 e813 o801 e831 o830 o831 e819 o821 o827 o822 e813
e817 e815 o832 e812 o796 o834 o831 e829 e822 e829 e837 o824 o820 e816 o808 e775 e772 e777 e772
e772 o765 o775 o775 o772 o764 o708 o718 e718 e715 e720 e715 e715 o708 o718 o718 o715 o707 o686
o681 o684 o670 e678 e681 o691 o678 o681 o686 e680 o677 o727 o727 e719 e722 o732 e737 o737 o728
e706 e706 e706 e720 e718 o713 o741 o741 o743 o752 o745 o730 o750 e763 o737 e680 e672 e678 e680
o678 o678 e646 o601 o601 o597 e595 e600 o606 e611 o602 e594 e591 e583 o592 e603 o606 e589 o586
o595 o588 e575 o574 o571 o559 o564 o557 o564 e550 o573 o572 o584 o608 o605 o597 e580 e580 o584
e586 e583 o579 o575 o567 o574 o582 o597 o587 o594 e600 o606 o587 o597 o607 o627 o614 o614 e622
e623 e627 e596 e593 e584 o594 e560 o555 o500 e500 e497 o490 o482 e463 e460 o453 o462 o445 o419
e426 e423 o416 o408 o382 e389 e386 o379 o388 o371 o345 e352 e349 o342 o351 o334 o308 o315 o318
o313 o328 o310 o310 e330 e333 o340 o348 o331 e300 e301 e286 e297 e300 o282 o286 o271 o277 o280
o288 e328 e325 e337 e336 e322 e332 o344 e367 e370 o377 o368 o385 e404 e411 e404 o425 e419 o413
e415 e424 e396 e407 e420 o413 o411 o428 e431 e427 e429 e423 e438 e449 o423 o419 e425 o451 e458
e447 e450 e454 e452 e449 o471 o471 o471 e483 o499 o492 o479 e477 e496 e495 o494 e497 e510 o512
e510 e514 o516 e518 o506 o520 e518 o499 o485 o485 o476 o487 e485 o499 o500 o474 o490 o490 e482
e485 o495 e500 o500 o491 e469 e469 e465 o476 o469 e457 o457 e455 o452 o461 o461 e459 e450 e459
o458 o478 o475 e483 e486 e484 o494 o491 e500 e507 e501 e509 e506 e490 e508 o471 e432 e424 e430
e426 e435 o438 o436 o427 o426 e421 o427 e429 e434 e408 o406 e413 e409 e411 o424 e424 o390 o387
o385 o384 o382 o394 o392 o360 o369 o361 o373 e368 e362 e373 o357 e314 o306 o309 o304 e309 o302
e305 e290 o288 o285 o293 o290 e290 o281 o273 o266 o290 o317 o308 o312 o321 o299 o297 o308 o317
e318 e321 e323 e332 e335 e314 e319 o324 e297 e290 e297 e305 e280 o292 o288 e240 e232 e229 o215
o222 o231 o214 e195 e192 o185 o194 o177 e158 e155 o148 o157 o140 e121 e118 o111 o120 o103 e93 e96
o103 e132 e120 e105 o91 e74 e71 e76 e71 e71 o64 o74 o74 o71 o63 o119 o120 o121 e121 e124 o131 o122
o139 e149 e153 e151 o168 e171 o172 e167 o161 o148 o151 o160 o149 o174 o171 e164 o157 o173 o200
o204 e201 e189 o186 e190 e185 e186 o195 o170 e176 o193 o200 o196 o198 o201 o218 o219 o205 o214
e214 o218 e221 o223 o240 o237 o229 e228 e232 o243 e250 e192 e195 e195 o181 o182 o189 e180 e188
e176 o176 e179 o187 e189 e186 e191 e178 o192 o209 e246 o239 e239 e236 o226 e234 o244 o245 o226
e226 e217 e224 e221 e219 e212 e210 o211 o207 o203 o214 o222 o221 o220 o221 o231 o221 e211 o215
o184 e156 e160 o164 o122 o123 o114 e132 e126 o114 o129 e113 e109 e106 o112 o109 o104 o118 e113
e122 e117 e112 e120 e121 o124 o124 o120 o122 e113 o120 e115 o131 o142 e129 e129 o126 o137 o140
e141 e140 e137 o135 o131 o136 o141 o152 e175 e167 o165 e185 e182 o180 e182 o172 o177 o174 o142
o151 o148 o140 e124 o1022 o1034 o1032
