(g0%1)[331]
(g1%2)[335]
(g0%2)[324]
(g0%1)[335](g0%1)[336]
(g1%2)[343]
(g0%1)[318]
(g0%1)[317]
(g1%2)[305]
(g0%1)[290](g0%1)[298]
(g0%1)[292](g0%1)[297](g0%1)[298](g0%1)[303]
(g0%1)[286]
(g0%2)[303]
(g0%2)[305]
(g0%1)[280]
(g0%1)[270]
(g0%1)[282]
(g0%1)[274]
(g1%2)[286]
(g0%2)[282]
(g1%2)[285]
(g1%2)[292]
(g0%2)[281]
(g0%1)[283]
(g1%2)[282]
(g1%2)[284](g1%2)[285](g0%2)[288](g0%2)[289]
(g1%2)[291]
(g0%1)[299]
(g0%2)[282]
(g1%2)[283]
(g0%1)[295](g0%1)[296](g0%1)[297](g0%1)[298](g0%1)[299]
(g0%1)[313]
(g0%1)[305]
(g0%1)[306]
(g0%1)[309](g0%1)[310](g0%1)[311](g0%1)[312](g0%1)[313]
(g0%1)[315]
(g0%1)[313](g0%1)[314](g0%1)[315](g0%1)[316](g0%1)[317]
(g0%1)[311]
(g1%2)[341]
(g0%2)[341]
(g0%1)[349]
(g0%1)[326]
(g0%1)[322]
(g1%2)[318]
(g0%1)[327](g0%1)[328](g0%1)[329](g0%1)[330](g0%1)[331]
(g1%2)[329]
(g0%1)[311]
(g1%2)[303]
(g0%2)[308]
(g0%2)[303]
(g0%1)[304]
(g0%1)[301](g0%1)[306]
(g0%1)[313]
(g0%1)[311]
(g0%1)[317]
(g0%1)[352]
(g0%1)[349](g0%1)[354]
(g0%1)[361]
(g1%2)[364]
(g1%2)[346]
(g0%2)[351]
(g1%2)[341](g1%2)[348]
(g1%2)[330]
(g0%2)[333]
(g1%2)[334]
(g0%1)[323](g0%1)[324](g0%1)[325](g0%1)[326](g0%1)[327]
(g0%2)[327]
(g0%2)[327]
(g0%1)[320](g0%1)[321]
(g1%2)[298]
(g0%2)[287]
(g1%2)[293]
(g0%1)[284]
(g0%2)[289]
(g0%1)[292]
(g1%2)[281]
(g0%2)[271]
(g1%2)[282]
(g1%2)[275]
(g0%1)[282]
(g1%2)[287]
(g0%1)[260](g0%1)[261](g0%1)[264](g0%1)[271]
(g0%1)[296]
(g1%2)[299]
(g1%2)[303]
(g0%1)[292]
(g0%1)[316]
(g0%1)[315]
(g0%1)[306]
(g0%1)[309]
(g0%1)[323]
(g0%1)[315]
(g0%1)[312]
(g0%1)[321]
(g1%2)[339]
----- (0,0), 8, 'The ECCA launched 18th Cordership to clean the southeast trail', no te='debug?', setmag=-2, priority=2 -----
