(g0%1)[407]
(g0%1)[404](g0%1)[409]
(g0%1)[402]
(g0%1)[403]
(g0%1)[400]
(g0%1)[387](g0%1)[388](g0%1)[389](g0%1)[390](g0%1)[391](g0%1)[392]
(g0%1)[389]
(g0%1)[386](g0%1)[391]
(g1%2)[386]
(g0%2)[387](g0%2)[388](g1%2)[391](g1%2)[392]
(g1%2)[395]
(g1%2)[398]
(g0%2)[380]
(g0%2)[381]
(g1%2)[385]
(g0%1)[387]
(g0%1)[401]
(g0%1)[389]
(g0%1)[397]
(g1%2)[385]
(g0%2)[389]
(g1%2)[386]
(g1%2)[379]
(g0%2)[390]
(g0%1)[388]
(g1%2)[389]
(g0%2)[382](g0%2)[383](g1%2)[386](g1%2)[387]
(g1%2)[380]
(g0%1)[372]
(g0%2)[389]
(g1%2)[388]
(g0%1)[372](g0%1)[373](g0%1)[374](g0%1)[375](g0%1)[376]
(g0%1)[358]
(g1%2)[362]
(g0%1)[349](g0%1)[350](g0%1)[351](g0%1)[352](g0%1)[353]
(g1%2)[357]
(g0%2)[361]
(g0%1)[350]
(g1%2)[353]
(g0%1)[340](g0%1)[341](g0%1)[342](g0%1)[343](g0%1)[344]
(g1%2)[342]
(g0%1)[360]
(g0%1)[362]
(g0%1)[362]
(g1%2)[359]
(g1%2)[367]
(g1%2)[355]
(g0%2)[358]
(g0%2)[370]
(g0%1)[363]
(g0%1)[350]
(g0%1)[357]
(g0%1)[348]
(g0%1)[354](g0%1)[357](g0%1)[358]
(g0%1)[358]
(g0%1)[358](g0%1)[359]
(g0%1)[365]
(g1%2)[345]
(g0%2)[362]
(g0%1)[353]
(g1%2)[374]
(g0%2)[363]
(g1%2)[363]
(g0%1)[352]
(g0%1)[346]
(g1%2)[343]
(g0%2)[333]
(g1%2)[338]
(g0%2)[341]
(g1%2)[346]
(g0%2)[337](g0%2)[338](g1%2)[341](g1%2)[342]
(g0%2)[334]
(g0%1)[331]
(g0%1)[324]
(g1%2)[345]
(g0%2)[349]
(g1%2)[348]
(g0%2)[338]
(g1%2)[337]
(g0%1)[344](g0%1)[345](g0%1)[346](g0%1)[347](g0%1)[348]
(g0%2)[344]
(g0%2)[344]
(g0%1)[350](g0%1)[351]
(g0%2)[369]
(g0%1)[376]
(g1%2)[372]
(g1%2)[368]
(g0%1)[379]
(g0%1)[355]
(g0%1)[356]
(g0%1)[365]
(g0%1)[362]
(g0%1)[348]
(g0%1)[356]
(g0%1)[359]
(g0%1)[350]
(g0%1)[330]
----- (0,0), 8, 'The ECCA launched 22nd Cordership to clean the northwest trail', no te='debug?', setmag=-2, priority=2 -----
