(g0%2)[2715]-- (2719 2717) trash block 1 (extra4cost 53)
----- (0,0), 8, 'Hitting DBCA block 1/3 on the way to stop the reset line', no te='debug hitting 1st block', bit_offset=-1, time_offs=-256, offset=(0,-2000), priority=2 -----
(g0%2)[2717]-- (2715 2713) -- trash block 2 exra4cost 0
(g0%2)[2719]-- (2721) scorbie activation block exra4cost 0
----- (0,0), 8, 'DBCA reset line stopped', no te='debug hitting 3rd block, discounting section starts', bit_offset=-1, time_offs=-256, priority=2 -----
(g0%2)[2417]-- S p256gun block exra4cost 1 (31/43)
----- (0,0), 8, 'DBCA S p256 stopped', no te='debug stopping S p256', bit_offs=-1, time_offs=-256, priority=2 -----
(g0%2)[2893]-- (2897 2895) N p256gun block exra4cost 58
----- (0,0), 8, 'DBCA N p256 stopped', no te='debug stopping N p256', bit_offs=-1, time_offs=-256, priority=2 -----

