(g0%1)[376]
(g1%2)[380]
(g1%2)[372]
(g1%2)[376]
(g0%2)[369]
(g0%1)[387]
(g0%1)[405]
(g0%1)[404]
(g1%2)[392]
(g0%1)[377](g0%1)[385]
(g0%1)[379](g0%1)[384](g0%1)[385](g0%1)[390]
(g0%1)[373]
(g0%2)[390]
(g0%2)[392]
(g0%1)[367]
(g0%1)[357]
(g0%1)[369]
(g0%1)[361]
(g1%2)[373]
(g0%2)[369]
(g1%2)[372]
(g1%2)[379]
(g0%2)[368]
(g0%1)[370]
(g1%2)[369]
(g1%2)[371](g1%2)[372](g0%2)[375](g0%2)[376]
(g1%2)[378]
(g0%1)[386]
(g0%2)[369]
(g1%2)[370]
(g0%1)[382](g0%1)[383](g0%1)[384](g0%1)[385](g0%1)[386]
(g0%1)[400]
(g0%1)[392]
(g0%1)[393]
(g0%1)[396](g0%1)[397](g0%1)[398](g0%1)[399](g0%1)[400]
(g0%1)[402]
(g0%1)[400](g0%1)[401](g0%1)[402](g0%1)[403](g0%1)[404]
(g0%1)[398]
(g1%2)[428]
(g0%2)[428]
(g0%1)[436]
(g0%1)[413]
(g0%1)[409]
(g1%2)[405]
(g0%1)[414](g0%1)[415](g0%1)[416](g0%1)[417](g0%1)[418]
(g1%2)[416]
(g0%1)[398]
(g1%2)[390]
(g0%2)[395]
(g0%2)[390]
(g0%1)[391]
(g0%1)[388](g0%1)[393]
(g0%1)[400]
(g0%1)[398]
(g0%1)[404]
(g0%1)[439]
(g0%1)[436](g0%1)[441]
(g0%1)[448]
(g1%2)[451]
(g1%2)[433]
(g0%2)[438]
(g1%2)[428](g1%2)[435]
(g1%2)[417]
(g0%2)[420]
(g1%2)[421]
(g0%1)[410](g0%1)[411](g0%1)[412](g0%1)[413](g0%1)[414]
(g0%2)[414]
(g0%2)[414]
(g0%1)[407](g0%1)[408]
(g1%2)[385]
(g0%2)[374]
(g1%2)[380]
(g0%1)[371]
(g0%2)[376]
(g0%1)[379]
(g1%2)[368]
(g0%2)[358]
(g1%2)[369]
(g1%2)[362]
(g0%1)[369]
(g1%2)[374]
(g0%1)[347](g0%1)[348](g0%1)[351](g0%1)[358]
(g0%1)[383]
(g1%2)[386]
(g1%2)[390]
(g0%1)[379]
(g0%1)[403]
(g0%1)[402]
(g0%1)[393]
(g0%1)[396]
(g0%1)[410]
(g0%1)[402]
(g0%1)[399]
(g0%1)[408]
(g0%1)[426]
----- (0,0), 8, 'The ECCA launched 29th Cordership to clean the southeast trail', no te='debug?', setmag=-2, priority=2 -----
