(g0%1)[487]
(g0%1)[485](g0%1)[490]
(g0%1)[483]
(g0%1)[475]
(g1%2)[490]
(g1%2)[472]
(g0%2)[479]
(g0%1)[484]
(g1%2)[488]
(g1%2)[488]
(g0%2)[488]
(g0%1)[496]
(g1%2)[491]
(g0%1)[469]
(g1%2)[491]
(g0%2)[502]
(g1%2)[496]
(g1%2)[493]
(g0%1)[493]
(g0%1)[515]
(g0%1)[525]
(g0%1)[513]
(g0%1)[506]
(g0%1)[501]
(g1%2)[514]
(g0%2)[520]
(g0%1)[527]
(g0%2)[521]
(g0%2)[513]
(g0%1)[514]
(g1%2)[514]
(g0%2)[507](g0%2)[508](g1%2)[511](g1%2)[512]
(g1%2)[505]
(g0%1)[497]
(g0%2)[514]
(g1%2)[513]
(g0%1)[497](g0%1)[498](g0%1)[499](g0%1)[500](g0%1)[501]
(g0%1)[474]
(g1%2)[478]
(g0%1)[465](g0%1)[466](g0%1)[467](g0%1)[468](g0%1)[469]
(g1%2)[467]
(g0%1)[485]
(g0%1)[487]
(g1%2)[484]
(g1%2)[492]
(g1%2)[480]
(g0%2)[483]
(g0%2)[495]
(g0%1)[488]
(g0%1)[475]
(g0%1)[482]
(g0%1)[473]
(g0%1)[479](g0%1)[482](g0%1)[483]
(g0%1)[483]
(g0%1)[483](g0%1)[484]
(g0%1)[490]
(g1%2)[470]
(g0%2)[487]
(g0%1)[478]
(g1%2)[499]
(g0%2)[488]
(g1%2)[488]
(g0%1)[477]
(g0%1)[471]
(g1%2)[468]
(g0%2)[458]
(g1%2)[463]
(g0%2)[466]
(g1%2)[471]
(g0%2)[462](g0%2)[463](g1%2)[466](g1%2)[467]
(g0%2)[459]
(g0%1)[456]
(g0%1)[449]
(g1%2)[470]
(g0%2)[474]
(g1%2)[473]
(g0%2)[463]
(g1%2)[462]
(g0%1)[469](g0%1)[470](g0%1)[471](g0%1)[472](g0%1)[473]
(g0%2)[469]
(g0%2)[469]
(g0%1)[475](g0%1)[476]
(g0%2)[494]
(g0%1)[501]
(g1%2)[497]
(g1%2)[493]
(g0%1)[504]
(g0%1)[480]
(g0%1)[481]
(g0%1)[490]
(g0%1)[487]
(g0%1)[473]
(g0%1)[481]
(g0%1)[484]
(g0%1)[475]
(g0%1)[455]
----- (0,0), 8, 'The ECCA launched 14th Cordership to clean the northwest trail', no te='debug?', setmag=-2, priority=2 -----
