(g0%1)[500]-- -> 500
(g1%2)[496]
(g1%2)[488]
(g0%1)[505](g0%1)[507](g0%1)[509]
(g1%2)[502]
(g0%2)[501]
(g1%2)[499]
(g0%1)[499]
(g0%1)[493]
(g1%2)[498]
(g0%2)[495]
(g1%2)[486]
(g0%1)[510]
(g0%1)[516]
(g1%2)[507]
(g0%1)[464]
(g1%2)[461]
(g1%2)[453]
(g1%2)[464]
(g0%2)[463]
(g1%2)[451]
(g0%2)[460]
(g0%1)[522]
(g0%1)[529]
(g0%1)[523]
(g1%2)[521]
(g1%2)[546](g1%2)[554]
(g0%2)[543]
(g0%1)[573]
(g1%2)[576]
(g0%2)[583]
(g0%2)[600]
(g0%2)[598]
(g0%2)[614]
(g0%1)[621]
(g0%1)[628]
(g0%1)[622]
(g1%2)[620]
(g1%2)[645](g1%2)[653]
(g0%2)[642]
(g0%1)[672]
(g1%2)[675]
(g0%2)[682]
(g0%2)[699]
(g0%2)[697]
(g0%2)[713]
----- (0,0), 8, 'seed of MWSS created, seed of ATBC would follow', no te='debug?', setmag=-3, priority=0 -----
