--SW construction part start
(g0%2)[513](g0%2)[514](g0%2)[515](g1%2)[516](g1%2)[517](g1%2)[518]
(g0%1)[513](g0%1)[516]
(g0%2)[506]
(g0%1)[507]
(g0%1)[518]
(g0%1)[508](g0%1)[509](g0%1)[510](g0%1)[511](g0%1)[512](g0%1)[513]
(g0%1)[484]
(g1%2)[481]
(g1%2)[481]
(g0%2)[480]
(g0%2)[495]
(g1%2)[498]
(g0%2)[485]
(g0%2)[486]
(g0%2)[487]
(g1%2)[486]
(g0%1)[459]
(g1%2)[456]
(g0%2)[446]
(g1%2)[462]
(g1%2)[468]
(g0%2)[454]
(g1%2)[460]
(g1%2)[470]
(g1%2)[470]
(g0%2)[467]
(g0%2)[465]
(g0%1)[463]
(g1%2)[471]
(g0%2)[492]
(g0%2)[475]
(g1%2)[446]
(g0%2)[449]
(g0%2)[435]
(g0%2)[445]
(g0%2)[444]
--SW construction part end
