
(g0%2)[2715]-- (2719 2717) trash block 1 (extra4cost 53)
----- (0,0), 8, 'Hitting DBCA block 1/3 on the way to stop the reset line', no te='debug hitting 1st block', bit_offset=-1, time_offs=-256, offset=(0,-2000), priority=2 -----
(g0%2)[2717]-- (2715 2713) -- trash block 2 exra4cost 0
(g0%2)[2719]-- (2721) scorbie activation block exra4cost 0
----- (0,0), 8, 'DBCA reset line stopped', no te='debug hitting 3rd block, discounting section starts', bit_offset=-1, time_offs=-256, priority=2 -----
(g0%2)[2659] --A
(g0%2)[2657](g0%2)[2655](g0%2)[2653] --B
(g0%2)[2651] --H
(g0%2)[2641](g0%2)[2639](g0%2)[2637] --H
(g0%2)[2631] --G
(g0%2)[2601] --B
(g0%2)[2581] --B
(g0%2)[2575](g0%2)[2573](g0%2)[2571] --F
(g0%2)[2579](g0%2)[2577](g0%2)[2575] --F
(g0%2)[2575] --F
(g0%2)[2539] --B
(g0%2)[2509] --F
(g0%2)[2503] --E
(g0%2)[2497] --E
(g0%2)[2489] --E
(g0%2)[2471] --E
(g0%2)[2441](g0%2)[2433] --D
(g0%2)[2427] --C

(g0%2)[2417]-- S p256gun block exra4cost 1 (31/43)
----- (0,0), 8, 'DBCA S p256 stopped', no te='debug stopping S p256 check flipping the boat bit', bit_offs=-1, time_offs=-256, priority=2 -----
(g0%2)[2893]-- (2897 2895) N p256gun block exra4cost 58
----- (0,0), 8, 'DBCA N p256 stopped', no te='debug stopping N p256', bit_offs=-1, time_offs=-256, priority=2 -----
(g0%2)[2837]
(g0%2)[2793]
(g0%2)[2725]
(g0%2)[2693]
(g0%2)[2689]
(g0%2)[2669]
(g0%2)[2687]
(g0%2)[2687]
(g0%2)[2717]
(g0%2)[2731]
(g0%2)[2705](g0%2)[2695]
(g0%2)[2701]
(g0%2)[2697]
(g0%2)[2681](g0%2)[2679](g0%2)[2677]
(g0%2)[2675](g0%2)[2673]
(g0%2)[2681]
(g0%2)[2685]
(g0%2)[2673]
--A (g0%2)[2659]
(g0%2)[2665]
--B (g0%2)[2657](g0%2)[2655](g0%2)[2653]
--B (g0%2)[2601]
--B (g0%2)[2581]
--B (g0%2)[2539]
(g0%2)[2463]
--C (g0%2)[2427]
(g0%2)[2377]
(g0%2)[2301](g0%2)[2291]
(g0%2)[2287]
(g0%2)[2305]
(g0%2)[2303]
(g0%2)[2321]
(g0%2)[2337]
(g0%2)[2431]
--D (g0%2)[2441](g0%2)[2433]
(g0%2)[2435]
(g0%2)[2459]
(g0%2)[2459]
--E (g0%2)[2471]
--E (g0%2)[2489]
--E (g0%2)[2497]
--E (g0%2)[2503]
(g0%2)[2503]
--F (g0%2)[2509]
--F (g0%2)[2575](g0%2)[2573](g0%2)[2571]
--F (g0%2)[2579](g0%2)[2577](g0%2)[2575]
--F (g0%2)[2575]
(g0%2)[2571]
(g0%2)[2581]
(g0%2)[2591]
(g0%2)[2605](g0%2)[2601]
(g0%2)[2607](g0%2)[2603]
(g0%2)[2605]
--G (g0%2)[2631]
(g0%2)[2629]
(g0%2)[2625]
(g0%2)[2629]
--H (g0%2)[2641](g0%2)[2639](g0%2)[2637]
--H (g0%2)[2651]
(g0%2)[2661](g0%2)[2657]
(g0%2)[2659]
(g0%2)[2677](g0%2)[2675](g0%2)[2673]
(g0%2)[2695]
(g0%2)[2741](g0%2)[2739](g0%2)[2737]
(g0%2)[2765](g0%2)[2763](g0%2)[2761]
(g0%2)[2797]
(g0%2)[2793]
(g0%2)[2787]
(g0%2)[2783]
(g0%2)[2775](g0%2)[2773]
(g0%2)[2773]
(g0%2)[2777]
(g0%2)[2779](g0%2)[2775]
(g0%2)[2779]
(g0%2)[2785](g0%2)[2781]
(g0%2)[2809]
(g0%2)[2809](g0%2)[2807](g0%2)[2805]
(g0%2)[2811]
(g0%2)[2823](g0%2)[2813]
(g0%2)[2865]
(g0%2)[2861]
(g0%2)[2833]
(g0%2)[2819]
(g0%2)[2827]
(g0%2)[2843](g0%2)[2841](g0%2)[2839]
(g0%2)[2843]
(g0%2)[2851]
(g0%2)[2847]
(g0%2)[2851]
(g0%2)[2871]
(g0%2)[2875]
(g0%2)[2887](g0%2)[2885](g0%2)[2883]
(g0%2)[2887]
(g0%2)[2959]
(g0%2)[2957]
(g0%2)[2953]
(g0%2)[2949]
(g0%2)[2953]
(g0%2)[2915](g0%2)[2913](g0%2)[2911]
(g0%2)[2893]
(g0%2)[2885]
(g0%2)[2885](g0%2)[2883]
(g0%2)[2883]
(g0%2)[2877]
(g0%2)[2863]
(g0%2)[2857](g0%2)[2847]
(g0%2)[2857]
(g0%2)[2841]
(g0%2)[2839](g0%2)[2835]
(g0%2)[2813](g0%2)[2811](g0%2)[2809]
(g0%2)[2789](g0%2)[2787](g0%2)[2785]
(g0%2)[2769](g0%2)[2767](g0%2)[2765]
(g0%2)[2761](g0%2)[2755]
(g0%2)[2755]
(g0%2)[2753]
(g0%2)[2751]
(g0%2)[2743]
(g0%2)[2745]
(g0%2)[2737](g0%2)[2735](g0%2)[2733]
(g0%2)[2735]
(g0%2)[2737](g0%2)[2735](g0%2)[2733]
(g0%2)[2731](g0%2)[2727]
(g0%2)[2723](g0%2)[2721](g0%2)[2719]
(g0%2)[2723]
(g0%2)[2709](g0%2)[2707](g0%2)[2705]
(g0%2)[2705](g0%2)[2703](g0%2)[2701]
(g0%2)[2691](g0%2)[2681]
(g0%2)[2663](g0%2)[2661](g0%2)[2659]
(g0%2)[2659](g0%2)[2657]
(g0%2)[2661](g0%2)[2657]
(g0%2)[2645](g0%2)[2643](g0%2)[2641]
(g0%2)[2645](g0%2)[2643]
(g0%2)[2643]
(g0%2)[2651](g0%2)[2649]
(g0%2)[2641](g0%2)[2639](g0%2)[2637]
(g0%2)[2643](g0%2)[2639](g0%2)[2635]
(g0%2)[2635](g0%2)[2633]
(g0%2)[2631](g0%2)[2629]
(g0%2)[2621]
(g0%2)[2625](g0%2)[2623](g0%2)[2621]
(g0%2)[2617](g0%2)[2615](g0%2)[2613]
(g0%2)[2615](g0%2)[2607]
(g0%2)[2587]
(g0%2)[2591](g0%2)[2589](g0%2)[2587]
(g0%2)[2579]
(g0%2)[2569]
(g0%2)[2565]
(g0%2)[2565]
(g0%2)[2549](g0%2)[2547](g0%2)[2545]
(g0%2)[2553](g0%2)[2551](g0%2)[2549]
(g0%2)[2543]
(g0%2)[2525]
(g0%2)[2523](g0%2)[2517](g0%2)[2513]
(g0%2)[2501](g0%2)[2495](g0%2)[2491]
(g0%2)[2495]
(g0%2)[2491](g0%2)[2487](g0%2)[2483]
(g0%2)[2475](g0%2)[2473]
(g0%2)[2447](g0%2)[2445](g0%2)[2443]
(g0%2)[2441]
(g0%2)[2441]
(g0%2)[2435](g0%2)[2431]
(g0%2)[2435]
(g0%2)[2425](g0%2)[2423](g0%2)[2421]
(g0%2)[2425](g0%2)[2419]
(g0%2)[2357]
(g0%2)[2327]
(g0%2)[2259](g0%2)[2255](g0%2)[2251]
(g0%2)[2211]
(g0%2)[2231](g0%2)[2221]
(g0%2)[2225]
(g0%2)[2215]
(g0%2)[2211]
(g0%2)[2187]
(g0%2)[2185](g0%2)[2183]
(g0%2)[2185]
(g0%2)[2147](g0%2)[2145]
(g0%2)[2115]
(g0%2)[2085]
(g0%2)[2035]
(g0%2)[2061]
(g0%2)[2051]
(g0%2)[2017]
(g0%2)[1997](g0%2)[1993]
(g0%2)[1997]
(g0%2)[2007](g0%2)[2005](g0%2)[2003]
(g0%2)[2129](g0%2)[2127](g0%2)[2125]
(g0%2)[2141]
(g0%2)[2145]
(g0%2)[2147]
(g0%2)[2147]
(g0%2)[2157](g0%2)[2155](g0%2)[2153]
(g0%2)[2175](g0%2)[2171]
(g0%2)[2185]
(g0%2)[2185]
(g0%2)[2187]
(g0%2)[2185]
(g0%2)[2189]
(g0%2)[2195](g0%2)[2185]
(g0%2)[2195]
(g0%2)[2195]
(g0%2)[2195]
(g0%2)[2221]
(g0%2)[2243](g0%2)[2241](g0%2)[2239]
(g0%2)[2331](g0%2)[2329](g0%2)[2327]
(g0%2)[2349]
(g0%2)[2353](g0%2)[2351](g0%2)[2349]
(g0%2)[2355]
(g0%2)[2359](g0%2)[2355]
(g0%2)[2373]
(g0%2)[2373]
(g0%2)[2385]
(g0%2)[2393]
(g0%2)[2397]
(g0%2)[2395]
(g0%2)[2393]
(g0%2)[2393]
(g0%2)[2393]
(g0%2)[2393]
(g0%2)[2391]
(g0%2)[2391]
(g0%2)[2393](g0%2)[2391]
(g0%2)[2395]
(g0%2)[2405](g0%2)[2403](g0%2)[2401]
(g0%2)[2403](g0%2)[2401](g0%2)[2399]
(g0%2)[2403]
(g0%2)[2401]
(g0%2)[2403]
(g0%2)[2403]
(g0%2)[2411](g0%2)[2407]
(g0%2)[2413](g0%2)[2411](g0%2)[2409]
(g0%2)[2391]
(g0%2)[2385](g0%2)[2383](g0%2)[2381]
(g0%2)[2385](g0%2)[2383](g0%2)[2381]
(g0%2)[2377](g0%2)[2375](g0%2)[2373]
(g0%2)[2377]
(g0%2)[2373]
(g0%2)[2367]
(g0%2)[2361]
(g0%2)[2367](g0%2)[2365](g0%2)[2363]
(g0%2)[2363]
(g0%2)[2355]
(g0%2)[2365]
(g0%2)[2369]
(g0%2)[2359]
(g0%2)[2375](g0%2)[2365]
(g0%2)[2351]
(g0%2)[2353](g0%2)[2351]
(g0%2)[2351]
(g0%2)[2355](g0%2)[2353](g0%2)[2351]
(g0%2)[2357]
(g0%2)[2347](g0%2)[2345](g0%2)[2343]
(g0%2)[2333](g0%2)[2331]
(g0%2)[2335](g0%2)[2333](g0%2)[2331]
(g0%2)[2285]
(g0%2)[2281]
(g0%2)[2247]
(g0%2)[2241](g0%2)[2239](g0%2)[2237]
(g0%2)[2225](g0%2)[2223](g0%2)[2221]
(g0%2)[2211](g0%2)[2209]
(g0%2)[2203](g0%2)[2201](g0%2)[2199]
(g0%2)[2191](g0%2)[2189]
(g0%2)[2181]
(g0%2)[2183]
(g0%2)[2177](g0%2)[2175]
(g0%2)[2175]
(g0%2)[2175]
(g0%2)[2163]
(g0%2)[2167](g0%2)[2165]
(g0%2)[2169]
(g0%2)[2159](g0%2)[2157](g0%2)[2155]
(g0%2)[2157](g0%2)[2147]
(g0%2)[2151]
(g0%2)[2143](g0%2)[2139]
(g0%2)[2135]
(g0%2)[2137]
(g0%2)[2137](g0%2)[2135]
(g0%2)[2131](g0%2)[2129](g0%2)[2127]
(g0%2)[2115]
(g0%2)[2111]
(g0%2)[2101](g0%2)[2097]
(g0%2)[2075](g0%2)[2073]
(g0%2)[2043](g0%2)[2041](g0%2)[2039]
(g0%2)[2035]
(g0%2)[2033](g0%2)[2031]
(g0%2)[2025](g0%2)[2023](g0%2)[2021]
(g0%2)[2011](g0%2)[2009](g0%2)[2007]
(g0%2)[2011]
(g0%2)[1995]
(g0%2)[1989]
(g0%2)[1979]
(g0%2)[1983]
(g0%2)[1975](g0%2)[1973](g0%2)[1971]
(g0%2)[1951]
(g0%2)[1965]
(g0%2)[1967](g0%2)[1965]
(g0%2)[1971](g0%2)[1969](g0%2)[1967]
(g0%2)[1969](g0%2)[1967](g0%2)[1965]
(g0%2)[1949](g0%2)[1939]
(g0%2)[1947](g0%2)[1945](g0%2)[1943]
(g0%2)[1937]
(g0%2)[1913]
(g0%2)[1917](g0%2)[1915](g0%2)[1913]
(g0%2)[1917](g0%2)[1913](g0%2)[1909]
(g0%2)[1887]
(g0%2)[1901](g0%2)[1895]
(g0%2)[1847]
(g0%2)[1877]
(g0%2)[1871]
(g0%2)[1879](g0%2)[1877](g0%2)[1875]
(g0%2)[1871]
(g0%2)[1863](g0%2)[1861]
(g0%2)[1865](g0%2)[1863](g0%2)[1861]
(g0%2)[1805](g0%2)[1803]
(g0%2)[1805](g0%2)[1803](g0%2)[1801]
(g0%2)[1811]
(g0%2)[1841]
(g0%2)[1841](g0%2)[1839](g0%2)[1837]
(g0%2)[1843](g0%2)[1841](g0%2)[1839]
(g0%2)[1847]
(g0%2)[1841]
(g0%2)[1847]
(g0%2)[1863](g0%2)[1853]
(g0%2)[1853]
(g0%2)[1843](g0%2)[1841](g0%2)[1839]
(g0%2)[1837](g0%2)[1835](g0%2)[1833]
(g0%2)[1825](g0%2)[1823](g0%2)[1821]
(g0%2)[1811](g0%2)[1809](g0%2)[1807]
(g0%2)[1809](g0%2)[1807]
(g0%2)[1795]
(g0%2)[1783]
(g0%2)[1791]
(g0%2)[1797](g0%2)[1791]
(g0%2)[1783]
(g0%2)[1777](g0%2)[1775]
(g0%2)[1763]
(g0%2)[1769](g0%2)[1765]
(g0%2)[1759](g0%2)[1757](g0%2)[1755]
(g0%2)[1753]
(g0%2)[1739](g0%2)[1737]
(g0%2)[1731](g0%2)[1723]
(g0%2)[1727](g0%2)[1725](g0%2)[1723]
(g0%2)[1711](g0%2)[1709](g0%2)[1707]
(g0%2)[1669]
(g0%2)[1653]
(g0%2)[1663]
(g0%2)[1645](g0%2)[1643](g0%2)[1641]
(g0%2)[1635](g0%2)[1633]
(g0%2)[1653]
(g0%2)[1633]
(g0%2)[1651]
(g0%2)[1643]
(g0%2)[339](g0%2)[329]
(g0%2)[329]
(g0%2)[329](g0%2)[327]
(g0%2)[331]
(g0%2)[323]
(g0%2)[315](g0%2)[313]
(g0%2)[305](g0%2)[301]
(g0%2)[311]
(g0%2)[309]
