(g0%1)[301]
(g1%2)[297]
(g0%1)[296]
(g0%2)[296]
(g0%2)[313]
(g0%1)[314]
(g0%1)[296](g0%1)[303](g0%1)[306](g0%1)[307]
(g0%1)[321]
(g1%2)[315]
(g1%2)[313]
(g1%2)[298]
(g0%1)[295]
(g0%1)[283](g0%1)[284](g0%1)[287](g0%1)[294]
(g0%1)[279](g0%1)[280](g0%1)[287](g0%1)[288]
(g0%1)[283]
(g0%1)[295]
(g0%1)[287]
(g1%2)[299]
(g0%2)[295]
(g1%2)[298]
(g1%2)[305]
(g0%2)[294]
(g0%1)[296]
(g1%2)[295]
(g1%2)[297](g1%2)[298](g0%2)[301](g0%2)[302]
(g1%2)[304]
(g0%1)[312]
(g0%2)[295]
(g1%2)[296]
(g0%1)[308](g0%1)[309](g0%1)[310](g0%1)[311](g0%1)[312]
(g1%2)[323](g1%2)[324](g1%2)[325](g0%2)[326](g0%2)[327](g0%2)[328]
(g0%1)[326]
(g0%1)[318]
(g0%1)[319]
(g0%1)[322](g0%1)[323](g0%1)[324](g0%1)[325](g0%1)[326]
(g0%1)[328]
(g0%1)[326](g0%1)[327](g0%1)[328](g0%1)[329](g0%1)[330]
(g0%1)[324]
(g1%2)[354]
(g0%2)[354]
(g0%1)[362]
(g0%1)[339]
(g0%1)[335]
(g1%2)[331]
(g0%1)[340](g0%1)[341](g0%1)[342](g0%1)[343](g0%1)[344]
(g1%2)[342]
(g0%1)[324]
(g1%2)[316]
(g0%2)[321]
(g0%2)[316]
(g0%1)[317]
(g0%1)[314](g0%1)[319]
(g0%1)[326]
(g0%1)[324]
(g0%1)[330]
(g0%1)[365]
(g0%1)[362](g0%1)[367]
(g0%1)[374]
(g1%2)[377]
(g1%2)[359]
(g0%2)[364]
(g1%2)[354](g1%2)[361]
(g1%2)[343]
(g0%2)[346]
(g1%2)[347]
(g0%1)[336](g0%1)[337](g0%1)[338](g0%1)[339](g0%1)[340]
(g0%2)[340]
(g0%2)[340]
(g0%1)[333](g0%1)[334]
(g1%2)[311]
(g0%2)[300]
(g1%2)[306]
(g0%1)[297]
(g0%2)[302]
(g0%1)[305]
(g1%2)[294]
(g0%2)[284]
(g1%2)[295]
(g1%2)[288]
(g0%1)[295]
(g1%2)[300]
(g0%1)[273](g0%1)[274](g0%1)[277](g0%1)[284]
(g0%1)[309]
(g1%2)[312]
(g1%2)[316]
(g0%1)[305]
(g0%1)[329]
(g0%1)[328]
(g0%1)[319]
(g0%1)[322]
(g0%1)[336]
(g0%1)[328]
(g0%1)[325]
(g0%1)[334]
(g0%1)[352]
----- (0,0), 8, 'The ECCA launched 21th Cordership to clean the southeast trail', no te='debug?', setmag=-2, priority=2 -----
