(g0%1)[282]
(g1%2)[285]
(g0%2)[292]
(g0%1)[300]
(g0%1)[310]
(g1%2)[307]
(g0%1)[320](g0%1)[319](g0%1)[318](g0%1)[317](g0%1)[316]
(g0%2)[318]
(g1%2)[312]
(g0%2)[309]
(g1%2)[317]
(g1%2)[328]
(g1%2)[325]
(g0%2)[341]
(g1%2)[341]
(g1%2)[322]
(g1%2)[330]
(g1%2)[327]
(g1%2)[330]
(g1%2)[339]
(g0%2)[327]
(g0%2)[329]
(g1%2)[335]
(g1%2)[332]
(g1%2)[337]
(g0%1)[337]
(g1%2)[332]
(g1%2)[331]
(g0%2)[344]
(g1%2)[344]
(g0%1)[344](g0%1)[343](g0%1)[342](g0%1)[341]
(g0%1)[348]
(g0%1)[338]
(g0%1)[324](g0%1)[323](g0%1)[322](g0%1)[321](g0%1)[320](g0%1)[319]
(g0%1)[301]
(g0%1)[309]
(g1%2)[294]
(g1%2)[302]
(g0%2)[316]
(g1%2)[309]
(g0%2)[293]
(g0%2)[283]
(g0%1)[285]
(g0%1)[280](g0%1)[277](g0%1)[276]
(g0%1)[285]
(g1%2)[295]
(g0%1)[291]
(g0%2)[298]
(g0%1)[288]
(g0%1)[287]
(g1%2)[280]
(g0%1)[279]
(g1%2)[282]
(g0%2)[280](g0%2)[279]
(g0%1)[305]
(g1%2)[303]
(g1%2)[299](g1%2)[298](g0%2)[295](g0%2)[294]
(g0%2)[299]
(g1%2)[308]
(g0%2)[312]
(g1%2)[302]
(g0%1)[275]
(g1%2)[275]
(g1%2)[284]
(g1%2)[283]
(g0%1)[290](g0%1)[289](g0%1)[288](g0%1)[287](g0%1)[286](g0%1)[285]
(g1%2)[281]
(g1%2)[285]
(g0%1)[293]
(g0%1)[303]
(g0%1)[300]
(g1%2)[296]
(g0%2)[286]
(g1%2)[294]
(g0%1)[306]
(g1%2)[297]
(g0%1)[295]
(g0%1)[286]
(g0%1)[289]
(g1%2)[293]
(g0%2)[283]
(g1%2)[302]
(g0%1)[278]
(g1%2)[283]
(g1%2)[286]
(g1%2)[281]
(g0%2)[295]
(g0%1)[298]
(g0%1)[309]
----- (0,0), 8, 'The ECCA launched 11th Cordership to clean the southwest trail', no te='debug?', setmag=-2, priority=2 -----
