(g0%1)[475]
(g1%2)[478]
(g0%2)[486]
(g1%2)[483]
(g1%2)[483]
(g1%2)[479](g1%2)[480](g0%2)[481](g0%2)[482]
(g0%1)[494]
(g0%1)[485]
(g1%2)[481]
(g1%2)[474](g1%2)[475](g0%2)[478](g0%2)[479]
(g1%2)[489]
(g1%2)[495]
(g1%2)[496]
(g0%1)[496]
(g0%1)[495]
(g0%1)[503]
(g0%1)[515]
(g0%1)[503]
(g0%1)[511]
(g1%2)[499]
(g0%2)[503]
(g1%2)[500]
(g1%2)[493]
(g0%2)[504]
(g0%1)[502]
(g1%2)[503]
(g0%2)[496](g0%2)[497](g1%2)[500](g1%2)[501]
(g1%2)[494]
(g0%1)[486]
(g0%2)[503]
(g1%2)[502]
(g0%1)[486](g0%1)[487](g0%1)[488](g0%1)[489](g0%1)[490]
(g0%1)[472]
(g1%2)[476]
(g0%1)[463](g0%1)[464](g0%1)[465](g0%1)[466](g0%1)[467]
(g1%2)[471]
(g0%2)[475]
(g0%1)[464]
(g1%2)[467]
(g0%1)[454](g0%1)[455](g0%1)[456](g0%1)[457](g0%1)[458]
(g1%2)[456]
(g0%1)[474]
(g0%1)[476]
(g0%1)[476]
(g1%2)[473]
(g1%2)[481]
(g1%2)[469]
(g0%2)[472]
(g0%2)[484]
(g0%1)[477]
(g0%1)[464]
(g0%1)[471]
(g0%1)[462]
(g0%1)[468](g0%1)[471](g0%1)[472]
(g0%1)[472]
(g0%1)[472](g0%1)[473]
(g0%1)[479]
(g1%2)[459]
(g0%2)[476]
(g0%1)[467]
(g1%2)[488]
(g0%2)[477]
(g1%2)[477]
(g0%1)[466]
(g0%1)[460]
(g1%2)[457]
(g0%2)[447]
(g1%2)[452]
(g0%2)[455]
(g1%2)[460]
(g0%2)[451](g0%2)[452](g1%2)[455](g1%2)[456]
(g0%2)[448]
(g0%1)[445]
(g0%1)[438]
(g1%2)[459]
(g0%2)[463]
(g1%2)[462]
(g0%2)[452]
(g1%2)[451]
(g0%1)[458](g0%1)[459](g0%1)[460](g0%1)[461](g0%1)[462]
(g0%2)[458]
(g0%2)[458]
(g0%1)[464](g0%1)[465]
(g0%2)[483]
(g0%1)[490]
(g1%2)[486]
(g1%2)[482]
(g0%1)[493]
(g0%1)[469]
(g0%1)[470]
(g0%1)[479]
(g0%1)[476]
(g0%1)[462]
(g0%1)[470]
(g0%1)[473]
(g0%1)[464]
(g0%1)[444]
----- (0,0), 8, 'The ECCA launched 10th Cordership to clean the northwest trail', no te='debug?', setmag=-2, priority=2 -----
