----- (0,0), 8, 'White ECCA part construction begins', offset=(0,0), setmag=-2, priority=0 -----
(g1%2)[-269] -- phase fixed to stop the kickback
----- (0,0), 8, 'Kickback reaction finished by using glider of the other phase', no te='debug', priority=2 -----
(g1%2)[-273]
(g0%1)[-247](g0%1)[-245]
(g1%2)[-249]
(g1%2)[-237]
(g0%2)[-245]
(g1%2)[-249]
(g1%2)[-227]
(g0%1)[-235]
(g0%1)[-229](g0%1)[-227](g0%1)[-225]
(g0%1)[-201]
(g0%1)[-199]
(g1%2)[-193]
(g0%2)[-201]
(g1%2)[-177]
(g0%2)[-171]
(g0%1)[-169]
(g0%1)[-157]
(g0%1)[-167]
(g0%1)[-161](g0%1)[-159](g0%1)[-157]
(g0%1)[-133]
(g0%1)[-141]
(g1%2)[-133]
(g0%2)[-127]
(g0%1)[-125]
(g0%2)[-127]
(g0%1)[-109]
(g1%2)[-125]
(g1%2)[-111]
(g0%1)[-99]
(g0%1)[-93](g0%1)[-91](g0%1)[-89]
(g0%1)[-65]
(g0%1)[-73]
(g1%2)[-65]
(g0%2)[-55]
(g0%2)[-53]
(g1%2)[-47]
(g0%1)[-57]
(g0%2)[-31]
(g1%2)[-37]
(g0%2)[-13]
(g0%1)[-23]
(g0%1)[-15]
(g1%2)[-15]
(g0%2)[-17]
(g1%2)[-19]
(g0%2)[-7](g1%2)[-3]
(g0%2)[-1]
(g1%2)[3]
(g1%2)[-5]
(g0%1)[-1]
(g1%2)[1]
(g0%1)[-33]
(g1%2)[-29]
(g0%2)[-27](g1%2)[-23]
(g0%2)[-25]
(g1%2)[-25]
(g0%2)[-33]
(g1%2)[-43]
(g0%2)[-41]
(g0%2)[-41]
(g0%1)[-29]
(g0%1)[-29]
(g0%1)[-37]
(g1%2)[-29]
(g0%2)[-11](g1%2)[-7]
(g0%2)[-17]
(g0%2)[-15]
(g0%1)[-5]
(g1%2)[-9]
(g1%2)[-15](g0%2)[-11]
(g0%2)[-13]
(g1%2)[-17]
(g1%2)[-17]
(g0%1)[-19]
(g1%2)[-5]
(g0%1)[-5]
(g0%1)[-1](g0%1)[1](g0%1)[3]
(g0%1)[5]
(g1%2)[5]
(g1%2)[-7](g0%2)[-3]
(g1%2)[-15]
(g0%1)[9]
(g1%2)[7]
(g0%1)[11](g0%2)[15]
(g1%2)[3]
(g1%2)[7](g0%2)[11]
(g1%2)[7]
(g0%2)[13]
(g0%2)[19]
(g0%2)[17](g1%2)[21]
(g0%2)[17]
(g0%2)[17]
(g0%1)[17]
(g0%1)[-5](g0%1)[-1]
(g0%2)[-27]
(g0%2)[-29]
(g1%2)[-49]
(g0%1)[-25]
(g1%2)[-29]
(g0%2)[-37]
(g1%2)[-41]
(g0%2)[-31]
(g1%2)[-31]
(g1%2)[-19]
(g0%1)[-15]
(g1%2)[-19]
(g1%2)[-11]
(g0%2)[-27]
(g1%2)[-21]
(g0%2)[-11](g1%2)[-7]
(g0%2)[3]
(g0%2)[-5]
(g0%1)[-3]
(g0%2)[5]
(g0%1)[-1]
(g0%1)[-1]
(g1%2)[-1]
(g0%2)[11]
(g0%2)[-1]
(g1%2)[-5]
(g0%1)[-1]
(g0%1)[19]
(g1%2)[19]
(g1%2)[21]
(g1%2)[13]
(g1%2)[23]
(g0%8)[13]
(g1%2)[-59]
(g0%2)[-67](g1%2)[-63]
(g0%2)[-71]
(g0%1)[-67]
(g0%2)[-73]
(g1%2)[-85]
(g0%2)[-95]
(g0%2)[-111]
(g0%1)[-109]
(g1%2)[-111]
(g0%2)[-119](g1%2)[-115]
(g0%2)[-117]
(g1%2)[-123]
(g1%2)[-119]
(g0%2)[-123]
(g0%1)[-137]
(g1%2)[-141]
(g1%2)[-141]
(g1%2)[-151]
(g0%2)[-155]
(g0%1)[-159]
(g0%1)[-161]
(g1%2)[-151]
(g0%1)[-139]
(g0%1)[-147](g0%1)[-145]
(g0%1)[-125]
(g0%1)[-135]
(g0%1)[-135]
(g0%1)[-137]
(g1%2)[-137]
(g0%2)[-135](g1%2)[-131]
(g1%2)[-135]
(g0%2)[-133]
(g0%2)[-129](g1%2)[-125]
(g0%2)[-123]
(g1%2)[-141]
(g1%2)[-131]
(g1%2)[-121]
(g0%1)[-75]
(g1%2)[-71]
(g0%2)[-63]
(g1%2)[-61]
(g0%2)[-77]
(g0%2)[-91]
(g0%1)[-91]
(g0%2)[-101](g0%2)[-99](g1%2)[-97]
(g0%1)[-101]
(g0%1)[-107]
(g0%1)[-105]
(g1%2)[-107]
(g1%2)[-119]
(g0%2)[-117]
(g0%1)[-119]
(g1%2)[-109]
(g1%2)[-105]
(g1%2)[-107]
(g0%1)[-141](g0%1)[-139](g0%1)[-137]
(g0%1)[-157]
(g1%2)[-153]
(g0%2)[-151](g1%2)[-147]
(g0%2)[-149]
(g1%2)[-157](g0%2)[-153]
(g1%2)[-151]
(g1%2)[-143]
(g1%2)[-153]
(g1%2)[-169]
(g0%2)[-173]
(g0%2)[-169]
(g1%2)[-163]
(g0%2)[-157](g1%2)[-155](g1%2)[-153]
(g0%1)[-157]
(g0%1)[-167](g0%1)[-165](g0%1)[-163]
(g0%1)[-167]
(g0%2)[-163]
(g1%2)[-153]
(g1%2)[-171]
(g0%1)[-173]
(g1%2)[-159](g0%2)[-155]
(g0%2)[-159]
(g1%2)[-135]
(g1%2)[-133]
(g0%2)[-131]
(g0%1)[-125](g0%1)[-115]
(g0%1)[-115]
(g1%2)[-111]
(g0%2)[-103]
(g1%2)[-107]
(g0%2)[-113]
(g0%1)[-107]
(g0%2)[-115]
(g1%2)[-115]
(g0%1)[-123]
(g0%2)[-107]
(g0%1)[-109](g0%1)[-107](g0%1)[-105]
(g0%1)[-113]
(g0%1)[-113]
(g1%2)[-117]
(g0%1)[-133]
(g0%2)[-121]
(g0%2)[-107]
(g0%2)[-111]
(g0%1)[-107]
(g1%2)[-125]
(g0%1)[-111]
(g0%1)[-133]
(g1%2)[-137]
(g0%2)[-141]
(g0%2)[-151]
(g1%2)[-159]
(g0%1)[-159]
(g0%1)[-161]
(g0%1)[-159]
(g1%2)[-169]
(g0%2)[-159]
(g0%1)[-159]
(g0%2)[-171]
(g1%2)[-165]
(g0%1)[-165](g0%1)[-163](g0%1)[-161]
(g0%1)[-181]
(g0%1)[-185]
(g0%1)[-185]
(g0%2)[-197](g1%2)[-195](g1%2)[-193]
(g0%1)[-193]
(g1%2)[-187]
(g0%2)[-187]
(g0%1)[-191]
(g0%2)[-173]
(g0%2)[-173]
(g0%1)[-193]
(g1%2)[-193]
(g0%1)[-181]
(g1%2)[-181]
(g1%2)[-193](g0%2)[-189]
(g0%2)[-189]
(g0%2)[-189]
(g1%2)[-167]
(g0%1)[-171]
(g0%2)[-173]
(g0%1)[-173]
(g0%1)[-179]
(g0%2)[-183]
(g1%2)[-183](g0%2)[-179]
(g1%2)[-179]
(g0%1)[-175](g0%1)[-173](g0%1)[-171]
(g0%2)[-185]
(g0%1)[-153]
(g0%1)[-147]
(g0%1)[-145]
(g0%1)[-153]
(g0%1)[-145]
(g0%1)[-135]
(g0%1)[-145]
(g0%1)[-145]
(g0%1)[-137]
(g0%2)[-149]
(g0%2)[-155]
(g0%2)[-147]
(g1%2)[-139]
(g0%2)[-145]
(g1%2)[-141]
(g0%2)[-149]
(g1%2)[-153]
(g1%2)[-163]
(g0%2)[-149]
(g1%2)[-151]
(g0%2)[-153]
(g1%2)[-153]
(g1%2)[-155]
(g1%2)[-145]
(g0%2)[-155]
(g0%1)[-135]
(g1%2)[-139]
(g1%2)[-131]
(g0%1)[-137]
(g1%2)[-131]
(g1%2)[-131]
(g0%2)[-119]
(g0%1)[-111]
(g0%1)[-119]
(g0%1)[-121]
(g1%2)[-107]
(g1%2)[-101]
(g0%2)[-97]
(g1%2)[-105]
(g0%2)[-103]
(g0%1)[-113]
(g0%1)[-119](g0%1)[-115]
(g0%1)[-153]
(g1%2)[-149]
(g0%2)[-143]
(g0%1)[-135]
(g0%1)[-133]
(g0%2)[-133]
(g0%1)[-125]
(g0%1)[-125]
(g0%1)[-153](g0%1)[-151](g0%1)[-149]
(g0%1)[-155]
(g0%1)[-163]
(g0%1)[-149]
(g0%1)[-161]
(g1%2)[-141]
(g1%2)[-141]
(g0%1)[-143]
(g0%1)[-141]
(g1%2)[-143]
(g1%2)[-141]
(g0%1)[-139]
(g1%2)[-143]
(g1%2)[-135]
(g0%2)[-153]
(g0%2)[-147]
(g0%1)[-145](g0%1)[-143]
(g0%1)[-157](g0%1)[-149]
(g1%2)[-157]
(g0%2)[-143]
(g0%1)[-143]
(g0%1)[-139]
(g0%1)[-129]
(g0%1)[-127]
(g1%2)[-129]
(g1%2)[-125]
(g0%2)[-121]
(g0%2)[-115]
(g0%2)[-117](g1%2)[-113]
(g1%2)[-123](g0%2)[-119]
(g0%2)[-119]
(g0%1)[-127]
(g0%1)[-127]
(g0%1)[-129]
(g1%2)[-129]
(g0%2)[-123]
(g0%1)[-117]
(g1%2)[-91]
(g1%2)[-87](g0%2)[-83]
(g0%2)[-85]
(g0%1)[-85]
(g0%2)[-79]
(g0%2)[-95]
(g0%2)[-95]
(g0%2)[-91]
(g1%2)[-85]
(g0%2)[-73](g1%2)[-71]
(g1%2)[-71]
(g0%1)[-69]
(g0%1)[-77]
(g0%1)[-71]
(g1%2)[-75]
(g1%2)[-73]
(g0%1)[-77]
(g0%2)[-59]
(g0%1)[-69]
(g1%2)[-75]
(g0%2)[-75]
(g0%2)[-89]
(g0%2)[-89]
(g1%2)[-81]
(g1%2)[-77]
(g1%2)[-73]
(g0%2)[-77]
(g0%2)[-71]
(g0%1)[-73]
(g0%1)[-73]
(g1%2)[-77]
(g1%2)[-83](g0%2)[-79]
(g0%2)[-73]
(g0%2)[-71]
(g0%2)[-69]
(g0%1)[-85](g0%1)[-83]
(g0%1)[-77]
(g0%2)[-87]
(g0%2)[-79]
(g0%1)[-65]
(g0%1)[-75]
(g0%1)[-63]
(g0%1)[-61]
(g1%2)[-61]
(g1%2)[-63]
(g0%2)[-75]
(g1%2)[-87]
(g0%2)[-95](g1%2)[-91]
(g0%2)[-99]
(g1%2)[-93]
(g1%2)[-95]
(g0%1)[-75]
(g1%2)[-71]
(g0%1)[-59]
(g0%2)[-61]
(g0%2)[-63]
(g1%2)[-73]
(g0%1)[-83](g0%1)[-81]
(g0%2)[-85]
(g1%2)[-67]
(g1%2)[-71]
(g1%2)[-71]
(g0%1)[-59]
(g0%1)[-91]
(g1%2)[-95]
(g0%2)[-103]
(g0%2)[-97]
(g0%2)[-97]
(g1%2)[-77]
(g0%2)[-81]
(g1%2)[-77]
(g1%2)[-83]
(g0%1)[-91]
(g0%1)[-91]
(g0%1)[-85](g0%1)[-81]
(g0%1)[-81]
(g0%1)[-83]
(g0%1)[-87]
(g0%2)[-97](g1%2)[-95]
(g1%2)[-89]
(g0%1)[-101](g0%1)[-93]
(g0%1)[-101]
(g0%1)[-117](g0%1)[-109]
(g1%2)[-131]
(g0%2)[-129]
(g0%1)[-123](g0%1)[-121](g0%1)[-119]
(g0%2)[-97]
(g0%2)[-87]
(g0%2)[-83]
(g0%2)[-91]
(g0%1)[-91]
(g0%1)[-99]
(g0%1)[-93]
(g1%2)[-97]
(g1%2)[-99](g0%2)[-95]
(g1%2)[-105]
(g1%2)[-93]
(g0%1)[-103]
(g1%2)[-99]
(g0%2)[-89]
(g1%2)[-99]
(g1%2)[-99]
(g0%1)[-101]
(g0%1)[-95]
(g1%2)[-113]
(g0%1)[-121]
(g0%1)[-121]
(g0%1)[-123]
(g1%2)[-121]
(g0%2)[-125]
(g0%1)[-121]
(g0%1)[-125]
(g0%1)[-131]
(g0%1)[-123]
(g1%2)[-135]
(g0%2)[-143]
(g1%2)[-145](g0%2)[-141]
(g1%2)[-147]
(g0%2)[-151]
(g1%2)[-139]
(g0%2)[-129]
(g0%1)[-135]
(g1%2)[-125]
(g0%1)[-115]
(g0%1)[-121]
(g1%2)[-135]
(g0%2)[-129]
(g1%2)[-113]
(g1%2)[-121]
(g0%1)[-117]
(g1%2)[-121]
(g0%2)[-125]
(g0%2)[-135]
(g0%1)[-129](g0%1)[-127](g0%1)[-125]
(g0%1)[-127]
(g0%1)[-125]
(g0%2)[-119]
(g0%1)[-117]
(g0%2)[-125]
(g0%1)[-127]
(g0%1)[-121]
(g1%2)[-121]
(g0%2)[-135]
(g0%1)[-117]
(g0%2)[-119]
(g0%1)[-119]
(g0%1)[-107]
(g0%1)[-113]
(g0%1)[-103]
(g0%1)[-103]
(g0%1)[-93]
(g1%2)[-93]
(g0%1)[-85]
(g0%1)[-85]
(g0%2)[-101]
(g0%2)[-101]
(g0%1)[-109](g0%1)[-107]
(g0%1)[-103]
(g0%1)[-101]
(g0%1)[-113]
(g0%1)[-107]
(g0%1)[-99]
(g1%2)[-101]
(g1%2)[-107](g0%2)[-103]
(g0%2)[-103]
(g0%1)[-101]
(g0%2)[-103]
(g0%2)[-113]
(g1%2)[-117]
(g0%2)[-109]
(g0%2)[-111]
(g0%2)[-113]
(g0%2)[-115]
(g0%2)[-139]
(g0%1)[-135]
(g0%1)[-139]
(g0%1)[-145]
(g1%2)[-141]
(g1%2)[-137]
(g0%1)[-157]
(g0%2)[-141]
(g1%2)[-129]
(g0%2)[-129]
(g0%1)[-139]
(g0%2)[-157]
(g1%2)[-159]
(g0%1)[-161]
(g1%2)[-157]
(g0%2)[-153]
(g0%2)[-143]
(g0%1)[-141]
(g0%1)[-147]
(g0%1)[-149]
(g0%1)[-149](g0%1)[-147]
(g1%2)[-145]
(g0%2)[-141]
(g0%2)[-155]
(g0%1)[-177]
(g0%1)[-185]
(g0%1)[-187]
(g0%1)[-179]
(g1%2)[-179]
(g0%2)[-181]
(g0%2)[-181]
(g1%2)[-185]
(g1%2)[-167]
(g0%2)[-175]
(g0%2)[-171]
(g0%1)[-185]
(g1%2)[-181]
(g1%2)[-189]
(g0%2)[-177]
(g0%2)[-189]
(g0%2)[-205]
(g1%2)[-205]
(g0%1)[-205]
(g0%1)[-193]
(g1%2)[-183]
(g1%2)[-173]
(g1%2)[-167]
(g0%2)[-175](g1%2)[-171]
(g1%2)[-173]
(g0%2)[-169](g1%2)[-165]
(g1%2)[-167]
(g1%2)[-181]
(g1%2)[-187]
(g0%2)[-177]
(g0%1)[-179]
(g1%2)[-175]
(g1%2)[-183]
(g0%2)[-171]
(g1%2)[-171]
(g1%2)[-183]
(g0%1)[-169]
(g1%2)[-173]
(g1%2)[-177]
(g0%1)[-177]
(g0%1)[-173]
(g0%1)[-179]
(g1%2)[-197]
(g0%1)[-193]
(g1%2)[-191]
(g0%2)[-191](g1%2)[-187]
(g0%2)[-185]
(g0%1)[-191](g0%1)[-181]
(g0%2)[-181]
(g0%2)[-185]
(g0%1)[-183]
(g0%2)[-191]
(g1%2)[-197]
(g0%1)[-195](g0%1)[-193]
(g1%2)[-179]
(g0%1)[-167]
(g1%2)[-167]
(g0%2)[-177]
(g0%1)[-175]
(g1%2)[-167]
(g0%2)[-169]
(g0%1)[-181](g0%1)[-179]
(g1%2)[-181]
(g0%2)[-189](g1%2)[-185]
(g1%2)[-193]
(g0%2)[-189]
(g0%2)[-181](g1%2)[-177]
(g1%2)[-183]
(g0%2)[-177]
(g1%2)[-169]
(g0%2)[-171]
(g1%2)[-171]
(g1%2)[-181]
(g1%2)[-187]
(g1%2)[-183](g0%2)[-179]
(g1%2)[-181]
(g0%2)[-189]
(g0%1)[-203](g0%1)[-201](g0%1)[-199]
(g0%1)[-213]
(g0%1)[-227]
(g0%1)[-219]
(g1%2)[-227]
(g1%2)[-247]
(g0%1)[-247]
(g0%1)[-261](g0%1)[-259](g0%1)[-257]
(g0%2)[-257]
(g1%2)[-253](g0%2)[-251](g0%2)[-249]
(g1%2)[-251]
(g0%1)[-261]
(g1%2)[-257]
(g1%2)[-257]
(g0%2)[-247]
(g0%1)[-247]
(g0%1)[-269](g0%1)[-267]
(g0%1)[-265]
(g1%2)[-271]
(g1%2)[-251]
(g1%2)[-225]
(g0%2)[-229]
(g0%2)[-215]
(g1%2)[-221]
(g0%1)[-223]
(g0%1)[-223]
(g1%2)[-223]
(g0%2)[-229](g1%2)[-225]
(g0%2)[-235]
(g1%2)[-225]
(g0%2)[-233]
(g0%2)[-229]
(g0%1)[-227]
(g0%1)[-221](g0%1)[-219]
(g0%1)[-213]
(g1%2)[-213]
(g1%2)[-217]
(g1%2)[-221]
(g1%2)[-219]
(g1%2)[-217]
(g0%1)[-229](g0%1)[-225]
(g0%1)[-235]
(g0%1)[-241]
(g0%1)[-233]
(g0%1)[-239]
(g1%2)[-235]
(g1%2)[-239]
(g0%2)[-249](g0%2)[-247](g1%2)[-245]
(g0%1)[-259]
(g1%2)[-259]
(g1%2)[-269]
(g0%2)[-265]
(g0%2)[-263]
(g0%1)[-287](g0%1)[-283]
(g1%2)[-281]
(g0%2)[-283](g1%2)[-279]
(g1%2)[-279]
(g0%2)[-285]
(g0%2)[-289]
(g1%2)[-259]
(g0%1)[-265]
(g1%2)[-275]
(g1%2)[-259]
(g0%1)[-275]
(g1%2)[-253]
(g0%1)[-251]
(g0%2)[-251]
(g1%2)[-269]
(g0%2)[-277]
(g0%1)[-269]
(g1%2)[-271]
(g0%2)[-279](g1%2)[-275]
(g1%2)[-277]
(g0%2)[-279](g1%2)[-275]
(g1%2)[-271]
(g0%2)[-273]
(g0%2)[-265]
(g1%2)[-269]
(g0%1)[-257]
(g0%1)[-221]
(g1%2)[-217]
(g0%1)[-207](g0%1)[-203]
(g0%2)[-235](g0%2)[-233](g1%2)[-231]
(g0%1)[-235]
(g0%1)[-239]
(g1%2)[-243]
(g1%2)[-249](g0%2)[-245]
(g1%2)[-247]
(g0%2)[-235]
(g1%2)[-247]
(g0%1)[-235](g0%1)[-233]
(g0%1)[-241]
(g1%2)[-245]
(g0%1)[-257]
(g0%1)[-257]
(g0%2)[-255]
(g0%2)[-253]
(g0%2)[-255]
(g0%2)[-251](g1%2)[-247]
(g1%2)[-251]
(g0%2)[-239]
(g0%2)[-231]
(g0%1)[-223]
(g0%2)[-233]
(g0%1)[-235]
(g1%2)[-231]
(g0%2)[-223]
(g1%2)[-219]
(g0%2)[-217]
(g1%2)[-227]
(g1%2)[-237]
(g1%2)[-239]
(g0%2)[-239](g1%2)[-237](g1%2)[-235]
(g0%1)[-211]
(g0%1)[-229](g0%1)[-227](g0%1)[-225]
(g0%1)[-225]
(g1%2)[-221]
(g0%2)[-211]
(g0%2)[-213]
(g1%2)[-225](g0%2)[-221]
(g1%2)[-225]
(g0%1)[-221](g0%1)[-219](g0%1)[-217]
(g1%2)[-233]
(g0%2)[-233]
(g0%1)[-229]
(g0%1)[-225]
(g0%1)[-235]
(g1%2)[-231]
(g1%2)[-227]
(g0%1)[-237]
(g0%1)[-239]
(g0%1)[-227]
(g0%1)[-237](g0%1)[-233]
(g0%1)[-237]
(g1%2)[-233]
(g0%1)[-237]
(g1%2)[-235]
(g0%1)[-237]
(g1%2)[-225]
(g0%1)[-227]
(g0%2)[-225]
(g0%2)[-221](g1%2)[-217]
(g1%2)[-215]
(g0%2)[-211]
(g1%2)[-205]
(g0%1)[-205]
(g1%2)[-227](g0%2)[-223]
(g1%2)[-235]
(g1%2)[-223]
(g0%1)[-223]
(g0%2)[-229]
(g1%2)[-211]
(g0%2)[-231]
(g0%2)[-223]
(g1%2)[-213]
(g1%2)[-223]
(g0%1)[-223]
(g1%2)[-225]
(g0%2)[-221]
(g1%2)[-227]
(g0%2)[-235]
(g0%2)[-231]
(g1%2)[-221]
(g1%2)[-223](g1%2)[-221](g0%2)[-219]
(g0%1)[-223]
(g0%1)[-245]
(g1%2)[-249]
(g1%2)[-261]
(g1%2)[-259]
(g0%2)[-255]
(g0%1)[-251]
(g0%2)[-253]
(g0%2)[-245]
(g0%1)[-225]
(g1%2)[-229]
(g1%2)[-229]
(g1%2)[-223]
(g0%2)[-229]
(g1%2)[-233]
(g0%2)[-227]
(g0%1)[-229](g0%1)[-227](g0%1)[-225]
(g0%1)[-225]
(g0%2)[-231]
(g0%2)[-241]
(g1%2)[-261]
(g1%2)[-257](g0%2)[-253]
(g1%2)[-255]
(g1%2)[-257](g0%2)[-253]
(g1%2)[-257]
(g0%2)[-249]
(g0%2)[-251](g1%2)[-247]
(g1%2)[-253]
(g0%1)[-257]
(g0%1)[-255]
(g1%2)[-259]
(g0%2)[-267]
(g1%2)[-283]
(g0%2)[-291](g1%2)[-287]
(g1%2)[-289]
(g1%2)[-293]
(g0%2)[-297]
(g0%2)[-289]
(g1%2)[-301]
(g1%2)[-299]
(g1%2)[-299](g0%2)[-297](g0%2)[-295]
(g1%2)[-303]
(g0%2)[-311](g1%2)[-307]
(g1%2)[-309]
(g0%2)[-299]
(g0%2)[-301]
(g0%2)[-301]
(g0%2)[-309]
(g0%2)[-309]
(g1%2)[-311]
(g0%1)[-305]
(g0%1)[-315]
(g1%2)[-311]
(g0%2)[-303]
(g0%2)[-299]
(g0%2)[-313]
(g0%1)[-325]
(g1%2)[-315]
(g1%2)[-333]
(g0%2)[-335](g1%2)[-331]
(g1%2)[-329](g0%2)[-325]
(g1%2)[-323]
(g1%2)[-329]
(g0%2)[-325]
(g1%2)[-323](g0%2)[-319]
(g1%2)[-321]
(g0%1)[-327]
(g1%2)[-323]
(g1%2)[-331]
(g0%2)[-319]
(g0%2)[-331]
(g1%2)[-325]
(g0%2)[-323]
(g0%1)[-331]
(g0%2)[-315]
(g1%2)[-313]
(g0%1)[-309]
(g0%1)[-315]
(g0%2)[-321]
(g1%2)[-347]
(g0%1)[-347]
(g0%1)[-349]
(g1%2)[-345]
(g0%2)[-337]
(g0%2)[-333]
(g0%2)[-347]
(g0%1)[-339]
(g0%1)[-331]
(g0%1)[-329]
(g1%2)[-343]
(g0%2)[-349]
(g0%1)[-345]
(g0%1)[-337]
(g0%1)[-337]
(g0%1)[-351]
(g0%1)[-351]
(g0%1)[-351]
(g1%2)[-355]
(g0%2)[-359]
(g0%2)[-355]
(g1%2)[-361]
(g0%1)[-359]
(g0%1)[-361](g0%1)[-355](g0%1)[-351]
(g0%1)[-351]
(g0%2)[-305]
(g0%1)[-295]
(g0%2)[-271]
(g0%2)[-261]
(g1%2)[-257]
(g0%2)[-259]
(g1%2)[-269]
(g0%2)[-253]
(g0%1)[-197]
(g0%1)[-189]
(g0%1)[-187]
(g0%1)[-203]
(g0%1)[-205](g0%1)[-203]
(g0%1)[-197]
(g1%2)[-189]
(g1%2)[-203]
(g0%1)[-207]
(g1%2)[-203]
(g0%2)[-195]
(g1%2)[-193]
(g0%2)[-205]
(g0%2)[-209]
(g1%2)[-217]
(g0%2)[-201]
(g1%2)[-191]
(g0%1)[-215]
(g1%2)[-213]
(g1%2)[-203]
(g1%2)[-197]
(g0%2)[-193]
(g1%2)[-189]
(g0%1)[-193](g0%1)[-191](g0%1)[-189]
(g0%1)[-209]
(g0%1)[-201]
(g0%1)[-215]
(g0%1)[-203]
(g0%1)[-221]
(g1%2)[-217]
(g1%2)[-225]
(g0%2)[-213]
(g0%2)[-223]
(g1%2)[-213]
(g0%2)[-213]
(g0%1)[-225](g0%1)[-223]
(g0%2)[-217]
(g1%2)[-207]
(g1%2)[-205]
(g1%2)[-215]
(g0%2)[-223]
(g1%2)[-225]
(g1%2)[-219](g0%2)[-215]
(g1%2)[-219]
(g1%2)[-217]
(g0%2)[-159]
(g1%2)[-143]
(g0%1)[-147]
(g1%2)[-143]
(g0%2)[-141](g1%2)[-137]
(g0%2)[-139]
(g0%2)[-139]
(g0%1)[-159]
(g0%1)[-149](g0%1)[-145]
(g0%1)[-143]
(g0%2)[-157]
(g0%1)[-159]
(g1%2)[-161]
(g1%2)[-159](g0%2)[-155]
(g0%2)[-153](g1%2)[-149]
(g0%2)[-147]
(g1%2)[-147]
(g0%2)[-151]
(g0%2)[-153]
(g1%2)[-157]
(g0%1)[-161](g0%1)[-159]
(g0%2)[-167]
(g0%2)[-169](g1%2)[-165]
(g1%2)[-175](g0%2)[-171]
(g0%2)[-179]
(g0%2)[-185]
(g1%2)[-179]
(g1%2)[-181]
(g0%1)[-179]
(g0%1)[-171]
(g1%2)[-177]
(g1%2)[-181]
(g0%2)[-179]
(g1%2)[-175]
(g1%2)[-171]
(g0%2)[-169]
(g0%1)[-175]
(g0%1)[-93](g0%1)[-91](g0%1)[-89]
(g1%2)[-89]
(g0%1)[-77](g0%1)[-67]
(g0%1)[-65]
(g1%2)[-61]
(g0%2)[-51]
(g1%2)[-65]
(g0%2)[-63]
(g0%2)[-65]
(g0%1)[-41]
(g0%1)[-49]
(g1%2)[-41]
(g1%2)[-33]
(g1%2)[-29]
(g1%2)[-29]
(g1%2)[-31]
(g0%1)[-11]
(g0%1)[-25]
(g0%1)[-25]
(g0%1)[-27]
(g1%2)[-27]
(g1%2)[-19](g0%2)[-15]
(g1%2)[-19]
(g1%2)[-27]
(g0%1)[-19]
(g1%2)[-3]
(g1%2)[7]
(g0%2)[9]
(g0%2)[1]
(g0%2)[7]
(g0%2)[1]
(g0%1)[1]
(g0%1)[11]
(g0%1)[19]
(g1%2)[13]
(g0%1)[19](g0%1)[23]
(g0%2)[15]
(g1%2)[5]
(g0%2)[9]
(g1%2)[11]
(g1%2)[17]
(g0%2)[15](g1%2)[19]
(g1%2)[-13]
(g1%2)[-9](g0%2)[-5]
(g1%2)[-1]
(g1%2)[3]
(g1%2)[-3]
(g1%2)[-13]
(g0%1)[-11]
(g0%1)[-19]
(g0%1)[-27]
(g0%1)[-21]
(g1%2)[-25]
(g0%1)[-9]
(g0%2)[-19]
(g1%2)[-11](g0%2)[-7]
(g1%2)[-35]
(g0%1)[-27]
(g0%1)[-33]
(g1%2)[-33]
(g0%2)[-19]
(g1%2)[-23]
(g0%2)[-31]
(g0%2)[-35]
(g0%2)[-43](g1%2)[-41](g1%2)[-39]
(g0%1)[-43]
(g0%1)[-43]
(g1%2)[-27]
(g1%2)[-27]
(g0%1)[-11]
(g0%1)[-13]
(g0%1)[-7](g0%1)[-3]
(g0%1)[-3]
(g0%1)[-17]
(g0%1)[-13]
(g1%2)[-15]
(g0%2)[-7]
(g0%1)[-17]
(g1%2)[-13]
(g0%2)[-11](g1%2)[-7]
(g1%2)[-5]
(g0%2)[1]
(g1%2)[-11]
(g0%2)[-15]
(g1%2)[-9]
(g0%1)[-17]
(g1%2)[-3]
(g0%1)[-7]
(g1%2)[11]
(g0%2)[13]
(g1%2)[21]
(g0%2)[27]
(g1%2)[13]
(g1%2)[19]
(g0%1)[17]
(g1%2)[13]
(g0%2)[5]
(g1%2)[21]
(g0%2)[17]
(g0%2)[25]
(g0%1)[25]
(g0%1)[25]
(g0%1)[15](g0%1)[19]
(g0%1)[15]
(g0%2)[19]
(g0%1)[13]
(g0%2)[11]
(g0%2)[3](g1%2)[5](g1%2)[7]
(g0%1)[17]
(g1%2)[17]
(g0%2)[11](g1%2)[15]
(g1%2)[3]
(g1%2)[11]
(g1%2)[17]
(g0%1)[3]
(g0%1)[-5]
(g0%1)[3]
(g0%1)[11]
(g0%1)[9](g0%1)[13]
(g1%2)[1]
(g1%2)[11]
(g0%1)[15](g0%1)[25]
(g1%2)[25]
(g0%1)[15](g0%1)[19]
(g0%2)[5](g0%2)[7](g1%2)[9]
(g0%1)[11]
(g1%2)[11]
(g0%1)[5]
(g0%1)[-27]
(g1%2)[-27]
(g0%1)[-31]
(g0%1)[-33]
(g0%1)[-43]
(g1%2)[-25](g0%2)[-21]
(g0%2)[-19](g1%2)[-15]
(g1%2)[-13]
(g1%2)[-9]
(g1%2)[-25]
(g0%1)[-19]
(g0%1)[-15]
(g0%1)[7]
(g0%2)[23]
(g0%2)[21]
(g1%2)[19]
(g0%1)[21]
(g0%1)[19]
(g0%2)[19]
(g1%2)[25]
(g0%2)[43]
(g1%2)[47]
(g0%1)[37]
(g0%1)[31]
(g0%2)[17]
(g0%1)[25](g0%1)[27](g0%1)[29]
(g1%2)[25]
(g0%1)[27]
(g0%2)[23]
(g1%2)[15]
(g0%2)[29]
(g1%2)[23](g1%2)[25](g0%2)[27]
(g0%2)[21]
----- (0,0), 8, 'ECCA fully functional, cleanup of GPSE tracks starts', no te='debug', priority=0 -----
