(g0%1)[341]
(g1%2)[338]
(g0%1)[347](g0%1)[348](g0%1)[349](g0%1)[350](g0%1)[351]
(g0%2)[337](g0%2)[338](g1%2)[341](g1%2)[342]
(g0%2)[344]
(g0%2)[334]
(g1%2)[343]
(g1%2)[353]
(g0%1)[367]
(g1%2)[355]
(g1%2)[346]
(g1%2)[331]
(g0%1)[328]
(g0%1)[312](g0%1)[313](g0%1)[320](g0%1)[321]
(g0%1)[316]
(g0%1)[328]
(g0%1)[320]
(g1%2)[332]
(g0%2)[328]
(g1%2)[331]
(g1%2)[338]
(g0%2)[327]
(g0%1)[329]
(g1%2)[328]
(g1%2)[330](g1%2)[331](g0%2)[334](g0%2)[335]
(g1%2)[337]
(g0%1)[345]
(g0%2)[328]
(g1%2)[329]
(g0%1)[341](g0%1)[342](g0%1)[343](g0%1)[344](g0%1)[345]
(g1%2)[356](g1%2)[357](g1%2)[358](g0%2)[359](g0%2)[360](g0%2)[361]
(g0%1)[359]
(g0%1)[351]
(g0%1)[352]
(g0%1)[355](g0%1)[356](g0%1)[357](g0%1)[358](g0%1)[359]
(g0%1)[361]
(g0%1)[359](g0%1)[360](g0%1)[361](g0%1)[362](g0%1)[363]
(g0%1)[357]
(g1%2)[387]
(g0%2)[387]
(g0%1)[395]
(g0%1)[372]
(g0%1)[368]
(g1%2)[364]
(g0%1)[373](g0%1)[374](g0%1)[375](g0%1)[376](g0%1)[377]
(g1%2)[375]
(g0%1)[357]
(g1%2)[349]
(g0%2)[354]
(g0%2)[349]
(g0%1)[350]
(g0%1)[347](g0%1)[352]
(g0%1)[359]
(g0%1)[357]
(g0%1)[363]
(g0%1)[398]
(g0%1)[395](g0%1)[400]
(g0%1)[407]
(g1%2)[410]
(g1%2)[392]
(g0%2)[397]
(g1%2)[387](g1%2)[394]
(g1%2)[376]
(g0%2)[379]
(g1%2)[380]
(g0%1)[369](g0%1)[370](g0%1)[371](g0%1)[372](g0%1)[373]
(g0%2)[373]
(g0%2)[373]
(g0%1)[366](g0%1)[367]
(g1%2)[344]
(g0%2)[333]
(g1%2)[339]
(g0%1)[330]
(g0%2)[335]
(g0%1)[338]
(g1%2)[327]
(g0%2)[317]
(g1%2)[328]
(g1%2)[321]
(g0%1)[328]
(g1%2)[333]
(g0%1)[306](g0%1)[307](g0%1)[310](g0%1)[317]
(g0%1)[342]
(g1%2)[345]
(g1%2)[349]
(g0%1)[338]
(g0%1)[362]
(g0%1)[361]
(g0%1)[352]
(g0%1)[355]
(g0%1)[369]
(g0%1)[361]
(g0%1)[358]
(g0%1)[367]
(g0%2)[385]
----- (0,0), 8, 'The ECCA launched 26th Cordership to clean the southeast trail', no te='debug?', setmag=-2, priority=2 -----
