(g0%1)[401]
(g1%2)[404]
(g1%2)[402]
(g1%2)[399]
(g0%1)[382]
(g1%2)[378]
(g1%2)[370]
(g0%2)[369]
(g0%2)[363]
(g0%2)[375]
(g0%1)[379]
(g0%1)[369](g0%1)[370](g0%1)[371](g0%1)[372]
(g1%2)[381]
(g0%2)[372]
(g0%1)[370]
(g0%1)[360]
(g0%1)[372]
(g0%1)[364]
(g1%2)[376]
(g0%2)[372]
(g1%2)[375]
(g1%2)[382]
(g0%2)[371]
(g0%1)[373]
(g1%2)[372]
(g1%2)[374](g1%2)[375](g0%2)[378](g0%2)[379]
(g1%2)[381]
(g0%1)[389]
(g0%2)[372]
(g1%2)[373]
(g0%1)[385](g0%1)[386](g0%1)[387](g0%1)[388](g0%1)[389]
(g0%1)[403]
(g0%1)[395]
(g0%1)[396]
(g0%1)[399](g0%1)[400](g0%1)[401](g0%1)[402](g0%1)[403]
(g0%1)[405]
(g0%1)[403](g0%1)[404](g0%1)[405](g0%1)[406](g0%1)[407]
(g0%1)[401]
(g1%2)[431]
(g0%2)[431]
(g0%1)[439]
(g0%1)[416]
(g0%1)[412]
(g1%2)[408]
(g0%1)[417](g0%1)[418](g0%1)[419](g0%1)[420](g0%1)[421]
(g1%2)[419]
(g0%1)[401]
(g1%2)[393]
(g0%2)[398]
(g0%2)[393]
(g0%1)[394]
(g0%1)[391](g0%1)[396]
(g0%1)[403]
(g0%1)[401]
(g0%1)[407]
(g0%1)[442]
(g0%1)[439](g0%1)[444]
(g0%1)[451]
(g1%2)[454]
(g1%2)[436]
(g0%2)[441]
(g1%2)[431](g1%2)[438]
(g1%2)[420]
(g0%2)[423]
(g1%2)[424]
(g0%1)[413](g0%1)[414](g0%1)[415](g0%1)[416](g0%1)[417]
(g0%2)[417]
(g0%2)[417]
(g0%1)[410](g0%1)[411]
(g1%2)[388]
(g0%2)[377]
(g1%2)[383]
(g0%1)[374]
(g0%2)[379]
(g0%1)[382]
(g1%2)[371]
(g0%2)[361]
(g1%2)[372]
(g1%2)[365]
(g0%1)[372]
(g1%2)[377]
(g0%1)[350](g0%1)[351](g0%1)[354](g0%1)[361]
(g0%1)[386]
(g1%2)[389]
(g1%2)[393]
(g0%1)[382]
(g0%1)[406]
(g0%1)[405]
(g0%1)[396]
(g0%1)[399]
(g0%1)[413]
(g0%1)[405]
(g0%1)[402]
(g0%1)[411]
(g0%1)[429]
----- (0,0), 8, 'The ECCA launched 31th Cordership to clean the southeast trail', no te='debug?', setmag=-2, priority=2 -----
