(g0%1)[179]
(g1%2)[174]
(g0%1)[171](g0%1)[164](g0%1)[161](g0%1)[160]
(g1%2)[198](g0%2)[189]
(g0%1)[202]
(g0%1)[201]
(g0%1)[191]
(g0%1)[226]
(g0%1)[218]
(g1%2)[226]
(g1%2)[234]
(g1%2)[248](g1%2)[247](g0%2)[244](g0%2)[243]
(g1%2)[244]
(g0%1)[257]
(g1%2)[253]
(g1%2)[253]
(g0%1)[266](g0%1)[265](g0%1)[264](g0%1)[263](g0%1)[262]
(g0%2)[264]
(g0%1)[265]
(g0%2)[247]
(g1%2)[260]
(g1%2)[246]
(g1%2)[258]
(g0%1)[258]
(g1%2)[253]
(g1%2)[252]
(g0%2)[265]
(g1%2)[265]
(g0%1)[265](g0%1)[264](g0%1)[263](g0%1)[262]
(g0%1)[269]
(g0%1)[259]
(g0%1)[245](g0%1)[244](g0%1)[243](g0%1)[242](g0%1)[241](g0%1)[240]
(g0%1)[226]
(g0%1)[236](g0%1)[235](g0%1)[232]
(g1%2)[229]
(g0%2)[215]
(g1%2)[212]
(g1%2)[220]
(g1%2)[233]
(g1%2)[238]
(g1%2)[236]
(g1%2)[229](g1%2)[228](g0%2)[225](g0%2)[224]
(g1%2)[221]
(g1%2)[223](g1%2)[222](g0%2)[219](g0%2)[218]
(g1%2)[222]
(g1%2)[218]
(g0%1)[210]
(g0%1)[205](g0%1)[202](g0%1)[201]
(g0%1)[210]
(g1%2)[217]
(g1%2)[220]
(g1%2)[222]
(g1%2)[207]
(g1%2)[204]
(g0%2)[198]
(g0%2)[212]
(g1%2)[212]
(g0%2)[214]
(g1%2)[224]
(g1%2)[220](g1%2)[219](g0%2)[216](g0%2)[215]
(g0%2)[220]
(g1%2)[229]
(g0%2)[233]
(g1%2)[223]
(g0%1)[196]
(g1%2)[196]
(g1%2)[205]
(g1%2)[204]
(g0%1)[211](g0%1)[210](g0%1)[209](g0%1)[208](g0%1)[207](g0%1)[206]
(g1%2)[202]
(g1%2)[206]
(g0%1)[214]
(g0%1)[224]
(g0%1)[221]
(g1%2)[217]
(g0%2)[207]
(g1%2)[215]
(g0%1)[227]
(g1%2)[218]
(g0%1)[216]
(g0%1)[207]
(g0%1)[210]
(g1%2)[214]
(g0%2)[204]
(g1%2)[223]
(g0%1)[199]
(g1%2)[204]
(g1%2)[207]
(g1%2)[202]
(g0%2)[216]
(g0%1)[219]
(g1%2)[230]
----- (0,0), 8, 'The ECCA launched 4th Cordership to clean the southwest trail', no te='debug?', setmag=-2, priority=2 -----
