(g0%1)[224]
(g0%1)[226](g0%1)[221]
(g1%2)[232]
(g0%2)[235]
(g0%1)[249]
(g0%2)[251]
(g1%2)[263]
(g0%1)[277]
(g0%1)[270]
(g1%2)[285]
(g1%2)[276]
(g0%2)[272]
(g1%2)[266]
(g0%1)[282]
(g0%1)[284]
(g0%1)[294](g0%1)[293](g0%1)[290]
(g0%1)[294]
(g1%2)[297]
(g1%2)[289]
(g0%1)[285]
(g0%2)[287]
(g0%2)[300](g0%2)[299](g0%2)[298](g1%2)[297](g1%2)[296](g1%2)[295]
(g1%2)[286]
(g1%2)[298]
(g0%1)[298]
(g1%2)[293]
(g1%2)[292]
(g1%2)[311](g1%2)[310](g1%2)[309](g0%2)[308](g0%2)[307]
(g0%2)[305]
(g1%2)[305]
(g0%1)[305](g0%1)[304](g0%1)[303](g0%1)[302]
(g0%1)[309]
(g0%1)[299]
(g0%1)[285](g0%1)[284](g0%1)[283](g0%1)[282](g0%1)[281](g0%1)[280]
(g1%2)[278]
(g0%2)[263]
(g0%2)[259]
(g0%1)[278]
(g0%1)[263]
(g1%2)[266]
(g0%2)[274]
(g1%2)[270]
(g0%2)[264]
(g0%1)[257](g0%1)[256](g0%1)[255](g0%1)[254](g0%1)[253]
(g0%2)[254]
(g1%2)[256]
(g1%2)[259]
(g0%2)[255]
(g0%2)[264]
(g0%2)[258]
(g1%2)[266]
(g0%2)[255]
(g0%2)[266]
(g1%2)[271]
(g0%1)[267]
(g0%1)[251]
(g0%1)[244]
(g0%1)[245]
(g0%1)[240](g0%1)[237](g0%1)[236]
(g1%2)[240]
(g0%2)[245]
(g1%2)[247](g1%2)[238]
(g0%2)[245]
(g1%2)[237]
(g0%2)[235]
(g1%2)[225]
(g0%1)[219](g0%1)[212](g0%1)[209](g0%1)[208]
(g0%2)[222]
(g0%1)[240]
(g0%2)[236]
(g1%2)[242]
(g0%1)[253]
(g0%1)[264]
(g0%1)[261]
(g1%2)[257]
(g0%2)[247]
(g1%2)[255]
(g0%1)[267]
(g1%2)[258]
(g0%1)[256]
(g0%1)[247]
(g0%1)[250]
(g1%2)[254]
(g0%2)[244]
(g1%2)[263]
(g0%1)[239]
(g1%2)[244]
(g1%2)[247]
(g1%2)[242]
(g0%2)[256]
(g0%1)[259]
(g0%1)[270]
----- (0,0), 8, 'The ECCA launched 8th Cordership to clean the southwest trail', no te='debug?', setmag=-2, priority=2 -----
