(g0%1)[317]
(g0%1)[315](g0%1)[320]
(g1%2)[315]
(g0%2)[310]
(g1%2)[326]
(g1%2)[312]
(g0%1)[322]
(g0%1)[321]
(g1%2)[309]
(g0%1)[294](g0%1)[302]
(g0%1)[296](g0%1)[301](g0%1)[302](g0%1)[307]
(g0%1)[290]
(g0%2)[307]
(g0%2)[309]
(g0%1)[284]
(g0%1)[274]
(g0%1)[286]
(g0%1)[278]
(g1%2)[290]
(g0%2)[286]
(g1%2)[289]
(g1%2)[296]
(g0%2)[285]
(g0%1)[287]
(g1%2)[286]
(g1%2)[288](g1%2)[289](g0%2)[292](g0%2)[293]
(g1%2)[295]
(g0%1)[303]
(g0%2)[286]
(g1%2)[287]
(g0%1)[299](g0%1)[300](g0%1)[301](g0%1)[302](g0%1)[303]
(g0%1)[317]
(g0%1)[309]
(g0%1)[310]
(g0%1)[313](g0%1)[314](g0%1)[315](g0%1)[316](g0%1)[317]
(g0%1)[319]
(g0%1)[317](g0%1)[318](g0%1)[319](g0%1)[320](g0%1)[321]
(g0%1)[315]
(g1%2)[345]
(g0%2)[345]
(g0%1)[353]
(g0%1)[330]
(g0%1)[326]
(g1%2)[322]
(g0%1)[331](g0%1)[332](g0%1)[333](g0%1)[334](g0%1)[335]
(g1%2)[333]
(g0%1)[315]
(g1%2)[307]
(g0%2)[312]
(g0%2)[307]
(g0%1)[308]
(g0%1)[305](g0%1)[310]
(g0%1)[317]
(g0%1)[315]
(g0%1)[321]
(g0%1)[356]
(g0%1)[353](g0%1)[358]
(g0%1)[365]
(g1%2)[368]
(g1%2)[350]
(g0%2)[355]
(g1%2)[345](g1%2)[352]
(g1%2)[334]
(g0%2)[337]
(g1%2)[338]
(g0%1)[327](g0%1)[328](g0%1)[329](g0%1)[330](g0%1)[331]
(g0%2)[331]
(g0%2)[331]
(g0%1)[324](g0%1)[325]
(g1%2)[302]
(g0%2)[291]
(g1%2)[297]
(g0%1)[288]
(g0%2)[293]
(g0%1)[296]
(g1%2)[285]
(g0%2)[275]
(g1%2)[286]
(g1%2)[279]
(g0%1)[286]
(g1%2)[291]
(g0%1)[264](g0%1)[265](g0%1)[268](g0%1)[275]
(g0%1)[300]
(g1%2)[303]
(g1%2)[307]
(g0%1)[296]
(g0%1)[320]
(g0%1)[319]
(g0%1)[310]
(g0%1)[313]
(g0%1)[327]
(g0%1)[319]
(g0%1)[316]
(g0%1)[325]
(g0%1)[343]
----- (0,0), 8, 'The ECCA launched 16th Cordership to clean the southeast trail', no te='debug?', setmag=-2, priority=2 -----
