(g0%1)[296]
(g0%1)[298](g0%1)[293]
(g0%1)[300]
(g0%1)[299]
(g0%1)[302]
(g0%1)[315](g0%1)[314](g0%1)[313](g0%1)[312](g0%1)[311](g0%1)[310]
(g0%1)[322]
(g1%2)[318]
(g0%1)[333]
(g0%2)[329]
(g1%2)[327](g1%2)[326](g0%2)[323](g0%2)[322]
(g1%2)[309]
(g0%2)[316]
(g0%2)[328](g1%2)[325]
(g0%1)[352]
(g0%1)[346](g0%1)[343](g0%1)[342]
(g0%1)[342]
(g0%1)[362]
(g0%1)[367](g0%1)[366](g0%1)[365](g0%1)[364](g0%1)[363](g0%1)[362]
(g0%1)[369]
(g1%2)[365]
(g1%2)[365]
(g0%1)[378](g0%1)[377](g0%1)[376](g0%1)[375](g0%1)[374]
(g0%2)[376]
(g0%1)[377]
(g0%2)[359]
(g1%2)[372]
(g1%2)[358]
(g1%2)[370]
(g0%1)[370]
(g1%2)[365]
(g1%2)[364]
(g0%2)[377]
(g1%2)[377]
(g0%1)[377](g0%1)[376](g0%1)[375](g0%1)[374]
(g0%1)[381]
(g0%1)[371]
(g0%1)[357](g0%1)[356](g0%1)[355](g0%1)[354](g0%1)[353](g0%1)[352]
(g0%1)[344](g0%1)[339]
(g0%1)[327]
(g0%1)[334]
(g0%1)[337]
(g0%1)[334]
(g0%1)[334]
(g0%1)[336](g0%1)[331]
(g1%2)[339]
(g0%2)[335]
(g1%2)[349]
(g0%2)[342]
(g1%2)[337]
(g0%2)[327]
(g1%2)[338]
(g0%2)[327]
(g0%2)[338]
(g1%2)[343]
(g0%1)[339]
(g1%2)[321]
(g1%2)[317](g1%2)[316](g0%2)[313](g0%2)[312]
(g0%2)[317]
(g1%2)[320]
(g0%2)[310]
(g0%2)[305]
(g0%1)[306]
(g1%2)[302]
(g0%2)[307]
(g1%2)[297]
(g0%2)[294]
(g0%1)[312]
(g0%2)[308]
(g1%2)[314]
(g0%1)[325]
(g0%1)[336]
(g0%1)[333]
(g1%2)[329]
(g0%2)[319]
(g1%2)[327]
(g0%1)[339]
(g1%2)[330]
(g0%1)[328]
(g0%1)[319]
(g0%1)[322]
(g1%2)[326]
(g0%2)[316]
(g1%2)[335]
(g0%1)[311]
(g1%2)[316]
(g1%2)[319]
(g1%2)[314]
(g0%2)[328]
(g0%1)[331]
(g0%2)[342]
----- (0,0), 8, 'The ECCA launched 13th Cordership to clean the southwest trail', no te='debug?', setmag=-2, priority=2 -----
