(g0%1)[441]
(g1%2)[438]
(g0%2)[430]
(g1%2)[433]
(g1%2)[433]
(g0%2)[434](g0%2)[435](g1%2)[436](g1%2)[437]
(g0%1)[422]
(g0%1)[440]
(g0%1)[445](g0%1)[448](g0%1)[449]
(g0%1)[443](g0%1)[450]
(g0%1)[435]
(g0%1)[443]
(g0%1)[428]
(g0%1)[433]
(g1%2)[437]
(g0%1)[424](g0%1)[425](g0%1)[426](g0%1)[427](g0%1)[428]
(g1%2)[432]
(g0%2)[436]
(g0%1)[425]
(g1%2)[428]
(g0%1)[415](g0%1)[416](g0%1)[417](g0%1)[418](g0%1)[419]
(g1%2)[417]
(g0%1)[435]
(g0%1)[437]
(g0%1)[437]
(g1%2)[434]
(g1%2)[442]
(g1%2)[430]
(g0%2)[433]
(g0%1)[456]
(g0%1)[466]
(g0%1)[476]
(g0%1)[464]
(g0%1)[472]
(g1%2)[460]
(g0%2)[464]
(g1%2)[461]
(g1%2)[454]
(g0%2)[465]
(g0%1)[463]
(g1%2)[464]
(g0%2)[457](g0%2)[458](g1%2)[461](g1%2)[462]
(g1%2)[455]
(g0%1)[447]
(g0%2)[464]
(g1%2)[463]
(g0%1)[448](g0%1)[449](g0%1)[450](g0%1)[451]
(g0%2)[445]
(g0%1)[438]
(g0%1)[425]
(g0%1)[432]
(g0%1)[423]
(g0%1)[429](g0%1)[432](g0%1)[433]
(g0%1)[433]
(g0%1)[433](g0%1)[434]
(g0%1)[440]
(g1%2)[420]
(g0%2)[437]
(g0%1)[428]
(g1%2)[449]
(g0%2)[438]
(g1%2)[438]
(g0%1)[427]
(g0%1)[421]
(g1%2)[418]
(g0%2)[408]
(g1%2)[413]
(g0%2)[416]
(g1%2)[421]
(g0%2)[412](g0%2)[413](g1%2)[416](g1%2)[417]
(g0%2)[409]
(g0%1)[406]
(g0%1)[399]
(g1%2)[420]
(g0%2)[424]
(g1%2)[423]
(g0%2)[413]
(g1%2)[412]
(g0%1)[419](g0%1)[420](g0%1)[421](g0%1)[422](g0%1)[423]
(g0%2)[419]
(g0%2)[419]
(g0%1)[425](g0%1)[426]
(g0%2)[444]
(g0%1)[451]
(g1%2)[447]
(g1%2)[443]
(g0%1)[454]
(g0%1)[430]
(g0%1)[431]
(g0%1)[440]
(g0%1)[437]
(g0%1)[423]
(g0%1)[431]
(g0%1)[434]
(g0%1)[425]
(g0%1)[405]
----- (0,0), 8, 'The ECCA launched 17th Cordership to clean the northwest trail', no te='debug?', setmag=-2, priority=2 -----
