--The ECCA eliminates ash from the GPSE collision--  shift +37 -> 41, 43
--NE construction part1 start
(g1%2)[41]--block (from blinker)
(g0%1)[43]
(g1%2)[46]
(g0%2)[53]
(g0%2)[70]
(g1%2)[67]
(g1%2)[86]--beehive
(g0%1)[88]
(g0%1)[79]
(g0%1)[85](g0%1)[87](g0%1)[89]-- block
(g0%1)[113]
(g0%1)[102]
(g0%1)[127]
(g1%2)[131]
(g1%2)[136]
(g0%1)[132]
(g0%1)[146]
(g0%1)[141](g0%1)[143](g0%1)[145]-- beehive
(g1%2)[172]
(g1%2)[169]
(g0%2)[183]
(g0%2)[174]
(g1%2)[211]
(g1%2)[207]
(g0%2)[205]
(g0%1)[224]-- boat
(g1%2)[237]
(g0%2)[247]
(g0%2)[258]
(g0%2)[254]
(g0%1)[277]
(g1%2)[274]
(g0%2)[283]
(g0%2)[298]-- pond
(g1%2)[328]
(g0%2)[320](g0%2)[322](g1%2)[324]
(g1%2)[349]
(g0%1)[364]
(g0%1)[347]
--NE construction part1 end
--The ECCA eliminates ash from the GPSE collision--
--cleanup part1 start
(g0%1)[510](g0%1)[511](g0%1)[512](g0%1)[513](g0%1)[514](g0%1)[515] 
(g0%1)[506](g0%1)[507](g0%1)[508](g0%1)[509](g0%1)[510](g0%1)[511] 
(g1%2)[498] 
(g0%1)[472](g0%1)[473](g0%1)[474](g0%1)[475](g0%1)[476](g0%1)[477] 
(g0%2)[473] 
(g0%2)[479] 
(g0%2)[463] 
(g0%1)[457] 
(g0%1)[464] 
(g0%1)[429] 
(g0%1)[414] 
(g0%2)[411] 
(g0%2)[405] 
(g1%2)[413] 
(g0%1)[418](g0%1)[421](g0%1)[423] 
(g0%1)[401] 
(g0%1)[399] 
(g1%2)[399] 
(g0%1)[404](g0%1)[405](g0%1)[406](g0%1)[407](g0%1)[408] 
(g1%2)[384] 
(g1%2)[384] 
(g1%2)[401] 
--cleanup part1 end
--SW construction part start
(g0%2)[513](g0%2)[514](g0%2)[515](g1%2)[516](g1%2)[517](g1%2)[518]
(g0%1)[513](g0%1)[516]
(g0%2)[506]
(g0%1)[507]
(g0%1)[518]
(g0%1)[508](g0%1)[509](g0%1)[510](g0%1)[511](g0%1)[512](g0%1)[513]
(g0%1)[484]
(g1%2)[481]
(g1%2)[481]
(g0%2)[480]
(g0%2)[495]
(g1%2)[498]
(g0%2)[485]
(g0%2)[486]
(g0%2)[487]
(g1%2)[486]
(g0%1)[459]
(g1%2)[456]
(g0%2)[446]
(g1%2)[462]
(g1%2)[468]
(g0%2)[454]
(g1%2)[460]
(g1%2)[470]
(g1%2)[470]
(g0%2)[467]
(g0%2)[465]
(g0%1)[463]
(g1%2)[471]
(g0%2)[492]
(g0%2)[475]
(g1%2)[446]
(g0%2)[449]
(g0%2)[435]
(g0%2)[445]
(g0%2)[444]
--SW construction part end
--NE construction part2 start
(g0%2)[373]
(g1%2)[374](g1%2)[376](g0%2)[378]-- loaf
(g1%2)[388]
(g1%2)[399]
(g0%1)[431]
(g0%2)[400]
(g0%1)[399](g0%1)[401](g0%1)[403]
(g0%2)[417]
(g1%2)[437]
(g0%1)[430](g0%1)[432](g0%1)[434]
(g1%2)[444]
(g0%2)[440]
(g1%2)[437]
(g0%2)[447]
(g1%2)[463]
(g0%1)[498]
(g1%2)[482]
(g1%2)[458]
(g1%2)[446]
(g0%2)[452]
(g1%2)[460]
(g1%2)[461]
(g0%2)[470]
(g0%2)[463]
(g0%2)[463]
(g0%1)[436]
(g1%2)[426]
(g0%1)[417]
(g0%2)[433]
(g1%2)[428]
(g0%2)[438]
--NE construction part2 end
(g1%2)[434] -- launch
----- (0,0), 8, 'The ECCA copies arm block FNW', no te='debug?', setmag=-2, priority=0 -----
--cleanup part2 start
(g0%1)[388](g0%1)[392](g0%1)[393](g0%1)[395](g0%1)[398] 
(g1%2)[391] 
(g0%2)[392] 
(g0%2)[383] 
(g1%2)[389] 
(g0%2)[369] 
(g0%1)[339](g0%1)[344](g0%1)[345](g0%1)[350] 
(g0%2)[333] 
(g1%2)[326] 
(g0%1)[304] 
(g0%2)[306] 
(g1%2)[310] 
(g0%1)[303] 
(g0%2)[295] 
(g1%2)[299] 
(g0%1)[276] 
(g0%2)[277] 
(g0%1)[283](g0%1)[284](g0%1)[287](g0%1)[294] 
(g1%2)[284] 
(g0%1)[270](g0%1)[277] 
(g1%2)[247] 
(g0%2)[260] 
(g0%2)[250](g0%2)[251](g1%2)[252](g1%2)[253] 
(g0%1)[236](g0%1)[237](g0%1)[240] 
(g0%1)[235] 
(g1%2)[242] 
(g0%1)[236] 
(g0%2)[245] 
(g1%2)[246] 
(g0%2)[246](g0%2)[247](g0%2)[248](g1%2)[249](g1%2)[250](g1%2)[251] 
(g0%1)[244] 
(g0%1)[239](g0%1)[240](g0%1)[241](g0%1)[242](g0%1)[243](g0%1)[244] 
(g0%2)[229] 
(g1%2)[229] 
(g0%1)[219] 
(g0%2)[218] 
(g0%1)[208](g0%1)[215] 
(g0%1)[198](g0%1)[199](g0%1)[200](g0%1)[201](g0%1)[202](g0%1)[203] 
(g0%1)[147](g0%1)[151](g0%1)[152](g0%1)[154](g0%1)[157] 
(g0%1)[152](g0%1)[153](g0%1)[156] 
(g0%2)[114] 
(g0%2)[115] 
(g0%1)[119] 
(g0%1)[101] 
(g1%2)[87] 
(g0%1)[79](g0%1)[80](g0%1)[83] 
(g0%1)[70](g0%1)[71](g0%1)[72](g0%1)[73](g0%1)[74](g0%1)[75] 
(g0%1)[63] 
--cleanup part2 end
----- (1,1), 20, 'The corderships begin colliding with the SE Corderabsorbers', no te='debug?', setmag=-2, priority=1 -----
----- (0,0), 8, 'The ECCA launches a salvo of Corderships to clean the southeast trail', no te='debug?', setmag=-2, priority=0 -----
