----- (0,0), 0, 'Creating Green ECCA (Fake ... missing SoD)', priority=0 -----
-- readLevels(true,98-3) -3,-10->98,105 (g0%2)[98]
(g0%1)[98]
(g0%1)[105]
(g1%2)[90]
(g0%2)[114]
(g0%2)[113]
(g0%1)[122]
(g0%1)[114]
(g1%2)[122]
(g0%2)[136]
(g1%2)[145]
(g0%2)[135]
(g0%1)[145]
(g0%1)[164]
(g0%1)[155]
(g0%1)[158](g0%1)[153]
(g1%2)[158]
(g0%2)[163]
(g1%2)[160]
(g1%2)[158]
(g1%2)[144]
(g0%1)[154]
(g0%1)[168](g0%1)[163]
(g0%1)[170]
(g1%2)[173]
(g0%2)[180]
(g0%2)[197]
(g1%2)[205](g1%2)[204](g1%2)[203](g0%2)[202](g0%2)[201](g0%2)[200]
(g0%2)[209]
(g1%2)[204]
(g0%1)[204]
(g0%1)[221]
(g0%1)[221]
(g0%1)[221]
(g1%2)[221]
(g0%2)[233]
(g0%1)[241]
(g1%2)[237]
(g0%1)[252]
(g0%1)[254](g0%1)[249]
(g1%2)[249]
(g0%2)[253]
(g0%1)[250]
(g1%2)[238]
(g1%2)[222]
(g1%2)[219]
(g0%2)[228]
(g0%1)[223]
(g0%1)[260]
(g1%2)[263]
(g0%2)[270]
(g0%2)[261]
(g0%1)[278]
(g0%1)[297]
(g1%2)[300]
(g0%2)[307]
(g0%2)[298]
(g0%1)[315]
(g0%1)[334]
(g1%2)[337]
(g0%2)[344]
(g0%2)[335]
(g0%1)[352]
(g0%1)[371]
(g1%2)[374]
(g0%2)[381]
(g0%2)[398]
(g0%2)[396]
(g1%2)[419]
(g1%2)[421]
(g1%2)[418](g1%2)[417](g1%2)[416](g0%2)[415](g0%2)[414](g0%2)[413]
(g0%1)[429](g0%1)[428](g0%1)[427](g0%1)[426](g0%1)[425]
(g0%1)[457]
(g1%2)[455]
(g0%1)[464]
(g1%2)[466]
(g0%2)[473]
(g0%2)[490]
(g1%2)[487]
(g1%2)[506]
(g1%2)[509]
(g1%2)[515]
(g0%1)[525](g0%1)[524](g0%1)[523](g0%1)[522](g0%1)[521]
(g0%2)[506]
(g1%2)[512]
(g1%2)[502]
(g0%1)[518]
(g0%1)[522]
(g0%1)[560]
(g0%1)[576]
(g0%1)[578](g0%1)[573]
(g0%1)[585]
(g0%1)[577]
(g0%1)[575]
(g0%1)[591]
(g1%2)[587]
(g0%2)[598]
(g0%1)[570]
(g1%2)[573]
(g1%2)[576]
(g0%1)[584]
(g0%2)[568]
(g1%2)[572]
(g1%2)[562]
(g0%2)[560]
(g0%2)[556]
(g1%2)[552]
(g0%1)[548]
(g0%1)[550](g0%1)[545]
(g0%1)[538]
(g0%1)[549]
(g0%1)[544]
(g0%1)[540]
(g1%2)[565]
(g0%1)[584]
(g1%2)[580]
(g1%2)[577]
(g1%2)[579]
(g0%2)[578]
(g1%2)[584]
(g1%2)[581](g1%2)[576]
(g0%1)[574]
(g0%2)[597]
(g0%2)[604](g0%2)[597]
(g0%1)[579]
(g1%2)[584]
(g0%2)[569](g1%2)[560]
(g0%1)[576]
(g1%2)[572]
(g0%1)[569](g0%1)[562](g0%1)[559](g0%1)[558]
(g0%1)[598](g0%1)[597](g0%1)[594](g0%1)[587]
(g1%2)[596](g0%2)[587]
(g1%2)[596]
(g0%2)[617]
(g1%2)[631]
(g0%1)[639]
(g1%2)[639]
(g0%2)[641]
(g0%2)[636]
(g0%2)[633](g1%2)[630](g1%2)[629]
(g1%2)[646]
(g0%1)[655]
(g0%1)[657](g0%1)[652]
(g0%1)[645]
(g0%1)[647]
(g0%1)[622]
(g0%1)[624](g0%1)[619]
(g0%1)[626]
(g0%1)[628]
(g1%2)[630]
(g1%2)[634]
(g0%1)[630](g0%1)[629](g0%1)[628](g0%1)[627](g0%1)[626](g0%1)[625]
(g1%2)[605]
(g1%2)[602](g1%2)[601](g0%2)[600]
(g0%2)[596]
(g0%2)[601]
(g0%1)[634]
(g0%1)[623]
(g0%1)[617]
(g0%1)[632]
(g0%1)[639]
(g1%2)[624]
(g0%1)[656]
(g0%1)[666]
(g0%1)[673]
(g1%2)[661]
(g1%2)[668]
(g0%2)[668]
(g0%2)[669]
(g1%2)[670](g1%2)[669](g1%2)[668](g0%2)[666](g0%2)[665]
(g1%2)[660]
(g1%2)[655]
(g0%2)[671]
(g1%2)[661]
(g0%2)[666](g0%2)[665](g0%2)[664](g1%2)[663](g1%2)[662](g1%2)[661]
(g0%1)[657]
(g0%8)[660]
(g0%1)[673]
(g1%2)[676]
(g1%2)[685]
(g0%2)[680]
(g0%2)[674]
(g1%2)[678]
(g0%2)[671](g0%2)[670](g0%2)[669](g1%2)[667](g1%2)[666]
(g0%1)[674](g0%1)[669]
(g0%1)[682]
(g0%1)[691]
(g1%2)[694]
(g0%1)[679]
(g0%2)[704]
(g0%2)[696]
(g1%2)[699](g1%2)[698]
(g0%1)[703]
(g1%2)[702]
(g1%2)[715](g1%2)[714](g0%2)[711](g0%2)[710]
(g1%2)[709]
(g0%1)[714]
(g1%2)[722]
(g0%2)[732](g0%2)[731](g0%2)[730](g1%2)[729](g1%2)[728](g1%2)[727]
(g0%1)[749](g0%1)[748]
(g1%2)[755]
(g0%1)[772]
(g1%2)[771]
(g0%2)[770]
(g1%2)[785]
(g0%2)[779]
(g0%1)[788]
(g0%2)[802]
(g1%2)[815]
(g1%2)[814]
(g0%1)[823]
(g0%1)[830]
(g0%1)[832]
(g1%2)[821]
(g0%2)[834]
(g1%2)[835]
(g0%1)[827]
(g1%2)[837]
(g1%2)[837]
(g1%2)[846]
(g1%2)[843](g1%2)[842](g0%2)[841]
(g0%1)[865](g0%1)[864]
(g0%1)[875]
(g0%1)[874]
(g0%1)[863]
(g0%1)[873](g0%1)[872](g0%1)[871](g0%1)[870](g0%1)[869](g0%1)[868]
(g0%1)[897]
(g0%1)[889]
(g1%2)[897]
(g0%2)[918]
(g1%2)[905]
(g0%1)[922]
(g0%1)[922]
(g1%2)[915]
(g1%2)[927]
(g0%1)[935]
(g0%1)[903]
(g1%2)[910]
(g0%1)[912](g0%1)[909]
(g0%2)[897]
(g0%2)[888]
(g0%1)[905]
(g0%1)[905]
(g1%2)[904]
(g1%2)[918]
(g1%2)[920]
(g0%2)[909]
(g1%2)[899](g1%2)[898](g0%2)[895](g0%2)[894]
(g0%1)[916]
(g1%2)[919]
(g0%1)[934]
(g0%1)[952]
(g1%2)[955]
(g0%2)[962]
(g0%1)[970]
(g0%2)[953]
(g0%1)[940]
(g0%1)[945]
(g1%2)[931]
(g1%2)[937]
(g0%1)[940]
(g0%1)[913]
(g0%1)[908]
(g0%1)[882]
(g1%2)[879]
(g0%1)[892](g0%1)[891](g0%1)[890](g0%1)[889](g0%1)[888]
(g1%2)[891]
(g0%2)[871]
(g0%2)[873]
(g0%1)[875](g0%1)[874]
(g0%1)[888](g0%1)[887](g0%1)[886](g0%1)[885](g0%1)[884](g0%1)[883]
(g0%1)[916]
(g0%1)[920]
(g1%2)[916]
(g0%2)[909]
(g1%2)[886]
(g1%2)[893]
(g0%1)[882]
(g0%1)[874]
(g0%1)[877]
(g0%1)[870]
(g0%1)[877]
(g1%2)[877]
(g0%2)[873]
(g0%2)[887]
(g1%2)[881]
(g0%1)[878]
(g0%1)[880](g0%1)[875]
(g1%2)[875]
(g0%2)[887](g0%2)[886](g1%2)[883](g1%2)[882]
(g1%2)[871]
(g0%1)[871]
(g1%2)[870]
(g1%2)[875]
(g0%2)[873]
(g0%1)[878]
(g0%2)[874]
(g0%1)[886]
(g0%1)[885]
(g0%1)[879](g0%1)[876](g0%1)[875]
(g0%1)[875]
(g1%2)[872]
(g1%2)[873]
(g0%2)[876](g0%2)[875]
(g0%1)[879]
(g0%1)[867]
(g1%8)[876]
(g0%1)[899]
(g0%2)[903]
(g0%2)[906]
(g0%2)[905]
(g0%1)[897]
(g1%2)[893]
(g1%8)[898]
(g0%2)[918]
(g0%1)[913]
(g0%1)[904]
(g1%2)[901]
(g1%2)[893]
(g0%2)[905]
(g1%2)[901]
(g1%2)[883]
(g0%1)[891]
(g0%2)[902]
(g0%2)[912]
(g0%2)[914](g1%2)[908](g1%2)[903]
(g0%1)[891]
(g1%2)[891]
(g0%2)[889]
(g1%2)[886]
(g0%2)[892]
(g1%2)[884]
(g0%2)[888]
(g1%2)[881]
(g0%2)[878]
(g1%2)[874]
(g0%1)[882]
(g0%1)[907]
(g0%1)[898]
(g1%2)[895]
(g0%2)[893](g0%2)[892](g1%2)[889](g1%2)[888]
(g1%2)[888]
(g1%2)[915]
(g0%2)[920]
(g0%1)[912]
(g0%1)[909]
(g1%2)[912]
(g0%2)[908]
(g0%1)[904]
(g1%2)[901]
(g0%2)[905]
(g0%1)[900]
(g0%1)[910](g0%1)[909](g0%1)[906]
(g1%2)[897]
(g1%2)[907]
(g0%2)[894]
(g1%2)[890]
(g1%2)[904]
(g0%1)[926]
(g1%2)[926]
(g0%2)[914]
(g0%1)[930]
(g0%1)[934]
(g0%1)[952]
(g0%1)[958]
(g0%1)[973]
(g1%2)[976]
(g0%1)[961]
(g0%2)[955]
(g0%1)[966](g0%1)[963](g0%1)[962]
(g0%1)[989]
(g1%2)[992]
(g0%2)[999]
(g0%1)[1007]
(g0%2)[990]
(g1%2)[982]
(g0%2)[963]
(g1%2)[986]
(g0%1)[1004]
(g1%2)[1008]
(g0%1)[1026]
(g1%2)[1029]
(g0%2)[1036]
(g0%2)[1027]
(g0%2)[1015]
(g0%1)[1023]
(g0%1)[1044]
(g0%1)[1042]
(g1%2)[1045]
(g0%1)[1063]
(g1%2)[1066]
(g0%2)[1073]
(g0%2)[1064]
(g0%2)[1052]
(g0%1)[1060]
(g0%1)[1081]
(g0%1)[1100]
(g0%1)[1089]
(g0%1)[1099](g0%1)[1098](g0%1)[1097](g0%1)[1096](g0%1)[1095](g0%1)[1094]
(g0%1)[1079]
(g1%2)[1074]
(g0%1)[1071](g0%1)[1064](g0%1)[1061](g0%1)[1060]
(g0%2)[1085]
(g0%1)[1124]
(g0%1)[1124]
(g1%2)[1127]
(g0%2)[1134]
(g0%2)[1151]
(g0%2)[1149]
(g0%2)[1104]
(g1%2)[1118]
(g0%1)[1100]
(g0%1)[1110](g0%1)[1109](g0%1)[1106]
(g0%1)[1106]
(g1%2)[1097]
(g0%2)[1108]
(g0%2)[1094]
(g1%2)[1092]
(g0%1)[1101](g0%1)[1098](g0%1)[1097]
(g0%1)[1102]
(g0%1)[1127]
(g0%1)[1128]
(g0%1)[1128]
(g0%1)[1135]
(g0%1)[1129]
(g1%2)[1127]
(g0%1)[1123]
(g1%2)[1126]
(g0%2)[1122]
(g0%1)[1127]
(g1%2)[1130]
(g0%2)[1126]
(g0%1)[1131]
(g0%1)[1138]
(g0%1)[1135]
(g1%2)[1172]
(g1%2)[1174]
(g1%2)[1171](g1%2)[1170](g1%2)[1169](g0%2)[1168](g0%2)[1167](g0%2)[1166]
(g1%2)[1160](g1%2)[1153](g1%2)[1152]
(g0%2)[1149]
(g1%2)[1146]
(g0%2)[1154]
(g0%2)[1130]
(g0%1)[1122]
(g1%2)[1122]
(g1%2)[1116]
(g0%2)[1121]
(g0%1)[1117](g0%1)[1116]
(g0%1)[1105]
(g1%2)[1102]
(g0%2)[1106]
(g0%1)[1138]
(g0%1)[1129]
(g1%2)[1133]
(g1%2)[1141]
(g0%2)[1135]
(g0%2)[1127]
(g1%2)[1127]
(g1%2)[1139]
(g1%2)[1120]
(g1%2)[1126]
(g0%1)[1110]
(g1%2)[1110]
(g0%1)[1114]
(g1%2)[1118]
(g1%2)[1118]
(g1%2)[1118]
(g0%1)[1126]
(g0%1)[1154]
(g0%1)[1157](g0%1)[1152]
(g1%2)[1152]
(g0%2)[1164](g0%2)[1163](g1%2)[1160](g1%2)[1159]
(g0%2)[1164]
(g0%1)[1154]
(g1%2)[1151]
(g0%2)[1141]
(g1%2)[1146]
(g0%2)[1158]
(g1%2)[1139]
(g1%2)[1141]
(g1%2)[1151]
(g0%1)[1163]
(g0%1)[1156]
(g1%2)[1171]
(g0%1)[1179]
(g0%1)[1210]
(g1%2)[1214]
(g1%2)[1200]
(g1%2)[1193]
(g0%2)[1202]
(g0%1)[1210]
(g0%1)[1224]
(g0%1)[1214]
(g0%1)[1216]
(g0%1)[1216]
(g0%1)[1249]
(g0%1)[1240]
(g0%1)[1235](g0%1)[1232](g0%1)[1231]
(g1%2)[1238]
(g0%1)[1230]
(g1%2)[1220]
(g0%2)[1228]
(g1%2)[1252]
(g0%2)[1254]
(g0%1)[1261]
(g0%1)[1263](g0%1)[1258]
(g0%1)[1270]
(g0%1)[1259]
(g0%1)[1264]
(g0%1)[1268]
(g0%2)[1232]
(g1%2)[1222]
(g0%2)[1218]
(g0%2)[1224]
(g1%2)[1243]
(g0%2)[1232]
(g0%2)[1248]
(g1%2)[1241]
(g0%2)[1251]
(g0%1)[1256]
(g0%1)[1257](g0%1)[1256]
(g0%1)[1262]
(g1%2)[1264]
(g1%2)[1254]
(g0%1)[1246]
(g0%2)[1252]
(g0%2)[1259]
(g1%2)[1258]
(g0%2)[1261]
(g0%1)[1264](g0%1)[1261](g0%1)[1259]
(g2%8)[1261]
(g0%2)[1207]
(g1%2)[1209]
(g1%2)[1230]
(g1%2)[1227](g1%2)[1226](g0%2)[1223](g0%2)[1222]
(g0%2)[1219]
(g0%2)[1223]
(g1%2)[1220]
(g0%2)[1222](g0%2)[1221](g1%2)[1218](g1%2)[1217]
(g1%2)[1212]
(g0%2)[1222]
(g0%2)[1215]
(g1%2)[1223]
(g1%2)[1226]
(g1%2)[1206](g1%2)[1205](g1%2)[1204](g0%2)[1203](g0%2)[1202](g0%2)[1201]
(g0%1)[1186]
(g0%1)[1180]
(g1%2)[1178]
(g1%2)[1211](g1%2)[1204](g1%2)[1203]
(g0%2)[1200]
(g1%2)[1161](g1%2)[1160](g0%2)[1157](g0%2)[1156]
(g1%2)[1162]
(g1%2)[1159]
(g0%2)[1156]
(g0%2)[1145]
(g1%2)[1129]
(g1%2)[1129]
(g0%1)[1074]
(g0%1)[1085]
(g0%1)[1093]
(g1%2)[1090]
(g1%2)[1087]
(g0%2)[1098]
(g0%1)[1105](g0%1)[1094]
(g0%1)[1105]
(g0%1)[1076](g0%1)[1075]
(g0%1)[1051]
(g1%2)[1048]
(g0%2)[1052]
(g0%2)[1043]
(g0%1)[1047]
(g1%2)[1044]
(g0%2)[1048]
(g0%1)[1043]
(g1%2)[1044]
(g1%2)[1030]
(g0%1)[1032]
(g0%2)[1037]
(g0%2)[1013]
(g0%2)[1006]
(g0%1)[1011]
(g0%1)[1001]
(g0%1)[1003]
(g0%1)[1012]
(g0%1)[1006](g0%1)[1003](g0%1)[1002]
(g0%1)[1007]
(g1%2)[1012]
(g0%1)[1029]
(g1%2)[1029]
(g0%1)[1020]
(g0%1)[1023]
(g0%1)[1016]
(g0%2)[1032]
(g0%1)[1039]
(g0%1)[1036]
(g0%1)[1044]
(g0%1)[1045]
(g0%1)[1036]
(g0%1)[1044]
(g1%2)[1032]
(g0%2)[1037]
(g1%2)[1036]
(g1%2)[1028]
(g0%1)[1017]
(g0%1)[1020](g0%1)[1015]
(g0%1)[1008]
(g0%1)[1019]
(g0%1)[1014]
(g0%1)[1010]
(g0%2)[1006]
(g1%2)[1001]
(g1%2)[1002]
(g0%2)[1013]
(g0%2)[1005]
(g0%1)[999]
(g0%2)[1009]
(g1%2)[1008]
(g0%1)[995]
(g0%2)[1014]
(g1%8)[1017]
(g0%1)[997]
(g1%2)[1001]
(g0%2)[1011]
(g1%2)[996]
(g1%2)[996]
(g1%2)[1017]
(g0%2)[1014]
(g0%2)[1028]
(g1%2)[1020]
(g0%1)[980]
(g0%1)[980]
(g1%2)[983]
(g1%2)[990](g1%2)[989](g0%2)[986](g0%2)[985]
(g0%2)[992]
(g0%2)[994]
(g0%1)[964]
(g0%1)[977]
(g1%2)[980]
(g0%1)[971](g0%1)[970](g0%1)[969](g0%1)[968](g0%1)[967]
(g0%2)[988]
(g0%2)[986]
(g0%1)[968]
(g0%1)[981]
(g0%1)[988]
(g0%1)[989]
(g0%1)[980]
(g1%2)[984]
(g0%2)[994]
(g0%2)[979]
(g0%1)[964]
(g0%2)[966]
(g0%2)[988]
(g0%1)[993]
(g0%1)[973]
(g0%1)[984]
(g0%1)[984]
(g0%1)[986](g0%1)[981]
(g0%2)[981]
(g1%2)[986]
(g0%2)[979]
(g1%2)[979]
(g0%2)[975]
(g1%2)[981]
(g0%2)[989]
(g1%2)[984]
(g1%2)[984]
(g1%2)[979]
(g0%1)[973]
(g0%1)[967](g0%1)[964](g0%1)[963]
(g0%1)[953]
(g0%1)[951](g0%1)[948](g0%1)[947](g0%1)[944]
(g0%1)[953]
(g1%2)[950]
(g0%2)[954]
(g0%1)[949]
(g1%2)[946]
(g0%2)[950]
(g0%1)[945]
(g0%1)[956]
(g0%1)[951](g0%1)[950](g0%1)[949](g0%1)[948](g0%1)[947](g0%1)[946]
(g0%1)[922]
(g0%1)[915]
(g1%2)[930]
(g1%2)[917]
(g0%1)[912]
(g0%1)[906]
(g0%1)[891]
(g1%2)[888]
(g0%2)[892]
(g0%1)[887]
(g0%1)[898]
(g0%1)[893](g0%1)[892](g0%1)[891](g0%1)[890](g0%1)[889](g0%1)[888]
(g0%1)[881]
(g0%1)[864]
(g1%2)[861]
(g0%2)[865]
(g1%2)[858]
(g0%1)[860]
(g1%2)[857]
(g0%2)[861]
(g0%1)[856]
(g1%2)[853]
(g0%2)[857]
(g0%1)[861]
(g1%2)[864]
(g0%2)[860]
(g0%1)[856]
(g1%2)[853]
(g0%2)[857]
(g0%1)[861]
(g0%1)[850]
(g0%1)[852]
(g0%1)[861]
(g0%1)[884]
(g0%1)[891]
(g1%2)[876]
(g1%2)[899]
(g1%2)[888]
(g1%2)[888]
(g1%2)[896]
(g0%1)[900]
(g0%2)[907]
(g1%2)[909](g1%2)[908](g0%2)[905](g0%2)[904]
(g0%2)[909]
(g1%2)[904]
(g1%2)[910]
(g0%2)[905]
(g0%2)[888]
(g0%2)[891](g0%2)[890](g1%2)[887](g1%2)[886]
(g0%2)[886]
(g1%2)[865]
(g0%1)[869]
(g0%1)[870]
(g0%2)[875]
(g0%2)[867](g0%2)[866](g1%2)[863](g1%2)[862]
(g1%2)[867]
(g0%2)[861]
(g1%2)[876]
(g0%2)[878]
(g1%2)[845]
(g0%1)[850]
(g1%2)[853]
(g0%2)[863]
(g0%2)[855]
(g0%1)[845]
(g0%2)[862]
(g1%2)[872]
(g0%2)[869]
(g0%2)[868]
(g1%2)[877](g1%2)[876](g0%2)[873](g0%2)[872]
(g0%2)[871](g0%2)[870](g1%2)[867](g1%2)[866]
(g0%1)[853]
(g0%1)[852]
(g0%1)[852]
(g0%1)[845]
(g0%1)[840](g0%1)[839](g0%1)[838](g0%1)[837](g0%1)[836]
(g0%1)[836]
(g0%1)[843]
(g0%1)[840]
(g0%1)[843]
(g1%2)[847]
(g0%1)[862]
(g0%1)[854]
(g0%1)[868]
(g0%1)[870](g0%1)[865]
(g0%2)[868]
(g1%2)[874]
(g0%2)[879]
(g1%2)[873]
(g1%2)[865]
(g0%1)[882]
(g0%2)[877]
(g1%2)[881](g1%2)[879]
(g0%2)[857]
(g0%2)[849]
(g0%1)[852]
(g0%1)[840]
(g0%1)[850](g0%1)[849](g0%1)[848](g0%1)[847](g0%1)[846](g0%1)[845]
(g1%2)[836]
(g0%2)[844]
(g1%2)[850]
(g0%2)[855]
(g0%2)[850]
(g0%2)[842]
(g0%2)[842]
(g0%1)[843]
(g1%2)[842]
(g0%2)[844]
(g0%1)[838]
(g0%2)[846]
(g1%2)[846]
(g0%1)[803]
(g1%2)[802]
(g0%2)[804]
(g0%1)[808]
(g0%2)[796]
(g1%2)[806]
(g0%2)[812]
(g0%1)[818]
(g0%1)[816]
(g0%1)[759]
(g0%1)[769]
(g0%1)[766]
(g0%1)[758]
(g1%2)[765]
(g1%2)[773]
(g0%2)[749]
(g0%1)[763]
(g0%1)[772](g0%1)[771](g0%1)[768]
(g1%2)[765]
(g1%2)[755]
(g0%1)[763](g0%1)[762](g0%1)[761](g0%1)[760](g0%1)[759](g0%1)[758]
(g0%1)[779]
(g1%2)[776]
(g0%1)[789](g0%1)[788](g0%1)[787](g0%1)[786](g0%1)[785]
(g1%2)[777]
(g0%1)[788]
(g0%1)[798]
(g1%2)[801]
(g1%2)[810]
(g0%1)[792](g0%1)[791](g0%1)[790](g0%1)[789](g0%1)[788]
(g0%1)[786]
(g1%2)[797]
(g0%1)[789]
(g0%1)[745]
(g0%1)[735]
(g0%1)[735]
(g0%1)[725]
(g0%1)[738]
(g0%1)[749]
(g0%1)[738]
(g0%1)[730]
(g1%2)[738]
(g0%1)[743]
(g0%2)[754]
(g0%2)[744]
(g0%2)[744]
(g0%1)[752]
(g0%1)[741]
(g0%1)[766]
(g0%1)[756]
(g0%1)[759]
(g0%1)[766]
(g0%1)[753]
(g0%1)[742]
(g0%1)[754]
(g1%2)[754]
(g0%1)[766]
(g0%1)[765]
(g0%1)[758]
(g1%2)[744]
(g0%1)[744]
(g0%1)[739]
(g0%1)[738]
(g1%2)[735]
(g1%2)[732]
(g1%2)[740]
(g0%1)[750]
(g0%1)[750]
(g1%2)[734]
(g1%2)[737](g1%2)[736](g0%2)[733](g0%2)[732]
(g1%2)[729]
(g0%2)[737]
(g0%1)[738](g0%1)[737](g0%1)[736](g0%1)[735]
(g1%2)[729]
(g1%2)[719]
(g0%2)[715]
(g1%2)[725]
(g0%2)[731]
(g1%2)[748](g1%2)[747](g1%2)[746](g0%2)[745](g0%2)[744](g0%2)[743]
(g0%1)[752]
(g1%2)[765]
(g0%2)[770]
(g0%1)[778]
(g1%2)[771]
(g0%1)[765]
(g1%2)[769]
(g1%2)[767]
(g1%2)[773]
(g0%2)[774]
(g0%2)[779]
(g0%1)[775]
(g0%1)[772](g0%1)[771]
(g0%8)[766]
(g0%1)[781]
(g0%1)[789]
(g0%1)[783]
(g0%1)[784](g0%1)[779](g0%1)[778](g0%1)[773]
(g1%2)[778]
(g0%2)[780]
(g1%2)[787]
(g0%2)[789]
(g1%2)[810]
(g0%2)[807]
(g0%2)[819](g0%2)[818]
(g1%2)[816]
(g0%1)[815]
(g0%1)[808]
(g1%2)[812]
(g0%2)[820]
(g1%2)[817]
(g0%1)[803](g0%1)[802](g0%1)[801](g0%1)[800](g0%1)[799]
(g1%2)[801]
(g0%1)[799]
(g0%1)[807]
(g1%2)[802]
(g1%2)[809](g1%2)[808](g0%2)[805](g0%2)[804]
(g0%2)[807]
(g1%2)[812]
(g0%2)[797]
(g0%2)[800]
(g1%2)[802]
(g1%2)[801](g1%2)[800](g1%2)[799](g0%2)[797](g0%2)[796]
(g1%2)[812]
(g0%1)[805]
(g0%1)[808](g0%1)[803]
(g0%1)[796]
(g0%1)[807]
(g0%1)[802]
(g0%1)[798]
(g0%1)[815]
(g0%1)[808]
(g0%1)[805]
(g0%1)[824](g0%1)[821]
(g1%2)[821]
(g0%2)[815]
(g0%1)[822]
(g0%1)[822]
(g0%1)[829]
(g0%1)[826]
(g1%2)[814]
(g1%2)[811]
(g1%2)[792]
(g2%8)[803]
(g0%1)[771]
(g1%2)[774]
(g1%2)[774]
(g1%2)[784]
(g0%1)[773]
(g0%1)[776]
(g0%2)[781]
(g1%2)[780]
(g1%2)[777]
(g0%1)[781](g0%1)[780]
(g0%2)[775]
(g0%1)[789]
(g0%1)[797]
(g0%1)[812]
(g0%1)[813]
(g0%1)[821]
(g0%1)[826](g0%1)[815]
(g0%1)[832]
(g0%1)[838]
(g0%1)[840](g0%1)[835]
(g1%2)[840]
(g0%2)[835]
(g1%2)[855]
(g0%2)[851]
(g0%2)[839]
(g0%2)[843]
(g0%1)[845]
(g1%2)[841]
(g1%2)[849]
(g1%2)[846]
(g1%2)[836]
(g0%1)[825](g0%1)[820]
(g0%1)[828](g0%1)[817]
(g1%2)[830]
(g1%2)[849]
(g0%1)[841]
(g1%2)[846]
(g0%1)[849]
(g0%1)[852]
(g0%1)[862]
(g0%1)[863]
(g0%1)[854]
(g1%2)[851]
(g0%2)[831](g1%2)[822]
(g0%1)[838]
(g0%1)[828]
(g0%1)[818]
(g0%1)[829]
(g1%2)[814]
(g0%1)[793]
(g0%1)[794]
(g0%1)[794](g0%1)[793](g0%1)[792](g0%1)[791]
(g0%1)[797](g0%1)[796]
(g1%2)[773]
(g0%2)[782](g0%2)[781](g1%2)[778](g1%2)[777]
(g1%2)[785]
(g0%2)[783]
(g0%2)[771]
(g0%1)[778]
(g0%1)[771]
(g1%2)[783]
(g0%2)[784]
(g0%2)[778]
(g0%1)[791]
(g1%2)[787]
(g1%2)[783]
(g0%1)[791]
(g0%1)[800](g0%1)[799](g0%1)[798](g0%1)[797](g0%1)[796](g0%1)[795]
(g1%2)[784]
(g0%2)[793](g0%2)[792](g1%2)[789](g1%2)[788]
(g0%2)[794]
(g0%2)[791]
(g1%2)[784]
(g0%1)[762]
(g1%2)[759]
(g1%2)[750]
(g0%2)[757]
(g0%1)[763]
(g0%1)[748]
(g0%1)[735]
(g0%1)[733]
(g0%1)[740]
(g0%1)[740]
(g0%1)[740]
(g1%2)[729]
(g1%2)[732]
(g0%2)[733]
(g1%2)[751]
(g1%2)[753]
(g1%2)[750](g1%2)[749](g1%2)[748](g0%2)[747](g0%2)[746](g0%2)[745]
(g1%2)[680]
(g0%1)[668]
(g1%2)[646]
(g1%2)[648]
(g0%1)[650]
(g1%2)[644]
(g0%2)[630]
(g1%2)[642]
(g1%2)[625]
(g1%2)[613]
(g1%2)[607]
(g0%2)[602]
(g1%2)[623]
(g0%1)[623]
(g0%1)[624]
(g0%1)[617]
(g0%1)[607]
(g1%2)[611]
(g0%1)[630]
(g0%2)[621]
(g0%2)[603]
(g0%2)[619]
(g0%1)[625]
(g1%2)[637]
(g1%2)[627]
(g1%2)[628]
(g1%2)[632]
(g0%1)[601]
(g1%2)[601]
(g1%2)[582]
(g1%2)[572]
(g0%2)[576]
(g1%2)[578]
(g0%1)[574]
(g0%1)[586]
(g0%1)[577]
(g0%1)[568]
(g1%2)[572]
(g0%2)[580]
(g1%2)[573]
(g0%1)[556]
(g0%1)[556]
(g1%2)[557]
(g1%2)[559]
(g1%2)[546]
(g0%1)[547](g0%1)[544](g0%1)[543]
(g1%2)[543]
(g0%2)[549]
(g1%2)[567]
(g0%1)[587](g0%1)[584]
(g0%1)[597]
(g1%2)[593]
(g1%2)[593]
(g1%2)[610]
(g1%2)[594]
(g1%2)[599]
(g0%2)[588]
(g1%2)[586]
(g1%2)[591]
(g1%2)[589]
(g1%2)[588]
(g1%2)[592]
(g0%1)[584](g0%1)[583](g0%1)[576](g0%1)[575]
(g0%1)[562]
(g1%2)[562]
(g0%2)[564]
(g0%1)[568]
(g0%1)[569](g0%1)[564]
(g0%1)[560]
(g0%2)[578]
(g0%1)[589]
(g0%1)[597]
(g0%1)[591]
(g1%2)[584]
(g0%1)[571]
(g1%2)[575]
(g1%2)[573]
(g1%2)[580]
(g0%1)[570]
(g2%8)[539]
(g0%1)[543]
(g0%1)[552]
(g0%1)[561](g0%1)[560](g0%1)[557]
(g1%2)[554]
(g1%2)[550]
(g1%2)[545]
(g0%2)[559]
(g0%2)[558]
(g0%2)[550]
(g0%1)[558]
(g0%1)[580]
(g1%2)[584]
(g1%2)[591](g1%2)[590](g0%2)[587](g0%2)[586]
(g1%2)[576]
(g0%2)[586]
(g0%1)[575]
(g0%1)[573]
(g0%1)[568]
(g1%2)[572]
(g0%1)[563](g0%1)[562](g0%1)[561](g0%1)[560](g0%1)[559]
(g0%1)[556]
(g0%2)[561]
(g0%1)[570](g0%1)[569]
(g1%2)[575]
(g0%1)[583]
(g2%8)[575]
(g0%1)[604](g0%1)[603](g0%1)[600](g0%1)[593]
(g0%2)[601](g0%2)[600](g0%2)[599](g1%2)[598](g1%2)[597](g1%2)[596]
(g0%2)[639]
(g0%1)[670]
(g1%2)[673]
(g0%1)[692](g0%1)[691](g0%1)[689]
(g1%2)[681]
(g0%2)[678]
(g0%2)[661]
(g0%1)[657]
(g0%1)[652]
(g0%1)[652]
(g0%1)[647](g0%1)[644](g0%1)[643]
(g0%1)[652]
(g1%2)[649]
(g1%2)[674]
(g1%2)[665]
(g1%2)[659]
(g1%2)[652]
(g1%2)[651]
(g0%2)[642]
(g0%8)[642]
(g0%1)[650]
(g0%1)[658]
(g0%1)[660]
(g1%2)[656]
(g0%1)[662]
(g0%1)[670](g0%1)[669](g0%1)[668](g0%1)[667](g0%1)[666]
(g0%1)[663]
(g1%2)[649]
(g0%1)[663]
(g0%1)[669]
(g0%1)[662](g0%1)[659](g0%1)[658](g0%1)[655]
(g0%1)[675]
(g1%2)[672]
(g0%2)[664]
(g0%2)[665]
(g1%2)[678]
(g1%2)[678]
(g0%2)[683]
(g0%2)[683]
(g0%2)[667]
(g0%2)[658](g0%2)[657]
(g0%1)[653]
(g0%1)[664]
(g0%1)[640]
(g0%1)[630]
(g0%1)[630]
(g1%2)[631]
(g1%2)[625]
(g0%2)[630]
(g0%1)[626](g0%1)[625]
(g0%1)[613]
(g0%1)[637]
(g0%1)[640](g0%1)[635]
(g1%2)[640]
(g0%2)[639](g0%2)[638](g1%2)[635](g1%2)[634]
(g1%2)[644]
(g0%2)[646](g0%2)[645](g1%2)[642](g1%2)[641]
(g0%2)[649]
(g1%2)[632]
(g1%2)[628]
(g0%1)[652]
(g1%2)[649]
(g1%2)[657]
(g1%2)[653]
(g1%2)[660]
(g0%1)[645]
(g0%1)[645]
(g1%2)[644]
(g0%1)[639]
(g1%2)[650]
(g1%2)[654]
(g1%2)[663]
(g1%2)[646](g1%2)[645](g1%2)[644]
(g1%2)[652]
(g0%2)[656]
(g1%2)[656]
(g0%1)[641]
(g0%1)[643]
(g0%1)[642]
(g1%2)[645]
(g0%2)[641]
(g0%1)[671]
(g1%2)[671]
(g1%2)[656]
(g0%2)[661]
(g0%2)[664]
(g0%2)[671]
(g0%1)[662]
(g0%1)[662]
(g0%1)[656](g0%1)[653](g0%1)[652]
(g1%2)[659]
(g0%1)[661]
(g0%1)[662]
(g0%2)[667]
(g1%2)[666]
(g1%2)[648]
(g0%1)[646]
(g1%2)[657]
(g0%1)[653]
(g1%2)[638]
(g0%2)[645]
(g1%2)[656]
(g0%2)[658]
(g0%1)[646]
(g0%1)[649](g0%1)[644]
(g0%1)[637]
(g0%1)[640]
(g0%1)[648]
(g0%1)[642]
(g1%2)[638]
(g1%2)[630]
(g1%2)[643]
(g0%1)[648](g0%1)[644]
(g0%1)[638]
(g0%1)[640](g0%1)[635]
(g1%2)[640]
(g0%2)[639](g0%2)[638](g1%2)[635](g1%2)[634]
(g1%2)[644]
(g0%2)[646](g0%2)[645](g1%2)[642](g1%2)[641]
(g0%2)[649]
(g1%2)[662](g1%2)[661]
(g0%1)[668]
(g0%1)[666]
(g1%2)[669]
(g0%2)[677]
(g0%2)[681]
(g1%2)[662]
(g0%2)[665]
(g0%2)[663]
(g1%2)[675](g1%2)[674](g0%2)[673](g0%2)[672]
(g1%2)[674]
(g0%1)[655]
(g1%2)[655]
(g0%2)[647](g0%2)[646](g1%2)[643](g1%2)[642]
(g0%2)[646]
(g1%2)[632]
(g1%2)[628]
(g0%2)[642]
(g0%1)[652]
(g0%1)[663]
(g0%1)[650]
(g0%1)[659]
(g0%1)[653](g0%1)[650](g0%1)[649]
(g0%1)[654]
(g1%2)[649]
(g0%2)[663]
(g1%2)[644]
(g1%2)[649]
(g1%2)[649]
(g0%1)[643]
(g0%1)[643]
(g1%2)[647]
(g1%2)[651]
(g1%2)[650]
(g1%2)[653]
(g0%2)[632]
(g0%1)[627]
(g0%1)[634]
(g0%1)[620]
(g0%1)[613]
(g0%1)[621]
(g0%1)[613]
(g1%2)[611]
(g1%2)[614]
(g1%2)[620]
(g0%2)[610]
(g1%2)[601]
(g0%2)[599]
(g0%1)[605]
(g1%2)[620]
(g0%1)[616](g0%1)[615](g0%1)[614](g0%1)[613](g0%1)[612](g0%1)[611]
(g0%1)[632]
(g1%2)[644]
(g0%1)[634]
(g0%1)[635]
(g0%1)[635]
(g0%1)[637](g0%1)[632]
(g0%1)[645](g0%1)[638]
(g1%2)[629]
(g1%2)[621]
(g0%1)[661]
(g1%2)[664]
(g0%2)[665](g0%2)[664](g1%2)[661](g1%2)[660]
(g1%2)[665]
(g0%2)[670]
(g1%2)[670]
(g0%1)[675]
(g0%1)[682]
(g0%1)[676]
(g1%2)[674]
(g0%1)[685](g0%1)[678](g0%1)[675](g0%1)[674]
(g0%1)[688]
(g0%2)[702]
(g0%2)[703]
(g1%2)[690]
(g0%1)[682]
(g0%1)[692](g0%1)[691](g0%1)[688]
(g1%2)[685]
(g1%2)[690]
(g1%2)[691]
(g0%2)[692]
(g1%2)[685]
(g1%2)[688]
(g0%1)[720]
(g1%2)[717]
(g0%2)[721]
(g0%1)[716]
(g1%2)[713]
(g0%2)[717]
(g0%1)[712]
(g1%2)[709]
(g0%2)[713]
(g0%1)[708]
(g1%2)[705]
(g0%2)[709]
(g0%1)[704]
(g1%2)[708]
(g0%2)[718]
(g0%2)[710]
(g0%1)[700]
(g0%1)[721]
(g0%1)[718]
(g0%1)[710]
(g0%1)[698]
(g1%2)[695]
(g1%2)[686]
(g1%2)[677]
(g0%1)[657]
(g1%2)[657]
(g0%1)[653]
(g1%2)[671]
(g1%2)[662]
(g0%1)[662]
(g0%1)[671]
(g1%2)[667]
(g0%2)[661]
(g0%1)[652]
(g0%1)[670]
(g0%1)[675](g0%1)[668]
(g0%1)[661]
(g1%2)[660]
(g1%2)[668](g1%2)[667]
(g1%2)[660]
(g1%2)[658]
(g0%1)[656]
(g0%1)[651](g0%1)[648](g0%1)[647]
(g0%1)[647]
(g1%2)[651]
(g0%1)[641]
(g1%2)[643]
(g1%2)[659]
(g0%1)[663]
(g0%1)[674]
(g0%1)[661]
(g0%1)[649]
(g0%1)[655]
(g0%1)[639]
(g0%1)[635]
(g0%1)[642]
(g1%2)[638]
(g1%2)[630]
(g1%2)[643]
(g0%1)[651](g0%1)[648](g0%1)[647](g0%1)[644]
(g0%1)[638]
(g0%1)[640](g0%1)[635]
(g1%2)[640]
(g0%2)[639](g0%2)[638](g1%2)[635](g1%2)[634]
(g1%2)[644]
(g0%2)[646](g0%2)[645](g1%2)[642](g1%2)[641]
(g0%2)[649]
(g1%2)[632]
(g1%2)[628]
(g0%1)[662]
(g0%1)[664](g0%1)[659]
(g1%2)[664]
(g0%2)[665]
(g1%2)[657]
(g1%2)[657]
(g0%1)[672]
(g0%1)[671]
(g1%2)[666]
(g0%2)[666]
(g0%2)[657]
(g0%2)[677]
(g0%2)[671]
(g1%2)[683]
(g0%2)[693]
(g0%1)[702]
(g1%2)[690]
(g0%2)[699](g0%2)[698](g1%2)[695](g1%2)[694]
(g1%2)[689]
(g0%2)[697]
(g0%1)[687]
(g0%1)[696]
(g0%1)[703]
(g0%1)[705]
(g1%2)[694]
(g0%1)[686]
(g0%2)[707]
(g0%2)[714]
(g1%2)[696]
(g0%1)[706]
(g0%1)[700]
(g1%2)[686]
(g0%2)[692]
(g0%1)[695]
(g0%1)[706]
(g0%1)[708](g0%1)[703]
(g1%2)[708]
(g0%2)[708]
(g0%2)[695]
(g0%2)[704]
(g0%1)[698]
(g0%1)[726]
(g0%1)[719]
(g0%1)[713](g0%1)[710](g0%1)[709]
(g0%1)[718]
(g1%2)[725]
(g0%2)[724]
(g0%1)[727]
(g0%1)[721]
(g1%2)[715]
(g0%2)[720]
(g1%2)[713]
(g1%2)[722]
(g1%2)[728]
(g0%2)[730](g0%2)[729](g1%2)[726](g1%2)[725]
(g1%2)[727]
(g1%2)[724](g1%2)[723](g0%2)[720](g0%2)[719]
(g1%2)[724]
(g0%2)[721]
(g1%2)[723]
(g0%2)[716]
(g0%2)[719]
(g0%2)[733]
(g1%2)[727]
(g0%2)[713]
(g0%1)[715]
(g1%2)[719]
(g1%2)[728]
(g1%2)[731]
(g0%2)[721]
(g2%8)[717]
(g0%2)[724]
(g0%1)[741]
(g0%1)[733]
(g1%2)[748]
(g1%2)[738](g1%2)[737](g0%2)[734](g0%2)[733]
(g0%2)[738]
(g1%2)[733]
(g1%2)[739]
(g0%2)[734]
(g0%2)[720](g0%2)[719](g1%2)[716](g1%2)[715]
(g0%2)[715]
(g0%1)[712]
(g0%1)[702]
(g1%2)[703]
(g1%2)[688]
(g0%2)[689]
(g1%2)[702]
(g1%2)[698]
(g1%2)[692]
(g1%2)[690]
(g0%2)[687]
(g0%2)[696]
(g0%1)[698]
(g0%1)[699]
(g0%2)[704]
(g0%2)[696](g0%2)[695](g1%2)[692](g1%2)[691]
(g1%2)[696]
(g0%2)[690]
(g1%2)[705]
(g0%2)[707]
(g0%1)[679]
(g0%1)[647]
(g1%2)[648]
(g0%1)[653]
(g1%2)[647]
(g1%2)[633]
(g0%2)[641]
(g0%1)[655]
(g1%2)[658]
(g0%2)[666]
(g0%2)[663]
(g0%1)[669]
(g0%1)[672]
(g0%1)[662]
(g0%1)[672](g0%1)[671](g0%1)[670](g0%1)[669](g0%1)[668](g0%1)[667]
(g0%1)[675]
(g1%2)[676]
(g0%2)[656]
(g0%1)[645]
(g0%1)[646]
(g0%1)[654]
(g0%1)[656]
(g1%2)[637]
(g0%2)[652]
(g1%2)[636]
(g0%2)[642]
(g1%2)[639]
(g1%2)[653]
(g0%1)[657]
(g0%1)[652](g0%1)[649](g0%1)[648]
(g0%1)[648]
(g0%1)[642]
(g0%1)[650]
(g0%1)[649]
(g0%1)[627]
(g0%1)[630](g0%1)[625]
(g0%1)[637]
(g0%1)[634]
(g0%1)[626]
(g0%2)[610](g0%2)[603]
(g0%1)[615]
(g0%1)[614]
(g0%1)[614]
(g1%2)[614]
(g1%2)[614]
(g0%2)[621]
(g1%2)[617]
(g0%2)[603]
(g1%2)[614]
(g0%1)[610](g0%1)[609](g0%1)[608](g0%1)[607](g0%1)[606](g0%1)[605]
(g0%1)[632]
(g1%2)[633]
(g0%2)[621]
(g0%1)[629]
(g0%1)[631]
(g0%1)[643](g0%1)[635]
(g1%2)[661]
(g1%2)[671]
(g0%1)[670]
(g0%1)[669]
(g1%2)[676]
(g0%1)[671]
(g0%1)[686]
(g0%1)[695]
(g0%1)[697](g0%1)[692]
(g1%2)[697]
(g0%2)[696](g0%2)[695](g1%2)[692](g1%2)[691]
(g1%2)[699]
(g1%2)[696](g1%2)[695](g1%2)[694](g0%2)[693](g0%2)[692](g0%2)[691]
(g1%2)[691]
(g0%2)[693]
(g1%2)[699]
(g1%2)[693]
(g0%1)[684]
(g0%1)[673]
(g1%2)[673]
(g0%2)[685]
(g0%1)[699]
(g0%1)[701](g0%1)[696]
(g1%2)[698]
(g1%2)[703]
(g0%2)[708]
(g1%2)[702]
(g1%2)[694]
(g0%1)[711]
(g0%2)[706]
(g1%2)[710](g1%2)[708]
(g1%2)[671]
(g0%2)[671]
(g0%2)[661]
(g0%1)[668]
(g0%1)[662]
(g0%1)[658]
(g1%2)[661]
(g1%2)[661]
(g0%1)[672]
(g0%1)[675](g0%1)[670]
(g0%1)[677]
(g1%2)[672]
(g1%2)[672]
(g0%2)[681]
(g0%2)[678]
(g0%2)[686]
(g0%1)[685](g0%1)[681]
(g0%1)[677]
(g0%1)[680](g0%1)[675]
(g1%2)[677]
(g0%2)[680]
(g0%2)[684]
(g0%1)[682]
(g0%1)[688]
(g0%1)[677]
(g1%2)[671]
(g0%2)[671]
(g0%2)[672]
(g0%2)[671]
(g0%1)[645]
(g0%1)[645]
(g0%1)[655](g0%1)[654](g0%1)[651]
(g1%2)[648]
(g1%2)[653]
(g1%2)[659]
(g1%2)[660]
(g1%2)[655]
(g1%2)[668]
(g1%2)[664]
(g0%1)[656]
(g0%1)[664]
(g0%2)[645](g0%2)[644](g0%2)[643](g1%2)[642](g1%2)[641](g1%2)[640]
(g1%2)[647]
(g1%2)[651]
(g1%2)[657]
(g0%1)[668]
(g0%1)[670](g0%1)[665]
(g1%2)[670]
(g1%2)[655]
(g0%2)[660]
(g0%1)[664]
(g0%2)[670](g0%2)[669](g1%2)[666]
(g0%2)[673]
(g0%1)[681](g0%1)[680]
(g0%1)[692]
(g0%1)[684]
(g0%1)[684]
(g1%2)[681]
(g0%2)[679](g0%2)[678](g1%2)[675](g1%2)[674]
(g0%2)[676]
(g1%2)[674]
(g1%2)[685]
(g0%1)[696]
(g0%2)[683]
(g1%2)[683]
(g0%1)[694]
(g0%1)[672]
(g1%2)[673]
(g0%1)[683](g0%1)[676]
(g0%2)[661]
(g0%1)[641]
(g1%2)[638]
(g0%1)[625](g0%1)[622](g0%1)[620]
(g1%2)[630]
(g1%2)[643]
(g0%1)[651](g0%1)[648](g0%1)[647](g0%1)[644]
(g0%1)[649]
(g0%1)[638]
(g0%1)[640](g0%1)[635]
(g1%2)[640]
(g0%2)[639](g0%2)[638](g1%2)[635](g1%2)[634]
(g1%2)[644]
(g0%2)[646](g0%2)[645](g1%2)[642](g1%2)[641]
(g0%2)[649]
(g1%2)[632]
(g1%2)[628]
(g0%1)[653]
(g0%1)[661]
(g1%2)[653]
(g0%2)[638]
(g1%2)[629]
(g0%2)[627]
(g1%2)[631](g1%2)[630]
(g0%1)[626]
(g0%1)[645](g0%1)[644](g0%1)[643](g0%1)[642](g0%1)[641]
(g1%2)[667]
(g1%2)[670]
(g0%2)[657]
(g0%2)[654]
(g0%2)[662]
(g0%2)[672]
(g1%2)[665]
(g0%1)[663](g0%1)[660]
(g0%1)[637]
(g0%1)[634]
(g1%2)[637]
(g0%1)[621]
(g1%2)[642]
(g0%1)[653]
(g0%1)[663](g0%1)[662]
(g1%2)[665]
(g0%2)[677]
(g0%2)[668]
(g0%1)[658]
(g0%1)[676]
(g1%2)[676]
(g1%2)[691]
(g0%2)[686]
(g1%2)[678]
(g0%2)[677](g0%2)[676]
(g0%2)[668](g0%2)[661]
(g0%2)[684]
(g0%1)[688]
(g0%1)[688]
(g0%1)[688]
(g0%1)[690](g0%1)[685]
(g1%2)[690]
(g0%2)[685]
(g0%2)[681]
(g0%1)[648]
(g1%2)[648]
(g0%2)[649]
(g0%2)[660]
(g0%2)[655]
(g0%2)[656](g0%2)[655](g0%2)[654](g1%2)[652](g1%2)[651](g1%2)[650]
(g0%1)[654]
(g0%1)[654]
(g0%1)[656](g0%1)[651]
(g1%2)[656]
(g1%2)[649](g1%2)[648](g0%2)[645](g0%2)[644]
(g1%2)[644]
(g0%2)[647]
(g1%2)[644]
(g0%1)[641]
(g0%1)[603]
(g1%2)[604]
(g0%1)[609]
(g1%2)[603]
(g1%2)[604]
(g0%1)[576](g0%1)[570]
(g1%2)[576]
(g0%1)[571]
(g0%1)[562]
(g1%2)[567]
(g0%1)[559]
(g0%1)[564]
(g0%1)[582]
(g0%2)[553]
(g0%1)[555]
(g0%1)[557](g0%1)[552]
(g0%1)[545]
(g0%1)[547]
(g0%1)[552]
(g0%1)[543]
(g1%2)[547]
(g1%2)[539]
(g0%2)[551]
(g1%2)[544]
(g0%2)[536]
(g0%1)[553]
(g0%1)[570]
(g0%1)[583]
(g0%1)[591]
(g0%1)[568]
(g0%1)[564]
(g0%1)[571]
(g0%1)[571]
(g0%1)[559]
(g0%1)[553]
(g0%1)[553]
(g0%1)[556](g0%1)[551]
(g0%1)[563]
(g0%1)[552]
(g0%1)[557]
(g0%1)[561]
(g0%1)[569]
(g1%2)[581]
(g1%2)[590]
(g1%2)[590]
(g1%2)[591]
(g1%2)[581]
(g1%2)[579]
(g1%2)[572]
(g0%1)[579]
(g0%1)[568]
(g1%8)[554]
(g0%1)[571]
(g1%2)[572]
(g1%2)[557]
(g0%2)[569]
(g0%2)[574]
(g1%2)[575]
(g0%1)[575]
(g1%2)[571]
(g0%2)[559](g0%2)[558](g1%2)[557](g1%2)[556]
(g0%2)[554]
(g1%2)[570](g1%2)[569]
(g0%1)[574]
(g1%2)[582]
(g1%2)[571]
(g1%2)[590]
(g0%2)[572]
(g0%2)[591]
(g0%1)[581](g0%1)[580]
(g0%1)[578]
(g0%1)[570]
(g0%1)[567]
(g0%1)[573]
(g1%2)[585]
(g1%2)[584]
(g0%1)[585]
(g0%1)[584]
(g0%1)[587](g0%1)[586](g0%1)[585](g0%1)[584]
(g0%1)[582](g0%1)[581]
(g0%1)[591]
(g0%1)[603]
(g0%1)[604]
(g0%1)[604]
(g0%1)[611]
(g0%1)[605]
(g1%2)[598]
(g0%1)[618](g0%1)[617](g0%1)[614](g0%1)[607]
(g0%2)[615](g0%2)[614](g0%2)[613](g1%2)[612](g1%2)[611](g1%2)[610]
(g0%1)[615]
(g1%2)[611]
(g0%2)[604]
(g0%2)[623]
(g0%1)[621]
(g0%1)[606]
(g0%8)[582]
(g0%1)[590]
(g0%1)[596](g0%1)[595](g0%1)[594](g0%1)[593](g0%1)[592](g0%1)[591]
(g0%1)[607]
(g1%2)[606]
(g1%2)[619](g1%2)[618](g0%2)[615](g0%2)[614]
(g0%2)[614]
(g0%2)[618]
(g0%2)[616](g0%2)[607]
(g1%2)[601]
(g0%2)[599]
(g0%1)[607]
(g1%2)[598]
(g1%2)[605]
(g0%1)[589]
(g0%1)[624]
(g0%1)[613]
(g0%1)[626]
(g0%1)[626]
(g1%2)[629]
(g0%2)[625]
(g0%1)[630]
(g1%2)[633]
(g0%2)[629]
(g0%1)[638]
(g0%1)[646]
(g0%1)[645]
(g1%2)[648]
(g0%1)[645](g0%1)[642](g0%1)[641]
(g0%1)[650]
(g0%2)[636]
(g0%1)[634]
(g1%2)[637]
(g0%2)[633]
(g0%1)[661]
(g1%8)[654]
(g1%2)[697]
(g1%2)[723]
(g0%1)[730](g0%1)[726]
(g0%1)[726]
(g0%1)[729](g0%1)[724](g0%1)[718]
(g0%1)[726](g0%1)[725](g0%1)[724](g0%1)[723](g0%1)[722]
(g0%1)[738]
(g1%2)[737]
(g1%2)[742]
(g0%1)[747]
(g0%1)[733]
(g0%1)[732]
(g0%1)[732]
(g1%2)[737]
(g0%1)[728]
(g1%2)[733]
(g1%2)[736]
(g0%2)[742]
(g1%2)[732]
(g1%2)[748]
(g0%1)[755]
(g1%2)[751]
(g1%2)[755](g1%2)[754](g0%2)[751](g0%2)[750]
(g0%2)[743]
(g0%1)[757]
(g0%1)[760](g0%1)[755]
(g1%2)[751]
(g1%2)[756]
(g1%2)[746]
(g0%2)[740]
(g0%2)[751]
(g0%1)[752]
(g0%2)[761]
(g0%2)[760]
(g1%2)[767]
(g0%1)[790](g0%1)[788](g0%1)[785]
(g1%2)[814](g1%2)[813]
(g1%2)[827]
(g0%1)[820]
(g1%2)[821]
(g1%2)[821]
(g0%2)[820]
(g0%1)[817]
(g0%1)[819]
(g0%1)[818]
(g1%2)[817]
(g1%2)[799]
(g0%1)[800]
(g1%2)[796]
(g0%2)[792]
(g0%2)[782]
(g0%1)[792](g0%1)[791](g0%1)[790](g0%1)[789](g0%1)[788](g0%1)[787]
(g0%1)[787]
(g0%1)[801]
(g1%2)[791]
(g1%2)[798]
(g0%2)[791]
(g0%2)[807]
(g0%1)[797]
(g0%1)[789]
(g1%2)[797]
(g1%2)[807]
(g1%2)[803]
(g1%2)[818]
(g1%2)[821]
(g0%2)[815]
(g1%2)[806]
(g1%2)[826]
(g0%2)[828]
(g0%2)[837]
(g2%8)[831]
(g0%1)[838](g0%1)[837](g0%1)[836](g0%1)[835](g0%1)[834](g0%1)[833]
(g0%2)[843]
(g1%2)[841]
(g0%2)[857]
(g0%2)[871]
(g0%2)[869]
(g0%1)[873]
(g0%1)[867]
(g0%1)[883](g0%1)[872]
(g1%2)[894]
(g0%1)[901](g0%1)[897]
(g0%1)[897]
(g0%1)[900](g0%1)[895](g0%1)[889]
(g0%1)[897](g0%1)[896](g0%1)[895](g0%1)[894](g0%1)[893]
(g0%1)[882]
(g0%1)[889]
(g0%1)[889]
(g1%2)[874]
(g0%2)[881]
(g0%1)[884]
(g1%2)[883]
(g0%2)[878]
(g0%2)[882]
(g0%2)[880]
(g0%2)[889]
(g0%2)[887]
(g0%2)[871]
(g0%1)[871]
(g0%1)[857]
(g0%1)[852]
(g0%1)[842]
(g0%1)[845]
(g0%1)[856]
(g0%1)[870]
(g0%1)[870]
(g0%1)[862]
(g1%2)[870]
(g1%2)[882]
(g0%2)[880]
(g0%1)[876]
(g1%2)[879]
(g0%1)[864]
(g0%2)[858]
(g0%1)[854]
(g0%1)[854]
(g0%1)[848](g0%1)[845](g0%1)[844]
(g0%2)[870]
(g0%2)[870](g0%2)[869]
(g0%2)[898]
(g0%1)[900]
(g0%1)[907]
(g0%1)[904]
(g1%2)[892]
(g1%2)[889]
(g1%2)[870]
(g0%1)[861]
(g1%2)[848]
(g0%2)[853]
(g0%1)[853]
(g0%1)[850]
(g0%1)[848]
(g1%2)[844]
(g0%1)[806]
(g1%2)[809]
(g0%2)[819]
(g0%2)[801]
(g0%2)[811]
(g1%2)[809]
(g0%2)[811]
(g1%2)[813]
(g1%2)[813]
(g1%2)[812]
(g0%2)[807]
(g0%1)[799]
(g1%2)[808]
(g1%2)[801]
(g0%1)[817]
(g0%1)[822]
(g1%2)[826]
(g0%2)[823]
(g0%1)[810]
(g0%1)[810]
(g1%2)[811]
(g0%2)[813]
(g1%2)[824]
(g0%2)[840]
(g0%1)[864]
(g1%2)[854]
(g0%2)[859]
(g0%2)[859]
(g0%2)[791]
(g0%2)[806]
(g0%1)[799]
(g0%1)[799]
(g1%2)[803]
(g0%2)[813]
(g1%2)[808]
(g0%1)[787]
(g1%2)[801]
(g0%1)[788]
(g1%2)[792]
(g0%2)[802]
(g0%2)[794]
(g0%2)[799]
(g1%2)[787]
(g0%1)[776]
(g1%2)[781]
(g0%1)[795](g0%1)[794](g0%1)[791](g0%1)[784]
(g0%2)[766](g1%2)[757]
(g1%2)[757]
(g1%2)[738]
(g1%2)[736]
(g0%1)[721]
(g0%1)[725]
(g1%2)[725]
(g0%2)[732](g0%2)[731](g1%2)[728](g1%2)[727]
(g1%2)[730]
(g0%2)[725]
(g0%1)[720]
(g0%2)[724]
(g1%2)[733]
(g0%8)[742]
(g0%1)[727]
(g0%1)[729](g0%1)[724]
(g1%2)[724]
(g0%2)[729]
(g1%2)[736]
(g1%2)[728]
(g0%2)[727]
(g0%2)[739]
(g0%2)[746]
(g1%2)[752]
(g1%2)[747]
(g0%1)[727]
(g0%1)[728]
(g0%1)[728]
(g1%2)[728]
(g1%2)[726](g1%2)[725](g0%2)[722](g0%2)[721]
(g0%2)[728]
(g1%2)[731]
(g0%2)[726]
(g0%2)[731]
(g1%2)[734]
(g0%1)[725]
(g0%1)[721]
(g1%2)[735]
(g1%2)[748]
(g1%2)[744]
(g0%2)[760]
(g0%2)[759]
(g0%1)[766]
(g1%2)[765]
(g1%2)[771]
(g0%2)[778]
(g0%2)[773]
(g1%2)[780]
(g0%2)[769]
(g0%1)[773]
(g0%1)[776](g0%1)[771]
(g1%2)[776]
(g0%2)[763]
(g1%2)[774]
(g0%2)[760]
(g0%1)[768]
(g0%1)[763](g0%1)[760](g0%1)[759]
(g0%1)[764]
(g0%1)[768]
(g0%1)[770]
(g0%1)[763]
(g0%1)[757]
(g0%1)[771]
(g1%2)[780]
(g0%2)[769]
(g0%2)[785]
(g0%2)[772]
(g1%2)[769]
(g1%2)[768]
(g1%2)[758]
(g0%2)[764]
(g1%2)[761]
(g0%2)[779]
(g0%1)[804]
(g1%2)[807]
(g0%2)[812]
(g0%1)[803]
(g0%1)[801]
(g1%2)[804]
(g0%1)[789]
(g1%2)[807]
(g1%2)[805]
(g0%2)[805]
(g1%2)[788]
(g1%2)[784]
(g1%2)[780](g1%2)[779](g0%2)[776](g0%2)[775]
(g1%2)[787]
(g1%2)[792]
(g0%2)[795]
(g0%2)[820]
(g0%2)[826]
(g0%1)[838](g0%1)[837](g0%1)[836](g0%1)[835](g0%1)[834]
(g0%1)[828]
(g1%2)[831]
(g1%2)[834]
(g0%1)[842]
(g0%1)[815]
(g0%2)[827]
(g0%1)[829]
(g1%2)[806]
(g1%2)[818]
(g0%1)[821]
(g0%1)[821]
(g1%2)[822]
(g0%1)[827]
(g0%2)[812]
(g0%2)[791](g1%2)[790](g1%2)[789](g1%2)[788]
(g0%1)[768]
(g0%1)[777](g0%1)[776](g0%1)[773]
(g0%1)[760]
(g0%1)[757]
(g0%1)[760]
(g0%1)[760]
(g0%1)[753]
(g0%1)[754]
(g1%2)[744]
(g0%2)[752]
(g0%1)[757]
(g0%1)[751]
(g0%1)[752](g0%1)[749](g0%1)[748](g0%1)[745]
(g2%8)[761]
(g1%2)[773]
(g0%2)[775]
(g1%2)[782]
(g1%2)[773]
(g0%2)[779]
(g0%2)[782]
(g1%8)[778]
(g1%2)[771]
(g0%2)[773](g0%2)[772](g1%2)[769](g1%2)[768]
(g1%2)[775]
(g0%2)[775]
(g0%2)[793]
(g0%1)[832](g0%1)[831](g0%1)[830](g0%1)[829]
(g0%2)[824]
(g0%1)[822]
(g0%1)[814]
(g0%1)[817]
(g1%2)[821]
(g0%2)[814]
(g0%1)[804]
(g0%2)[805]
(g0%2)[827](g0%2)[826](g1%2)[823](g1%2)[822]
(g1%2)[832]
(g0%1)[789](g0%1)[788](g0%1)[787](g0%1)[786](g0%1)[785](g0%1)[784]
(g1%2)[792]
(g0%2)[796]
(g1%2)[790]
(g1%2)[787]
(g1%2)[795]
(g1%2)[798](g1%2)[797](g0%2)[794](g0%2)[793]
(g0%2)[797]
(g1%2)[797]
(g1%2)[804](g1%2)[803](g1%2)[802](g0%2)[801](g0%2)[800](g0%2)[799]
(g0%1)[780](g0%1)[779](g0%1)[778](g0%1)[777](g0%1)[776](g0%1)[775]
(g0%1)[775]
(g1%2)[775]
(g1%2)[761]
(g1%2)[770]
(g1%2)[779]
(g1%2)[768]
(g0%1)[765](g0%1)[758](g0%1)[755](g0%1)[754]
(g0%1)[792]
(g0%1)[799]
(g0%1)[793]
(g1%2)[791]
(g0%1)[793]
(g1%2)[825]
(g0%1)[830]
(g1%2)[833]
(g0%2)[840]
(g1%2)[831]
(g0%1)[826]
(g0%1)[803]
(g1%2)[806]
(g0%2)[814]
(g0%2)[820]
(g1%2)[811]
(g0%2)[807]
(g1%2)[807]
(g0%2)[797]
(g0%2)[803]
(g0%1)[812]
(g0%1)[819]
(g1%2)[804]
(g1%2)[825](g1%2)[824](g0%2)[821](g0%2)[820]
(g0%2)[828]
(g0%2)[831]
(g0%1)[830]
(g1%2)[832]
(g0%2)[828]
(g0%2)[843]
(g0%2)[837]
(g0%2)[831]
(g0%1)[833]
(g0%1)[836]
(g0%1)[828]
(g0%1)[827]
(g0%1)[848]
(g0%1)[867]
(g0%1)[859]
(g1%2)[871]
(g2%8)[881]
(g0%1)[904](g0%1)[893]
(g0%1)[898]
(g1%2)[901]
(g1%2)[909]
(g0%2)[906]
(g0%2)[889]
(g0%1)[887]
(g0%2)[902]
(g0%2)[909]
(g0%2)[902]
(g1%2)[891]
(g0%1)[893]
(g1%2)[896]
(g0%2)[893]
(g0%2)[879]
(g0%2)[864]
(g0%2)[853]
(g1%2)[863]
(g0%2)[862]
(g1%2)[854]
(g1%2)[851]
(g1%2)[852]
(g0%2)[863](g0%2)[862](g1%2)[859](g1%2)[858]
(g0%2)[866]
(g0%1)[877](g0%1)[876](g0%1)[875](g0%1)[874](g0%1)[873]
(g1%2)[861]
(g0%1)[837]
(g0%1)[838]
(g0%1)[838]
(g0%1)[845]
(g0%1)[842]
(g1%2)[838]
(g0%2)[846]
(g0%1)[860]
(g0%1)[859]
(g0%2)[849]
(g0%1)[874]
(g0%1)[883]
(g0%1)[893]
(g0%1)[890]
(g0%1)[900]
(g0%1)[895](g0%1)[894](g0%1)[893](g0%1)[892](g0%1)[891](g0%1)[890]
(g0%1)[859]
(g0%1)[852]
(g1%2)[864]
(g1%2)[862]
(g0%1)[859]
(g0%1)[856](g0%1)[849]
(g0%1)[877]
(g0%1)[866]
(g1%2)[866]
(g0%1)[862]
(g1%2)[858]
(g0%2)[851]
(g0%2)[860]
(g1%2)[854]
(g0%1)[842]
(g0%1)[843]
(g0%1)[870](g0%1)[862]
(g0%1)[874]
(g1%2)[874]
(g0%1)[870]
(g1%2)[867]
(g1%2)[873]
(g0%1)[875]
(g0%1)[865]
(g1%2)[862]
(g1%2)[864]
(g0%2)[847]
(g1%2)[842]
(g0%2)[847]
(g1%2)[855]
(g0%1)[862](g0%1)[861]
(g0%1)[869]
(g0%1)[862](g0%1)[861](g0%1)[860](g0%1)[859](g0%1)[858](g0%1)[857]
(g0%1)[836]
(g0%1)[826]
(g1%2)[823]
(g0%2)[821](g0%2)[820](g1%2)[817](g1%2)[816]
(g1%2)[822]
(g0%1)[826](g0%1)[819](g0%1)[816](g0%1)[815]
(g1%2)[824]
(g0%2)[807]
(g0%1)[817](g0%1)[814]
(g0%1)[839]
(g0%1)[830]
(g1%2)[827]
(g1%2)[831](g1%2)[830](g0%2)[827](g0%2)[826]
(g0%2)[826]
(g0%2)[827]
(g0%1)[820]
(g0%1)[813]
(g0%1)[811]
(g1%2)[830]
(g0%2)[819]
(g1%2)[806]
(g0%2)[810]
(g0%1)[814]
(g0%1)[808](g0%1)[807]
(g0%1)[810]
(g0%1)[820](g0%1)[819](g0%1)[816]
(g1%2)[813]
(g1%2)[807]
(g1%2)[800]
(g1%2)[796]
(g0%2)[799]
(g0%2)[808]
(g0%1)[802]
(g1%2)[804]
(g0%1)[820]
(g1%2)[820]
(g1%2)[805]
(g1%2)[812]
(g0%1)[813](g0%1)[808]
(g0%1)[821](g0%1)[814]
(g0%1)[830](g0%1)[823]
(g0%1)[833]
(g1%2)[833]
(g0%2)[847]
(g0%2)[852]
(g1%2)[847]
(g1%2)[845]
(g0%2)[848]
(g1%2)[830]
(g0%1)[839](g0%1)[837](g0%1)[836]
(g0%1)[871](g0%1)[870](g0%1)[869](g0%1)[868](g0%1)[867](g0%1)[866]
(g0%1)[874]
(g0%1)[885]
(g0%1)[883]
(g0%1)[883]
(g0%1)[885](g0%1)[880]
(g0%1)[851]
(g1%2)[851]
(g1%2)[849]
(g0%2)[849]
(g0%2)[867]
(g0%2)[858]
(g0%2)[858]
(g1%2)[868](g1%2)[867](g1%2)[866](g0%2)[865](g0%2)[864](g0%2)[863]
(g1%2)[860]
(g0%1)[887]
(g0%1)[895]
(g1%2)[898]
(g1%2)[896](g1%2)[895](g0%2)[892](g0%2)[891]
(g0%2)[899]
(g0%2)[890](g0%2)[889](g1%2)[886](g1%2)[885]
(g0%2)[883]
(g0%1)[902]
(g0%1)[920](g0%1)[917](g0%1)[916](g0%1)[913]
(g0%1)[912]
(g0%1)[899]
(g0%1)[878]
(g0%1)[881](g0%1)[876]
(g1%2)[876]
(g0%2)[890]
(g0%2)[879]
(g0%2)[879]
(g1%2)[880]
(g0%2)[853]
(g0%1)[864]
(g0%1)[863]
(g1%2)[862]
(g0%2)[869](g0%2)[868](g1%2)[865](g1%2)[864]
(g1%2)[877]
(g1%2)[861]
(g0%2)[866]
(g0%2)[868]
(g0%1)[861](g0%1)[860]
(g0%2)[865]
(g0%1)[850]
(g0%1)[851]
(g0%1)[861](g0%1)[860](g0%1)[857]
(g0%1)[861]
(g0%1)[847]
(g1%2)[852]
(g0%2)[853](g0%2)[852](g1%2)[849](g1%2)[848]
(g0%1)[844](g0%1)[843](g0%1)[842](g0%1)[841](g0%1)[840](g0%1)[839]
(g0%2)[840]
(g1%2)[805]
(g0%2)[809]
(g1%2)[795]
(g0%2)[789]
(g1%2)[790]
(g1%2)[793]
(g0%2)[792]
(g0%2)[792]
(g0%1)[796]
(g1%2)[793]
(g1%2)[785]
(g0%2)[795]
(g1%2)[809]
(g1%2)[771]
(g0%1)[777]
(g0%1)[771]
(g1%2)[786]
(g1%2)[778]
(g0%1)[741]
(g1%2)[742]
(g0%2)[744]
(g0%2)[743]
(g1%2)[738]
(g1%2)[731]
(g0%2)[735]
(g0%1)[750]
(g0%2)[762]
(g1%2)[772]
(g0%2)[753]
(g0%1)[746]
(g0%1)[754]
(g0%1)[751]
(g0%1)[736]
(g1%2)[755]
(g1%2)[758]
(g1%2)[758]
(g0%1)[744]
(g0%1)[753]
(g0%1)[755](g0%1)[750]
(g0%1)[748]
(g0%1)[746]
(g1%2)[747]
(g1%2)[744]
(g0%1)[736]
(g1%2)[739]
(g0%2)[754]
(g1%2)[752]
(g0%1)[764](g0%1)[763](g0%1)[762](g0%1)[761]
(g1%2)[769]
(g1%2)[764]
(g0%2)[780]
(g1%2)[782]
(g0%1)[773]
(g0%1)[767]
(g0%1)[769](g0%1)[764]
(g0%1)[756]
(g0%1)[746]
(g0%1)[776]
(g0%1)[765]
(g0%1)[770]
(g0%1)[774]
(g0%8)[768]
(g0%1)[775]
(g1%8)[778](g3%8)[778](g7%8)[778]
(g0%2)[782]
(g0%1)[785]
(g0%1)[777]
(g0%2)[768]
(g0%2)[788]
(g0%2)[771]
(g0%1)[781]
(g0%1)[771]
(g0%1)[794](g0%1)[791]
(g0%1)[805]
(g0%1)[807](g0%1)[802]
(g1%2)[805]
(g0%2)[804]
(g0%1)[811]
(g0%1)[813](g0%1)[808]
(g1%2)[813]
(g0%2)[813]
(g1%2)[800]
(g0%2)[816]
(g0%1)[799]
(g0%1)[783]
(g0%1)[775]
(g1%2)[790]
(g1%2)[776]
(g0%2)[776]
(g0%1)[773]
(g1%2)[771]
(g1%2)[774]
(g1%2)[783]
(g1%2)[782]
(g1%2)[779]
(g1%2)[782]
(g0%2)[776]
(g0%1)[771]
(g0%1)[771]
(g0%1)[780]
(g1%2)[780]
(g0%2)[781]
(g0%1)[789]
(g0%1)[793]
(g1%2)[784]
(g0%1)[775](g0%1)[774](g0%1)[773](g0%1)[772](g0%1)[771](g0%1)[770]
(g0%2)[777]
(g0%1)[780]
(g1%2)[776]
(g1%2)[776]
(g0%2)[776]
(g0%1)[782]
(g0%1)[793]
(g0%1)[793]
(g1%2)[796]
(g0%2)[775]
(g0%1)[780]
(g0%2)[800]
(g1%2)[806]
(g2%8)[781]
(g0%2)[801]
(g0%1)[800](g0%1)[799](g0%1)[798](g0%1)[797](g0%1)[796](g0%1)[795]
(g0%1)[787]
(g0%1)[784]
(g1%2)[788]
(g1%2)[780]
(g1%2)[783]
(g0%2)[783]
(g1%2)[795]
(g0%2)[793]
(g0%2)[798]
(g0%1)[792]
(g1%2)[795]
(g1%2)[802](g1%2)[801](g0%2)[798](g0%2)[797]
(g0%2)[800]
(g1%2)[805]
(g0%2)[790]
(g0%2)[793]
(g1%2)[795]
(g1%2)[794](g1%2)[793](g1%2)[792](g0%2)[790](g0%2)[789]
(g1%2)[805]
(g0%1)[798]
(g1%2)[798]
(g1%2)[813]
(g0%2)[796]
(g1%2)[796]
(g1%2)[788]
(g0%1)[817]
(g1%2)[820]
(g1%2)[812]
(g0%1)[805]
(g0%2)[816]
(g1%2)[803]
(g0%2)[809]
(g0%2)[811]
(g0%2)[821](g0%2)[820]
(g0%1)[825]
(g1%2)[825]
(g0%1)[829]
(g1%2)[833]
(g1%2)[833]
(g1%2)[833]
(g1%2)[876](g0%2)[874]
(g0%1)[858](g0%1)[857](g0%1)[856](g0%1)[855](g0%1)[854](g0%1)[853]
(g0%1)[859]
(g1%2)[855]
(g0%2)[853](g0%2)[852](g1%2)[849](g1%2)[848]
(g0%2)[848]
(g0%1)[868](g0%1)[867](g0%1)[866](g0%1)[865](g0%1)[864]
(g1%2)[857]
(g0%2)[869]
(g1%2)[858]
(g0%2)[889]
(g0%1)[899]
(g1%2)[903]
(g0%2)[913]
(g1%2)[895]
(g0%2)[899]
(g0%1)[916](g0%1)[915](g0%1)[914](g0%1)[913](g0%1)[912](g0%1)[911]
(g0%1)[909]
(g1%2)[887]
(g1%2)[888]
(g0%1)[881]
(g1%2)[878]
(g0%2)[870]
(g0%2)[864]
(g1%2)[872](g1%2)[871](g0%2)[868](g0%2)[867]
(g1%2)[873]
(g1%2)[880]
(g1%2)[867]
(g0%1)[867]
(g1%2)[863]
(g1%2)[863]
(g0%2)[870]
(g1%2)[863](g1%2)[856]
(g0%2)[864]
(g0%2)[867]
(g0%1)[855]
(g0%2)[864]
(g0%2)[863]
(g0%1)[864]
(g0%1)[873](g0%1)[872](g0%1)[869]
(g0%1)[873]
(g0%1)[859]
(g1%2)[864]
(g1%2)[856]
(g0%1)[863]
(g0%2)[852]
(g0%1)[841]
(g0%1)[851]
(g0%1)[827]
(g0%1)[826]
(g0%1)[831](g0%1)[824]
(g0%1)[837](g0%1)[834]
(g0%1)[811]
(g0%1)[819]
(g1%2)[802]
(g0%2)[815]
(g0%1)[812](g0%1)[811](g0%1)[810](g0%1)[809](g0%1)[808](g0%1)[807]
(g1%2)[805]
(g0%1)[800](g0%1)[799](g0%1)[796](g0%1)[789]
(g0%1)[818](g0%1)[815](g0%1)[813](g0%1)[812](g0%1)[808]
(g0%1)[813]
(g0%1)[822]
(g0%1)[830]
(g0%1)[832]
(g1%2)[813]
(g0%2)[824]
(g1%2)[825]
(g0%1)[835](g1%2)[828](g1%2)[827]
(g0%1)[834]
(g0%1)[828]
(g1%2)[825]
(g1%2)[825]
(g0%2)[825]
(g0%1)[831]
(g0%2)[820]
(g0%1)[845]
(g1%2)[871]
(g0%1)[880]
(g0%1)[871]
(g1%2)[867]
(g0%2)[859]
(g1%2)[858]
(g0%1)[880](g0%1)[879](g0%1)[878](g0%1)[877](g0%1)[876]
(g1%2)[869]
(g0%2)[869]
(g0%2)[881]
(g0%2)[869]
(g1%2)[879]
(g0%1)[887]
(g1%2)[882]
(g0%1)[890]
(g1%2)[883]
(g1%2)[885]
(g0%2)[896]
(g0%1)[892]
(g0%1)[901]
(g1%2)[896]
(g0%1)[892]
(g0%2)[909]
(g1%2)[920]
(g0%1)[906](g0%1)[905]
(g0%1)[908]
(g1%2)[905]
(g0%2)[909]
(g0%1)[899]
(g0%1)[901]
(g1%2)[902]
(g1%2)[898]
(g0%2)[888](g0%2)[887](g0%2)[886](g1%2)[885](g1%2)[884](g1%2)[883]
(g0%2)[886]
(g0%1)[897](g0%1)[895]
(g0%1)[913]
(g0%1)[902]
(g0%1)[915]
(g0%2)[922]
(g0%1)[927]
(g1%2)[928]
(g1%2)[922]
(g1%2)[922]
(g0%1)[933]
(g0%1)[967]
(g1%2)[976]
(g0%2)[980]
(g1%2)[975]
(g1%2)[964]
(g0%2)[968]
(g1%2)[961]
(g0%2)[950]
(g0%2)[972]
(g0%1)[977]
(g1%2)[1003]
(g0%1)[1004](g0%1)[1003]
(g0%1)[1005]
(g0%1)[1003]
(g0%1)[1022]
(g0%1)[1022]
(g1%2)[1019]
(g0%2)[1009]
(g1%2)[1014]
(g0%2)[1026]
(g1%2)[1007]
(g1%2)[1009]
(g1%2)[1019]
(g0%1)[1000]
(g0%1)[1009]
(g1%2)[1008]
(g1%2)[1009]
(g0%2)[1020]
(g1%2)[1007]
(g0%1)[1024](g0%1)[1021]
(g0%1)[1015]
(g1%2)[1019]
(g1%2)[1017]
(g0%1)[1015](g0%1)[1004]
(g0%2)[1003]
(g0%1)[1005]
(g1%2)[1002]
(g1%2)[994]
(g0%2)[1005]
(g1%2)[1006]
(g0%2)[1008](g0%2)[1007](g1%2)[1004](g1%2)[1003]
(g0%2)[1008]
(g0%2)[1012]
(g1%2)[1030]
(g0%1)[1046]
(g1%2)[1047]
(g1%2)[1041]
(g0%2)[1041]
(g1%2)[1048]
(g0%2)[1055]
(g1%2)[1060](g1%2)[1059]
(g0%1)[1064]
(g1%2)[1067]
(g1%2)[1075]
(g0%2)[1072]
(g0%2)[1055]
(g0%1)[1051]
(g0%2)[1055]
(g1%2)[1068](g1%2)[1067](g1%2)[1066](g0%2)[1065](g0%2)[1064](g0%2)[1063]
(g0%1)[1077]
(g0%1)[1076]
(g0%1)[1076]
(g1%2)[1076]
(g0%2)[1088]
(g1%2)[1079]
(g1%2)[1069]
(g1%2)[1083]
(g1%2)[1073]
(g0%2)[1069]
(g0%2)[1063]
(g1%2)[1071](g1%2)[1070](g0%2)[1067](g0%2)[1066]
(g0%2)[1074]
(g1%2)[1077](g1%2)[1076](g0%2)[1073](g0%2)[1072]
(g1%2)[1075]
(g0%1)[1062](g0%1)[1059](g0%1)[1057]
(g0%1)[1096]
(g0%2)[1092]
(g0%2)[1084]
(g0%2)[1093]
(g1%2)[1094]
(g0%2)[1090]
(g0%1)[1087]
(g0%1)[1076]
(g0%1)[1094]
(g0%1)[1114]
(g0%1)[1109](g0%1)[1106](g0%1)[1105]
(g0%2)[1118]
(g0%2)[1110]
(g0%2)[1114]
(g1%2)[1139]
(g0%2)[1142](g0%2)[1141](g1%2)[1138](g1%2)[1137]
(g1%2)[1132]
(g1%2)[1126]
(g0%2)[1108]
(g0%2)[1109]
(g1%2)[1138]
(g0%1)[1137]
(g0%1)[1125]
(g1%2)[1097]
(g0%1)[1111](g0%1)[1110](g0%1)[1109](g0%1)[1108](g0%1)[1107]
(g0%1)[1097](g0%1)[1096](g0%1)[1095](g0%1)[1094](g0%1)[1093]
(g0%1)[1086]
(g0%1)[1086]
(g1%2)[1089]
(g0%2)[1097]
(g1%2)[1103]
(g0%2)[1086]
(g1%2)[1086]
(g0%1)[1092](g0%1)[1089]
(g0%2)[1088]
(g1%2)[1088]
(g0%1)[1100]
(g0%1)[1142]
(g1%2)[1145]
(g1%2)[1153]
(g0%2)[1150]
(g0%2)[1149](g0%2)[1148](g1%2)[1147]
(g1%2)[1146]
(g0%2)[1133]
(g0%1)[1126]
(g0%1)[1124]
(g0%1)[1120]
(g1%2)[1121]
(g0%2)[1108]
(g0%1)[1076]
(g1%2)[1096]
(g0%1)[1130]
(g0%1)[1125]
(g0%1)[1137]
(g0%1)[1143]
(g0%1)[1158]
(g1%2)[1161]
(g0%2)[1168]
(g0%2)[1185]
(g0%2)[1178]
(g1%2)[1173]
(g1%2)[1190]
(g0%1)[1230]
(g1%2)[1233]
(g0%2)[1240]
(g0%2)[1257]
(g1%2)[1254]
(g1%2)[1273]
(g1%2)[1276]
(g0%2)[1286]
(g0%2)[1289]
(g1%2)[1294]
(g0%1)[1313](g0%1)[1312](g0%1)[1309](g0%1)[1302]
(g0%1)[1321]
(g0%1)[1323]
(g0%1)[1333]
(g0%1)[1340]
(g0%1)[1334]
(g1%2)[1332]
(g0%1)[1324]
(g1%2)[1365](g1%2)[1358](g1%2)[1357]
(g0%2)[1354]
(g0%1)[1384]
(g0%1)[1373]
(g0%1)[1383](g0%1)[1382](g0%1)[1381](g0%1)[1380](g0%1)[1379](g0%1)[1378]
(g0%1)[1407]
(g0%1)[1396]
(g0%1)[1406](g0%1)[1405](g0%1)[1404](g0%1)[1403](g0%1)[1402](g0%1)[1401]
(g0%1)[1430]
(g0%1)[1437]
(g0%1)[1431]
(g1%2)[1429]
(g1%2)[1462](g1%2)[1455](g1%2)[1454]
(g0%2)[1451]
(g0%1)[1481]
(g0%1)[1473]
(g1%2)[1481]
(g0%2)[1496]
(g0%2)[1506]
(g0%1)[1504]
(g0%1)[1524](g0%1)[1519](g0%1)[1518](g0%1)[1513]
(g0%1)[1534]
(g0%1)[1540]
(g0%1)[1549](g0%1)[1548](g0%1)[1545]
(g0%1)[1549]
(g1%2)[1542]
(g1%2)[1540]
(g0%2)[1542]
(g0%2)[1563]
(g1%2)[1557]
(g0%2)[1554]
(g0%2)[1561]
(g0%2)[1546]
(g0%1)[1561](g0%1)[1560](g0%1)[1559](g0%1)[1558](g0%1)[1557]
(g1%2)[1547]
(g0%1)[1553]
(g0%1)[1565]
(g0%1)[1552]
(g0%1)[1552]
(g0%1)[1560]
(g1%2)[1545]
(g0%1)[1532](g0%1)[1525](g0%1)[1522](g0%1)[1521]
(g0%1)[1541]
(g0%1)[1541]
(g1%2)[1544]
(g1%2)[1566](g1%2)[1565](g0%2)[1562](g0%2)[1561]
(g0%1)[1574]
(g0%1)[1576](g0%1)[1571]
(g1%2)[1571]
(g0%2)[1583](g0%2)[1582](g1%2)[1579](g1%2)[1578]
(g1%2)[1583]
(g0%2)[1580]
(g1%2)[1583]
(g0%2)[1568]
(g1%2)[1563]
(g1%2)[1553]
(g0%1)[1565](g0%1)[1564]
(g1%8)[1559]
(g0%2)[1554]
(g1%2)[1536]
(g1%2)[1533]
(g1%2)[1547]
(g0%2)[1559]
(g1%2)[1563]
(g1%8)[1563]
(g0%1)[1545]
(g0%1)[1544]
(g0%1)[1543]
(g0%1)[1543]
(g1%2)[1547]
(g1%2)[1545]
(g1%2)[1542]
(g0%1)[1525]
(g0%1)[1519](g0%1)[1516](g0%1)[1515]
(g0%1)[1520]
(g1%2)[1525]
(g1%2)[1508]
(g1%2)[1506]
(g0%1)[1498]
(g0%1)[1509]
(g0%1)[1504](g0%1)[1503](g0%1)[1502](g0%1)[1501](g0%1)[1500](g0%1)[1499]
(g0%1)[1474]
(g0%1)[1474]
(g1%2)[1471]
(g0%2)[1475]
(g0%1)[1470]
(g0%1)[1460]
(g0%1)[1485]
(g1%2)[1482]
(g0%2)[1485]
(g0%1)[1497]
(g0%1)[1486]
(g0%1)[1496](g0%1)[1495](g0%1)[1494](g0%1)[1493](g0%1)[1492](g0%1)[1491]
(g0%1)[1511]
(g0%1)[1522]
(g0%1)[1519]
(g1%2)[1522]
(g1%2)[1525]
(g1%2)[1524]
(g0%1)[1514](g0%1)[1513](g0%1)[1512](g0%1)[1511](g0%1)[1510](g0%1)[1509]
(g0%2)[1520]
(g0%1)[1523]
(g0%1)[1507]
(g0%1)[1500]
(g0%1)[1499]
(g0%1)[1508]
(g1%2)[1504]
(g0%2)[1494]
(g0%2)[1509]
(g0%2)[1522]
(g0%2)[1500]
(g0%1)[1495]
(g0%1)[1488]
(g1%2)[1485]
(g0%2)[1488]
(g0%1)[1472]
(g0%1)[1482]
(g0%1)[1479]
(g0%2)[1478]
(g1%2)[1476]
(g1%2)[1480]
(g0%1)[1476](g0%1)[1475](g0%1)[1474]
(g0%2)[1477]
(g0%1)[1515]
(g0%1)[1514]
(g1%2)[1510]
(g1%2)[1512]
(g1%2)[1506]
(g0%1)[1525](g0%1)[1514]
(g0%2)[1516]
(g0%1)[1522]
(g0%2)[1500]
(g0%2)[1504]
(g1%2)[1509]
(g0%1)[1514]
(g0%1)[1551]
(g0%1)[1540]
(g0%1)[1550](g0%1)[1549](g0%1)[1548](g0%1)[1547](g0%1)[1546](g0%1)[1545]
(g1%2)[1529]
(g1%2)[1511]
(g1%2)[1512]
(g0%2)[1508]
(g1%2)[1513]
(g1%2)[1524]
(g0%2)[1520]
(g1%2)[1527]
(g0%2)[1538]
(g0%2)[1516]
(g0%1)[1511]
(g1%2)[1485]
(g0%1)[1485](g0%1)[1484]
(g0%1)[1483]
(g0%1)[1485]
(g0%1)[1458]
(g0%1)[1448]
(g0%1)[1457]
(g1%2)[1453]
(g0%2)[1445]
(g1%2)[1443]
(g0%2)[1459]
(g0%2)[1467]
(g0%2)[1468]
(g1%2)[1464]
(g1%2)[1467](g1%2)[1466](g0%2)[1463](g0%2)[1462]
(g0%1)[1481]
(g1%2)[1483]
(g0%2)[1493]
(g0%1)[1491]
(g0%2)[1479]
(g1%2)[1481]
(g0%1)[1498]
(g0%1)[1499]
(g0%1)[1500]
(g0%1)[1491]
(g1%2)[1495]
(g0%2)[1492]
(g1%2)[1474]
(g1%2)[1465]
(g0%2)[1470]
(g0%2)[1471]
(g0%1)[1464]
(g0%1)[1460]
(g0%1)[1460]
(g1%2)[1457]
(g0%1)[1473]
(g1%2)[1464]
(g0%1)[1459](g0%1)[1456](g0%1)[1455]
(g0%2)[1451]
(g1%2)[1459]
(g0%1)[1475]
(g0%1)[1479]
(g0%1)[1479]
(g1%2)[1476]
(g0%2)[1480]
(g0%1)[1484]
(g1%2)[1487]
(g0%2)[1483]
(g0%1)[1488]
(g1%2)[1491]
(g0%2)[1487]
(g0%1)[1492]
(g1%2)[1491]
(g0%1)[1487]
(g0%2)[1503]
(g0%2)[1491]
(g1%2)[1507]
(g0%1)[1511]
(g0%2)[1521]
(g0%1)[1518]
(g0%1)[1507]
(g0%1)[1501]
(g0%1)[1541]
(g0%1)[1530]
(g0%1)[1543]
(g0%1)[1543]
(g0%1)[1545](g0%1)[1540]
(g0%1)[1575]
(g0%1)[1576]
(g0%1)[1577]
(g0%1)[1578]
(g0%1)[1579]
(g0%1)[1580]
(g0%1)[1581]
(g0%1)[1582]
(g0%1)[1583]
(g0%1)[1584]
(g0%1)[1585]
(g0%1)[1585]
(g0%1)[1594](g0%1)[1593](g0%1)[1590]
(g0%1)[1594]
(g1%2)[1597]
(g0%2)[1591]
(g1%2)[1579]
(g0%2)[1569]
(g1%2)[1582]
(g0%2)[1585]
(g0%1)[1574]
(g0%1)[1562](g0%1)[1561](g0%1)[1560](g0%1)[1559](g0%1)[1558](g0%1)[1557]
(g0%1)[1552]
(g0%1)[1541]
(g0%1)[1546]
(g0%1)[1550]
(g0%1)[1519]
(g1%2)[1515]
(g1%2)[1515]
(g0%1)[1528](g0%1)[1527](g0%1)[1526](g0%1)[1525](g0%1)[1524]
(g0%2)[1526]
(g1%2)[1515](g0%2)[1511](g0%2)[1510](g1%2)[1506]
(g0%1)[1509]
(g1%2)[1497]
(g0%2)[1490]
(g0%2)[1504]
(g1%2)[1504]
(g0%2)[1508]
(g1%2)[1490]
(g0%2)[1501]
(g0%1)[1510]
(g0%1)[1508]
(g0%1)[1500]
(g0%1)[1498]
(g0%1)[1495]
(g0%1)[1517]
(g0%1)[1509]
(g0%1)[1514]
(g1%2)[1514]
(g0%2)[1528]
(g1%2)[1524]
(g0%2)[1522]
(g0%2)[1523]
(g1%2)[1529]
(g0%1)[1520](g0%1)[1519](g0%1)[1518](g0%1)[1517](g0%1)[1516](g0%1)[1515]
(g0%1)[1522]
(g0%1)[1515]
(g0%1)[1518]
(g1%2)[1522]
(g0%2)[1514]
(g1%2)[1527]
(g0%1)[1517]
(g0%1)[1511]
(g0%1)[1484]
(g0%1)[1487](g0%1)[1482]
(g0%1)[1500]
(g0%1)[1507]
(g0%1)[1518]
(g1%2)[1518]
(g0%1)[1522]
(g0%2)[1514]
(g0%1)[1468](g0%1)[1465]
(g0%1)[1474]
(g0%1)[1469](g0%1)[1466](g0%1)[1465]
(g1%2)[1478]
(g0%2)[1476]
(g0%2)[1476]
(g1%2)[1458]
(g0%2)[1461]
(g1%2)[1451]
(g0%1)[1447]
(g0%1)[1426](g0%1)[1425](g0%1)[1424](g0%1)[1423]
(g0%1)[1432]
(g0%1)[1445]
(g1%2)[1448]
(g0%2)[1458]
(g1%2)[1440]
(g0%2)[1444]
(g0%1)[1461](g0%1)[1460](g0%1)[1459](g0%1)[1458](g0%1)[1457](g0%1)[1456]
(g0%1)[1470]
(g0%1)[1454]
(g0%1)[1459]
(g0%1)[1462]
(g1%2)[1466]
(g1%2)[1474]
(g1%2)[1465]
(g0%1)[1483]
(g0%2)[1479]
(g0%1)[1492]
(g1%2)[1491]
(g0%1)[1486]
(g0%2)[1485]
(g0%2)[1503]
(g0%1)[1511]
(g1%2)[1514]
(g0%1)[1505](g0%1)[1504](g0%1)[1503](g0%1)[1502](g0%1)[1501]
(g1%2)[1502]
(g1%2)[1513]
(g0%1)[1533]
(g0%2)[1525]
(g0%1)[1528]
(g0%1)[1543](g0%1)[1542]
(g2%8)[1537]
(g0%2)[1522]
(g1%2)[1523]
(g1%2)[1513]
(g1%2)[1508]
(g0%1)[1536]
(g0%1)[1520]
(g0%1)[1509]
(g0%1)[1512]
(g0%1)[1515](g0%1)[1510]
(g1%2)[1512]
(g1%2)[1510]
(g0%1)[1508]
(g1%2)[1505]
(g0%2)[1497]
(g0%2)[1500]
(g0%2)[1495]
(g1%2)[1505]
(g0%1)[1489]
(g1%2)[1492]
(g0%1)[1472]
(g0%2)[1471]
(g1%2)[1460]
(g0%1)[1461]
(g1%2)[1458]
(g1%2)[1455]
(g1%2)[1458]
(g1%2)[1466]
(g0%2)[1463]
(g1%2)[1441]
(g1%2)[1432]
(g0%2)[1430]
(g0%1)[1417]
(g0%1)[1425]
(g0%1)[1422]
(g0%1)[1407]
(g1%2)[1426]
(g1%2)[1429]
(g1%2)[1429]
(g0%1)[1435](g0%1)[1434](g0%1)[1433](g0%1)[1432](g0%1)[1431](g0%1)[1430]
(g0%1)[1415]
(g0%1)[1424]
(g1%2)[1427]
(g1%2)[1435]
(g1%2)[1435]
(g0%1)[1428](g0%1)[1427]
(g0%1)[1412]
(g0%1)[1402]
(g0%1)[1405]
(g0%1)[1413]
(g1%2)[1405]
(g1%2)[1397]
(g1%2)[1399]
(g1%2)[1460](g1%2)[1459](g1%2)[1458](g0%2)[1457](g0%2)[1456](g0%2)[1455]
(g0%1)[1483](g0%1)[1482](g0%1)[1481](g0%1)[1480](g0%1)[1479]
(g0%2)[1490]
(g0%2)[1500]
(g1%2)[1501]
(g1%2)[1492]
(g0%2)[1475](g0%2)[1468]
(g1%2)[1472]
(g1%2)[1473]
(g0%1)[1475]
(g0%1)[1477](g0%1)[1472]
(g1%2)[1477]
(g0%2)[1477]
(g1%2)[1464]
(g0%2)[1480]
(g0%1)[1479]
(g0%1)[1462]
(g0%1)[1470]
(g1%2)[1467]
(g1%2)[1459]
(g1%2)[1468]
(g1%2)[1461]
(g1%2)[1454]
(g0%2)[1452]
(g0%1)[1442]
(g0%1)[1440]
(g0%1)[1436]
(g1%2)[1439]
(g0%2)[1436]
(g0%1)[1424]
(g0%1)[1432]
(g1%2)[1424]
(g0%2)[1414]
(g0%2)[1411]
(g1%2)[1407]
(g1%2)[1410]
(g1%2)[1395]
(g1%2)[1394]
(g0%2)[1407]
(g0%1)[1409]
(g0%1)[1416]
(g1%2)[1401]
(g0%2)[1422]
(g0%1)[1430]
(g0%2)[1419](g0%2)[1418](g1%2)[1417]
(g0%2)[1408]
(g0%1)[1406]
(g1%2)[1403]
(g1%2)[1405]
(g1%2)[1388]
(g0%1)[1398]
(g0%1)[1418](g0%1)[1407]
(g0%1)[1417]
(g0%1)[1426](g0%1)[1425](g0%1)[1422]
(g1%2)[1419]
(g0%2)[1409]
(g0%1)[1425]
(g0%1)[1437]
(g0%1)[1439]
(g1%2)[1439]
(g0%1)[1443]
(g0%2)[1458]
(g0%2)[1470]
(g0%1)[1472]
(g1%2)[1471]
(g0%2)[1478](g0%2)[1477](g1%2)[1474](g1%2)[1473]
(g0%2)[1471]
(g0%2)[1471]
(g0%1)[1468]
(g0%1)[1473]
(g0%1)[1485]
(g0%1)[1477]
(g0%1)[1475]
(g1%2)[1494]
(g0%2)[1483]
(g0%2)[1468]
(g1%2)[1479]
(g0%1)[1496](g0%1)[1495]
(g0%1)[1493]
(g0%1)[1493]
(g1%2)[1496]
(g0%2)[1504]
(g1%2)[1510]
(g1%2)[1495]
(g0%2)[1488]
(g0%2)[1484]
(g1%2)[1499](g1%2)[1498]
(g0%1)[1503]
(g0%1)[1505](g0%1)[1500]
(g1%2)[1505]
(g1%2)[1492]
(g0%2)[1510]
(g0%1)[1501]
(g0%1)[1518](g0%1)[1517](g0%1)[1514](g0%1)[1507]
(g0%2)[1514]
(g1%2)[1523](g1%2)[1522](g0%2)[1519](g0%2)[1518]
(g0%2)[1523]
(g1%2)[1518]
(g1%2)[1524]
(g0%2)[1519]
(g0%2)[1502]
(g0%2)[1505](g0%2)[1504](g1%2)[1501](g1%2)[1500]
(g0%2)[1500]
(g1%2)[1488]
(g1%2)[1483]
(g0%2)[1484]
(g0%1)[1476]
(g1%2)[1485]
(g1%2)[1478]
(g0%1)[1494]
(g0%1)[1484]
(g1%2)[1487]
(g1%2)[1475]
(g1%2)[1472]
(g0%1)[1484](g0%1)[1483](g0%1)[1482](g0%1)[1481](g0%1)[1480](g0%1)[1479]
(g1%2)[1474]
(g1%2)[1484]
(g0%2)[1488]
(g1%2)[1481]
(g1%2)[1475]
(g0%2)[1476]
(g1%2)[1486]
(g0%2)[1483]
(g0%2)[1482]
(g1%2)[1491](g1%2)[1490](g0%2)[1487](g0%2)[1486]
(g0%2)[1485](g0%2)[1484](g1%2)[1481](g1%2)[1480]
(g0%1)[1467]
(g0%1)[1466]
(g0%1)[1466]
(g0%1)[1459]
(g0%1)[1457]
(g0%1)[1454]
(g0%1)[1455]
(g1%2)[1437](g1%2)[1436](g0%2)[1433](g0%2)[1432]
(g1%2)[1439]
(g0%1)[1464]
(g0%1)[1476]
(g0%1)[1468]
(g0%1)[1482]
(g0%1)[1484](g0%1)[1479]
(g0%2)[1482]
(g1%2)[1488]
(g0%2)[1493]
(g1%2)[1487]
(g1%2)[1479]
(g0%1)[1496]
(g0%2)[1491]
(g1%2)[1495](g1%2)[1493]
(g0%1)[1479]
(g0%1)[1471]
(g0%1)[1474]
(g1%2)[1470]
(g0%2)[1465]
(g0%1)[1469]
(g1%2)[1466]
(g1%2)[1473]
(g0%1)[1476]
(g1%2)[1476]
(g0%1)[1471]
(g0%1)[1474]
(g0%2)[1488]
(g1%2)[1508]
(g0%1)[1515](g0%1)[1511]
(g0%1)[1511]
(g0%1)[1514](g0%1)[1509](g0%1)[1503]
(g0%1)[1511](g0%1)[1510](g0%1)[1509](g0%1)[1508](g0%1)[1507]
(g0%1)[1497]
(g0%1)[1498]
(g0%1)[1498]
(g0%1)[1492](g0%1)[1489](g0%1)[1488]
(g0%1)[1497]
(g1%2)[1504]
(g0%2)[1495]
(g1%2)[1502]
(g0%1)[1485]
(g1%2)[1482]
(g0%2)[1472]
(g0%2)[1474]
(g1%2)[1480]
(g0%2)[1478]
(g0%2)[1465]
(g0%1)[1514]
(g1%2)[1514]
(g0%2)[1502]
(g0%1)[1510]
(g1%2)[1519]
(g0%1)[1543]
(g0%1)[1550]
(g1%2)[1535]
(g1%2)[1556](g1%2)[1555](g0%2)[1552](g0%2)[1551]
(g1%2)[1552]
(g1%2)[1564]
(g1%2)[1545]
(g0%1)[1576]
(g0%1)[1585](g0%1)[1584](g0%1)[1581]
(g0%1)[1585]
(g1%2)[1574]
(g0%2)[1575]
(g0%1)[1576]
(g0%1)[1568]
(g0%1)[1577]
(g1%2)[1580]
(g1%2)[1578]
(g1%2)[1591]
(g0%1)[1593]
(g1%2)[1596]
(g0%1)[1587](g0%1)[1586](g0%1)[1585](g0%1)[1584](g0%1)[1583]
(g0%1)[1581]
(g1%2)[1601]
(g0%2)[1593]
(g1%2)[1604]
(g1%2)[1597]
(g1%2)[1600](g1%2)[1599](g0%2)[1596](g0%2)[1595]
(g0%2)[1594]
(g1%2)[1597]
(g0%2)[1602]
(g1%2)[1600]
(g0%1)[1586]
(g0%1)[1596]
(g0%1)[1596]
(g1%2)[1592]
(g1%2)[1596](g1%2)[1595](g0%2)[1592](g0%2)[1591]
(g0%2)[1586]
(g0%2)[1593]
(g1%2)[1595]
(g1%2)[1603]
(g1%2)[1585]
(g0%1)[1576](g0%1)[1565]
(g0%1)[1575]
(g0%2)[1574]
(g1%2)[1572]
(g1%2)[1576]
(g0%1)[1572](g0%1)[1571](g0%1)[1570]
(g0%2)[1573]
(g1%2)[1605]
(g1%2)[1581]
(g0%1)[1581](g0%1)[1580]
(g0%1)[1579]
(g0%1)[1581]
(g0%1)[1574]
(g1%2)[1571]
(g1%2)[1575](g1%2)[1574](g0%2)[1571](g0%2)[1570]
(g1%2)[1572]
(g0%2)[1574]
(g0%2)[1567]
(g0%1)[1570]
(g0%1)[1571]
(g0%1)[1572]
(g0%1)[1572]
(g1%2)[1571]
(g0%1)[1567]
(g0%1)[1551]
(g1%2)[1563]
(g1%2)[1574]
(g0%2)[1564]
(g0%1)[1557](g0%1)[1546]
(g0%1)[1547]
(g0%1)[1537]
(g1%2)[1531]
(g1%2)[1526]
(g0%2)[1516]
(g0%2)[1512]
(g0%1)[1514]
(g1%2)[1512]
(g0%2)[1515]
(g1%2)[1512]
(g1%2)[1511]
(g0%2)[1508]
(g0%2)[1520](g0%2)[1519]
(g0%2)[1523]
(g1%2)[1512]
(g0%1)[1491]
(g1%2)[1492]
(g0%2)[1489]
(g0%1)[1483]
(g1%2)[1493]
(g1%2)[1489](g1%2)[1488](g0%2)[1485](g0%2)[1484]
(g1%2)[1482]
(g0%2)[1487]
(g0%2)[1497]
(g0%1)[1486](g0%1)[1485]
(g2%8)[1491]
(g0%1)[1480]
(g0%1)[1480]
(g1%2)[1477]
(g0%2)[1469]
(g0%2)[1463]
(g1%2)[1479]
(g0%1)[1473]
(g1%2)[1480]
(g0%2)[1475]
(g1%2)[1471]
(g0%2)[1469]
(g0%1)[1476]
(g0%1)[1478](g0%1)[1473]
(g1%2)[1478]
(g0%2)[1464]
(g1%2)[1456]
(g0%2)[1461]
(g0%1)[1465]
(g1%2)[1465]
(g0%1)[1456]
(g0%1)[1462]
(g0%2)[1457]
(g1%2)[1454]
(g0%1)[1456]
(g0%1)[1449]
(g0%1)[1449]
(g0%1)[1452](g0%1)[1447]
(g0%1)[1440]
(g1%2)[1437]
(g0%2)[1449]
(g0%2)[1438]
(g0%1)[1418]
(g0%1)[1410]
(g0%1)[1410]
(g1%2)[1425]
(g1%2)[1415]
(g0%2)[1414]
(g0%1)[1414]
(g1%2)[1414]
(g1%2)[1429]
(g0%2)[1424]
(g0%2)[1421]
(g0%2)[1414]
(g0%1)[1424]
(g1%2)[1425]
(g0%2)[1411]
(g0%2)[1406]
(g1%2)[1411]
(g1%2)[1413]
(g0%2)[1410]
(g1%2)[1428]
(g0%1)[1422](g0%1)[1421](g0%1)[1419]
(g1%2)[1367]
(g0%1)[1374]
(g1%2)[1377]
(g1%2)[1369]
(g0%2)[1382]
(g0%1)[1367]
(g0%1)[1366]
(g0%1)[1368]
(g0%2)[1366]
(g0%2)[1380]
(g0%1)[1334]
(g0%1)[1331]
(g1%2)[1334]
(g0%2)[1335](g0%2)[1334](g1%2)[1331](g1%2)[1330]
(g1%2)[1341](g1%2)[1340](g0%2)[1337](g0%2)[1336]
(g0%2)[1336]
(g0%1)[1319]
(g0%1)[1327]
(g1%2)[1315]
(g0%2)[1322]
(g1%2)[1323]
(g0%1)[1320]
(g0%1)[1314]
(g0%1)[1322]
(g1%2)[1307]
(g0%1)[1310]
(g0%2)[1327]
(g1%2)[1320]
(g0%2)[1313]
(g0%2)[1318]
(g0%2)[1313](g0%2)[1312](g0%2)[1311](g1%2)[1310](g1%2)[1309](g1%2)[1308]
(g1%2)[1310]
(g0%2)[1306]
(g1%2)[1322]
(g1%2)[1316]
(g1%2)[1316](g1%2)[1315](g1%2)[1314](g0%2)[1313](g0%2)[1312](g0%2)[1311]
(g0%1)[1320]
(g2%8)[1317]
(g0%1)[1299]
(g0%1)[1298]
(g0%1)[1297]
(g0%1)[1297]
(g1%2)[1297]
(g1%2)[1298]
(g0%1)[1293]
(g1%2)[1289]
(g0%2)[1301]
(g0%1)[1311](g0%1)[1308]
(g0%1)[1295]
(g0%1)[1298](g0%1)[1293]
(g1%2)[1298]
(g0%2)[1301]
(g1%2)[1287]
(g0%2)[1297]
(g0%2)[1290]
(g1%2)[1298]
(g1%2)[1301]
(g1%2)[1208]
(g0%1)[1232]
(g1%2)[1231]
(g1%2)[1232]
(g0%2)[1243]
(g1%2)[1230]
(g1%2)[1227](g1%2)[1226](g1%2)[1225](g0%2)[1224](g0%2)[1223](g0%2)[1222]
(g0%1)[1251]
(g0%1)[1239]
(g0%1)[1238]
(g0%1)[1245]
(g0%1)[1232]
(g0%1)[1229]
(g0%1)[1224]
(g0%1)[1248]
(g1%2)[1251]
(g1%2)[1251]
(g0%2)[1261]
(g0%2)[1251]
(g0%2)[1245]
(g0%2)[1246]
(g0%2)[1245]
(g0%1)[1252]
(g0%1)[1253]
(g1%2)[1250]
(g1%2)[1241]
(g1%2)[1254]
(g0%1)[1249]
(g1%2)[1239]
(g0%1)[1239]
(g0%1)[1240]
(g0%1)[1243](g0%1)[1238]
(g0%1)[1245]
(g0%1)[1246]
(g0%1)[1257](g0%1)[1256]
(g1%2)[1232]
(g0%2)[1234]
(g1%2)[1234]
(g1%2)[1244]
(g1%2)[1240]
(g0%2)[1240]
(g2%8)[1237]
(g0%1)[1229]
(g1%8)[1226](g3%8)[1226](g7%8)[1226]
(g0%2)[1222]
(g0%1)[1219]
(g0%1)[1227]
(g0%2)[1236]
(g0%2)[1216]
(g0%1)[1210]
(g0%2)[1233]
(g0%1)[1223]
(g1%2)[1224]
(g0%1)[1228]
(g1%2)[1232]
(g0%2)[1236](g1%2)[1235](g1%2)[1234](g1%2)[1233]
(g1%2)[1225]
(g0%1)[1224]
(g0%1)[1209]
(g0%1)[1216]
(g0%1)[1224]
(g1%2)[1224]
(g0%2)[1223]
(g0%1)[1215]
(g0%1)[1211]
(g0%1)[1207]
(g1%2)[1220]
(g0%1)[1234](g0%1)[1233](g0%1)[1232](g0%1)[1231](g0%1)[1230](g0%1)[1229]
(g0%2)[1227]
(g1%2)[1212]
(g1%2)[1220]
(g0%2)[1219]
(g1%2)[1218]
(g0%2)[1216]
(g0%2)[1215]
(g0%1)[1222](g0%1)[1221](g0%1)[1220](g0%1)[1219](g0%1)[1218](g0%1)[1217]
(g2%8)[1223]
(g1%2)[1223]
(g0%2)[1226]
(g0%1)[1223]
(g0%1)[1225]
(g0%1)[1228]
(g0%1)[1226]
(g1%2)[1210](g1%2)[1209](g1%2)[1208](g0%2)[1207](g0%2)[1206](g0%2)[1205]
(g0%2)[1197](g1%2)[1188]
(g0%1)[1204]
(g1%2)[1205]
(g0%2)[1207]
(g0%2)[1207]
(g0%2)[1198]
(g0%2)[1222]
(g1%2)[1215]
(g0%1)[1217]
(g1%2)[1213]
(g0%2)[1211](g0%2)[1210](g1%2)[1207](g1%2)[1206]
(g1%2)[1205]
(g0%2)[1214]
(g0%2)[1218]
(g1%2)[1223]
(g1%2)[1221]
(g1%2)[1221]
(g1%2)[1224]
(g0%1)[1210]
(g1%2)[1210]
(g0%2)[1208]
(g0%2)[1212]
(g1%2)[1202]
(g1%2)[1208]
(g0%2)[1215]
(g0%2)[1216]
(g1%2)[1213]
(g0%1)[1203]
(g0%1)[1211]
(g1%2)[1196]
(g1%2)[1210]
(g1%2)[1218]
(g0%2)[1222]
(g1%2)[1201]
(g0%2)[1199]
(g0%1)[1183]
(g0%2)[1195]
(g0%2)[1199]
(g0%2)[1194]
(g0%2)[1195]
(g0%1)[1193]
(g0%1)[1178]
(g1%2)[1175]
(g0%2)[1173](g0%2)[1172](g1%2)[1169](g1%2)[1168]
(g0%2)[1165]
(g0%2)[1180]
(g0%1)[1179]
(g0%1)[1180]
(g0%2)[1177]
(g1%2)[1172]
(g0%1)[1182]
(g0%1)[1182]
(g1%2)[1183]
(g0%2)[1175](g0%2)[1174](g1%2)[1171](g1%2)[1170]
(g0%2)[1173]
(g0%2)[1173]
(g1%2)[1175]
(g0%1)[1179](g0%1)[1172]
(g0%1)[1183]
(g0%1)[1191]
(g1%2)[1176]
(g1%2)[1189]
(g0%1)[1200](g0%1)[1197]
(g0%1)[1194]
(g0%1)[1200]
(g0%1)[1193](g0%1)[1190](g0%1)[1189](g0%1)[1186]
(g1%2)[1188]
(g1%2)[1185]
(g0%2)[1198]
(g0%2)[1201]
(g0%2)[1193]
(g1%2)[1190]
(g0%2)[1188]
(g0%1)[1181]
(g0%1)[1174]
(g0%1)[1180]
(g1%2)[1176]
(g1%2)[1178]
(g0%1)[1165]
(g0%1)[1158]
(g0%1)[1164]
(g0%1)[1138](g0%1)[1127]
(g0%1)[1128]
(g1%2)[1129]
(g0%2)[1117]
(g0%1)[1109]
(g1%2)[1106]
(g0%2)[1104](g0%2)[1103](g1%2)[1100](g1%2)[1099]
(g0%2)[1099]
(g1%2)[1108]
(g1%2)[1106](g1%2)[1105](g0%2)[1102](g0%2)[1101]
(g1%2)[1119]
(g0%2)[1120]
(g0%2)[1109]
(g0%2)[1131]
(g1%2)[1131]
(g1%2)[1121]
(g0%1)[1142]
(g1%2)[1145]
(g1%2)[1152](g1%2)[1151](g0%2)[1148](g0%2)[1147]
(g0%2)[1152]
(g0%1)[1136](g0%1)[1135](g0%1)[1134](g0%1)[1133](g0%1)[1132]
(g1%2)[1143]
(g0%2)[1131]
(g1%2)[1142]
(g0%1)[1156]
(g1%2)[1153]
(g0%2)[1156]
(g1%2)[1161]
(g1%2)[1161]
(g0%1)[1175]
(g0%1)[1174]
(g0%2)[1192]
(g0%1)[1204](g0%1)[1203](g0%1)[1202](g0%1)[1201](g0%1)[1200](g0%1)[1199]
(g0%1)[1196]
(g0%1)[1181]
(g0%1)[1180]
(g0%1)[1171]
(g1%2)[1172]
(g0%2)[1160]
(g0%1)[1152]
(g0%1)[1163]
(g0%1)[1161]
(g0%1)[1162]
(g0%1)[1129]
(g0%1)[1124](g0%1)[1121](g0%1)[1120]
(g0%1)[1120]
(g0%1)[1114]
(g1%2)[1136]
(g0%2)[1125]
(g0%1)[1153]
(g1%2)[1154]
(g1%2)[1156]
(g0%2)[1156]
(g0%2)[1138]
(g0%2)[1147]
(g0%2)[1147]
(g0%2)[1142](g0%2)[1141](g0%2)[1140](g1%2)[1139](g1%2)[1138](g1%2)[1137]
(g1%2)[1145]
(g1%2)[1124]
(g0%2)[1119]
(g1%2)[1120]
(g0%1)[1138]
(g0%1)[1130](g0%1)[1127](g0%1)[1126]
(g0%1)[1136]
(g1%2)[1134]
(g0%2)[1130]
(g0%1)[1140](g0%1)[1139](g0%1)[1138](g0%1)[1137](g0%1)[1136](g0%1)[1135]
(g0%2)[1138]
(g1%2)[1126]
(g0%1)[1121]
(g1%2)[1125]
(g1%2)[1129]
(g0%1)[1121]
(g0%1)[1117](g0%1)[1116](g0%1)[1115](g0%1)[1114](g0%1)[1113](g0%1)[1112]
(g0%1)[1099]
(g0%1)[1092]
(g0%1)[1106]
(g1%2)[1099]
(g0%2)[1095]
(g0%2)[1110]
(g0%2)[1113]
(g0%1)[1108]
(g0%1)[1087]
(g0%1)[1079]
(g1%2)[1094]
(g1%2)[1080]
(g0%1)[1088]
(g0%2)[1075]
(g0%1)[1072]
(g0%1)[1066]
(g1%2)[1070]
(g1%2)[1079]
(g0%2)[1065]
(g1%2)[1081]
(g0%1)[1076]
(g0%1)[1057]
(g0%1)[1051]
(g0%1)[1036]
(g1%2)[1040]
(g0%2)[1048]
(g0%1)[1065](g0%1)[1062](g0%1)[1061](g0%1)[1058]
(g0%2)[1054]
(g1%2)[1057](g1%2)[1056](g0%2)[1053](g0%2)[1052]
(g0%1)[1089](g0%1)[1088](g0%1)[1087](g0%1)[1086](g0%1)[1085](g0%1)[1084]
(g1%2)[1128]
(g1%2)[1131]
(g0%2)[1125]
(g0%2)[1118]
(g0%2)[1122]
(g1%2)[1125]
(g0%2)[1118]
(g0%2)[1153]
(g0%1)[1144]
(g0%1)[1138](g0%1)[1135](g0%1)[1134]
(g1%2)[1141]
(g0%2)[1154]
(g0%1)[1159]
(g0%1)[1190]
(g0%1)[1183]
(g0%1)[1193](g0%1)[1192](g0%1)[1189]
(g1%2)[1186]
(g1%2)[1182]
(g1%2)[1190]
(g1%2)[1193]
(g1%2)[1176]
(g0%1)[1189](g0%1)[1182](g0%1)[1179](g0%1)[1178]
(g0%2)[1182]
(g0%1)[1179]
(g0%1)[1179]
(g1%2)[1182]
(g1%2)[1190]
(g0%2)[1187]
(g0%2)[1170]
(g0%1)[1166]
(g0%1)[1190]
(g1%2)[1184]
(g0%1)[1175]
(g1%2)[1175]
(g1%2)[1137]
(g0%2)[1142]
(g0%2)[1137]
(g0%1)[1158]
(g1%2)[1161]
(g1%2)[1168](g1%2)[1167](g0%2)[1164](g0%2)[1163]
(g0%2)[1158]
(g1%2)[1158]
(g0%1)[1154](g0%1)[1153](g0%1)[1152](g0%1)[1151]
(g0%1)[1157]
(g0%2)[1153]
(g0%1)[1163]
(g1%2)[1167]
(g0%2)[1172]
(g0%1)[1163]
(g0%1)[1206]
(g1%2)[1203]
(g0%2)[1207]
(g0%1)[1211]
(g0%1)[1218]
(g0%1)[1212]
(g1%2)[1210]
(g0%1)[1221](g0%1)[1214](g0%1)[1211](g0%1)[1210]
(g0%1)[1224]
(g0%2)[1238]
(g0%2)[1239]
(g1%2)[1226]
(g0%1)[1218]
(g0%1)[1229]
(g0%1)[1216]
(g0%1)[1215]
(g0%1)[1214]
(g0%1)[1205]
(g0%1)[1196]
(g1%2)[1197]
(g0%1)[1201]
(g0%1)[1214]
(g0%2)[1214]
(g0%2)[1215]
(g0%2)[1227](g0%2)[1226]
(g1%2)[1214]
(g0%1)[1218]
(g1%2)[1209]
(g0%2)[1211](g0%2)[1210](g1%2)[1207](g1%2)[1206]
(g1%2)[1199]
(g1%2)[1211](g1%2)[1210](g0%2)[1207](g0%2)[1206]
(g1%2)[1208]
(g1%2)[1204]
(g0%2)[1185]
(g0%2)[1184]
(g1%2)[1189]
(g0%1)[1183]
(g1%2)[1183]
(g0%1)[1180](g0%1)[1173]
(g1%2)[1193]
(g0%1)[1196]
(g0%1)[1185]
(g0%1)[1194]
(g0%1)[1196](g0%1)[1191]
(g1%2)[1196]
(g0%2)[1193]
(g1%2)[1192]
(g0%2)[1186]
(g1%2)[1199]
(g1%2)[1200]
(g1%2)[1176]
(g0%1)[1207]
(g0%1)[1196]
(g0%1)[1188]
(g0%2)[1205]
(g0%2)[1199]
(g1%2)[1213]
(g1%2)[1199]
(g0%1)[1207]
(g1%2)[1203]
(g1%2)[1205]
(g0%1)[1218](g0%1)[1207]
(g0%2)[1230]
(g0%2)[1234]
(g0%2)[1219]
(g0%1)[1218]
(g0%2)[1221]
(g1%2)[1225]
(g0%2)[1220]
(g0%2)[1220](g0%2)[1219](g0%2)[1218]
(g0%2)[1188]
(g0%2)[1195]
(g0%2)[1186]
(g0%1)[1194]
(g0%1)[1187]
(g0%1)[1185]
(g1%2)[1202]
(g1%2)[1179]
(g0%1)[1191]
(g0%1)[1206](g0%1)[1205](g0%1)[1202](g0%1)[1195]
(g0%1)[1203]
(g0%1)[1265]
(g1%2)[1261]
(g1%2)[1251]
(g0%1)[1278]
(g0%1)[1282]
(g0%1)[1288]
(g1%2)[1280]
(g0%2)[1279]
(g0%1)[1303]
(g0%1)[1292]
(g0%1)[1302](g0%1)[1301](g0%1)[1300](g0%1)[1299](g0%1)[1298](g0%1)[1297]
(g0%1)[1275]
(g1%2)[1278]
(g0%2)[1274]
(g0%1)[1279]
(g1%2)[1282]
(g0%2)[1278]
(g0%1)[1274]
(g0%1)[1264]
(g0%1)[1299]
(g0%1)[1300]
(g0%1)[1300]
(g1%2)[1299]
(g0%1)[1294]
(g0%1)[1326]
(g1%2)[1329]
(g0%2)[1325]
(g0%1)[1330]
(g0%1)[1319]
(g0%1)[1331]
(g0%1)[1325](g0%1)[1322](g0%1)[1321]
(g0%1)[1325]
(g0%1)[1338]
(g0%1)[1353]
(g1%2)[1356]
(g0%2)[1363]
(g0%2)[1380]
(g0%2)[1387]
(g1%2)[1397]
(g0%2)[1378]
(g1%2)[1380]
(g1%2)[1383]
(g0%2)[1387]
(g0%2)[1379]
(g1%2)[1380]
(g1%2)[1369]
(g0%1)[1388](g0%1)[1387](g0%1)[1386](g0%1)[1385](g0%1)[1384](g0%1)[1383]
(g1%2)[1384]
(g0%1)[1387]
(g0%1)[1396]
(g0%1)[1388]
(g1%2)[1405]
(g0%2)[1392]
(g0%1)[1400](g0%1)[1399](g0%1)[1398](g0%1)[1397](g0%1)[1396](g0%1)[1395]
(g1%2)[1402]
(g1%2)[1387]
(g0%1)[1398]
(g0%1)[1406](g0%1)[1405](g0%1)[1402](g0%1)[1395]
(g0%1)[1394]
(g1%2)[1398]
(g1%2)[1405](g1%2)[1404](g0%2)[1401](g0%2)[1400]
(g1%2)[1406]
(g0%2)[1392]
(g0%2)[1385]
(g0%1)[1392]
(g0%2)[1408]
(g0%2)[1403]
(g0%1)[1383]
(g1%2)[1383]
(g1%2)[1381]
(g0%2)[1370]
(g1%2)[1402]
(g1%2)[1406]
(g0%2)[1403]
(g1%2)[1387]
(g0%1)[1400]
(g0%1)[1406]
(g0%1)[1408](g0%1)[1403]
(g0%1)[1396]
(g1%2)[1393]
(g0%2)[1405]
(g0%2)[1394]
(g1%2)[1408](g1%2)[1407]
(g0%2)[1405]
(g0%1)[1337]
(g0%1)[1326]
(g0%1)[1336](g0%1)[1335](g0%1)[1334](g0%1)[1333](g0%1)[1332](g0%1)[1331]
(g0%1)[1360]
(g0%1)[1367]
(g1%2)[1352]
(g0%2)[1370]
(g0%1)[1371]
(g1%2)[1358]
(g1%2)[1380]
(g0%2)[1388]
(g1%2)[1391]
(g1%2)[1388]
(g0%2)[1384]
(g0%2)[1387]
(g1%2)[1383]
(g1%2)[1380]
(g0%2)[1393]
(g1%2)[1387]
(g0%1)[1392]
(g0%1)[1393](g0%1)[1392]
(g0%1)[1398]
(g0%1)[1382]
(g0%1)[1379]
(g0%1)[1382](g0%1)[1377]
(g1%2)[1377]
(g0%2)[1391]
(g1%2)[1386]
(g0%1)[1377]
(g0%1)[1378](g0%1)[1377]
(g0%2)[1374]
(g1%2)[1393]
(g0%1)[1396]
(g1%2)[1406]
(g1%2)[1414]
(g0%1)[1402]
(g1%2)[1402]
(g1%2)[1399]
(g0%1)[1406]
(g0%1)[1409]
(g1%2)[1405]
(g1%2)[1396]
(g1%2)[1407]
(g1%2)[1411]
(g0%1)[1410]
(g0%1)[1413]
(g0%1)[1416](g0%1)[1411]
(g0%1)[1418]
(g0%1)[1420]
(g1%2)[1419]
(g0%2)[1408]
(g1%2)[1405]
(g0%1)[1414]
(g0%1)[1430]
(g0%2)[1423]
(g1%2)[1422]
(g1%2)[1418](g1%2)[1417](g0%2)[1414](g0%2)[1413]
(g0%2)[1435]
(g0%2)[1427]
(g0%1)[1423]
(g1%2)[1422]
(g0%1)[1433]
(g0%2)[1436]
(g1%2)[1452](g1%2)[1451]
(g0%2)[1449]
(g1%2)[1440]
(g0%2)[1447]
(g1%2)[1443]
(g0%1)[1442]
(g0%1)[1434]
(g1%2)[1451]
(g1%2)[1437]
(g1%2)[1446]
(g1%2)[1450]
(g0%2)[1446]
(g1%2)[1448](g0%2)[1447](g0%2)[1446](g0%2)[1445]
(g1%2)[1467]
(g0%1)[1460]
(g0%1)[1461](g0%1)[1460]
(g0%1)[1532]
(g1%2)[1535]
(g1%2)[1543]
(g0%2)[1540]
(g0%2)[1523]
(g1%2)[1536]
(g1%2)[1534]
(g1%2)[1520]
(g0%1)[1519]
(g0%1)[1521](g0%1)[1516]
(g0%1)[1529](g0%1)[1522]
(g0%1)[1533](g0%1)[1532](g0%1)[1531](g0%1)[1530](g0%1)[1529](g0%1)[1528]
(g0%1)[1561]
(g0%1)[1571]
(g0%1)[1571]
(g1%2)[1574]
(g1%2)[1566]
(g1%2)[1567]
(g1%2)[1565]
(g1%2)[1566]
(g0%1)[1570](g0%1)[1569]
(g1%2)[1567]
(g0%1)[1570](g0%1)[1567]
(g0%1)[1549]
(g0%1)[1551](g0%1)[1546]
(g1%2)[1546]
(g1%2)[1561]
(g0%2)[1556]
(g1%2)[1546]
(g0%2)[1569]
(g1%2)[1558]
(g1%2)[1558]
(g1%2)[1555]
(g0%1)[1548]
(g1%2)[1548]
(g0%2)[1555](g0%2)[1554](g1%2)[1551](g1%2)[1550]
(g0%2)[1558]
(g1%2)[1553]
(g1%2)[1562]
(g0%2)[1564]
(g0%1)[1574]
(g1%2)[1574]
(g1%2)[1575]
(g0%2)[1588]
(g1%2)[1584]
(g1%2)[1578]
(g1%2)[1580](g1%2)[1579](g1%2)[1578](g0%2)[1577](g0%2)[1576](g0%2)[1575]
(g0%1)[1568]
(g0%1)[1560]
(g0%1)[1566]
(g1%2)[1573]
(g0%1)[1592]
(g1%2)[1606]
(g0%2)[1607]
(g1%2)[1608]
(g0%2)[1604]
(g1%2)[1609]
(g1%2)[1620]
(g0%2)[1616]
(g1%2)[1623]
(g0%2)[1612]
(g0%1)[1607]
(g1%2)[1595]
(g0%2)[1601]
(g0%1)[1591]
(g0%1)[1602]
(g0%1)[1589]
(g1%2)[1595]
(g0%2)[1605]
(g1%2)[1602]
(g0%1)[1597]
(g0%1)[1597]
(g0%1)[1606]
(g0%1)[1613]
(g0%1)[1610]
(g0%1)[1596]
(g1%2)[1615]
(g1%2)[1611](g1%2)[1610](g1%2)[1609](g0%2)[1608](g0%2)[1607](g0%2)[1606]
(g1%2)[1590]
(g1%2)[1584]
(g0%2)[1599]
(g0%1)[1596]
(g1%2)[1611]
(g0%1)[1614]
(g0%2)[1613]
(g0%2)[1622]
(g0%1)[1597]
(g1%2)[1593]
(g0%2)[1591](g0%2)[1590](g1%2)[1587](g1%2)[1586]
(g1%2)[1597](g1%2)[1596](g0%2)[1593](g0%2)[1592]
(g0%2)[1592]
(g0%1)[1599]
(g1%2)[1603]
(g1%2)[1606]
(g0%1)[1588]
(g0%2)[1584]
(g1%2)[1576]
(g0%2)[1586]
(g0%2)[1588]
(g1%2)[1595]
(g0%1)[1604]
(g1%2)[1603]
(g1%2)[1604]
(g1%2)[1616](g1%2)[1615]
(g1%2)[1613]
(g0%1)[1606]
(g1%2)[1612]
(g0%2)[1634]
(g0%2)[1624]
(g0%1)[1622]
(g0%1)[1616]
(g1%2)[1607]
(g0%2)[1602]
(g0%1)[1581](g0%1)[1580](g0%1)[1579](g0%1)[1578]
(g1%2)[1573]
(g0%1)[1564](g0%1)[1557](g0%1)[1554](g0%1)[1553]
(g0%1)[1568]
(g1%2)[1572]
(g1%2)[1575]
(g0%2)[1564]
(g0%2)[1556]
(g0%1)[1568](g0%1)[1557]
(g0%1)[1558]
(g1%2)[1562]
(g1%2)[1560]
(g1%2)[1573]
(g0%1)[1566]
(g0%1)[1559]
(g0%1)[1573]
(g0%1)[1561]
(g0%1)[1568]
(g0%1)[1569]
(g0%1)[1594]
(g1%2)[1601]
(g0%1)[1594]
(g0%1)[1595]
(g1%2)[1600]
(g0%2)[1595]
(g0%1)[1590]
(g0%1)[1591]
(g0%1)[1591](g0%1)[1590](g0%1)[1589](g0%1)[1588]
(g0%2)[1602]
(g0%2)[1596]
(g1%2)[1598]
(g0%2)[1595]
(g1%2)[1598]
(g0%2)[1599]
(g1%2)[1596](g1%2)[1595]
(g0%1)[1600]
(g0%1)[1607]
(g0%1)[1601]
(g0%1)[1595]
(g1%2)[1605]
(g0%2)[1605]
(g1%2)[1620]
(g1%2)[1622]
(g1%2)[1619](g1%2)[1618](g1%2)[1617](g0%2)[1616](g0%2)[1615](g0%2)[1614]
(g1%2)[1594]
(g0%2)[1605]
(g1%2)[1600]
(g1%8)[1588]
(g0%2)[1589]
(g0%1)[1590]
(g1%2)[1604]
(g1%2)[1600](g1%2)[1599](g0%2)[1596](g0%2)[1595]
(g1%2)[1595]
(g1%2)[1600]
(g0%2)[1596]
(g0%2)[1611]
(g1%2)[1611]
(g0%2)[1610]
(g0%2)[1615]
(g0%2)[1610]
(g0%1)[1607]
(g0%1)[1600]
(g1%2)[1612]
(g1%2)[1620]
(g0%1)[1619]
(g1%2)[1602]
(g1%2)[1598](g1%2)[1597](g0%2)[1594](g0%2)[1593]
(g0%2)[1605]
(g0%2)[1607]
(g0%1)[1618]
(g1%2)[1618]
(g1%2)[1597]
(g0%1)[1588](g0%1)[1585]
(g0%1)[1578]
(g0%1)[1585]
(g1%2)[1573]
(g0%2)[1577]
(g1%2)[1578]
(g1%2)[1569]
(g0%1)[1558](g0%1)[1547]
(g0%1)[1548]
(g0%1)[1551](g0%1)[1546]
(g1%2)[1546]
(g0%2)[1544]
(g1%2)[1541]
(g1%2)[1537](g1%2)[1536](g0%2)[1533](g0%2)[1532]
(g1%2)[1537]
(g0%2)[1535]
(g1%2)[1551]
(g1%2)[1552]
(g1%2)[1549]
(g0%1)[1540]
(g1%2)[1513]
(g0%2)[1515](g0%2)[1514](g1%2)[1511](g1%2)[1510]
(g1%2)[1517]
(g0%2)[1517]
(g0%1)[1527]
(g0%1)[1520]
(g1%2)[1527]
(g0%2)[1528]
(g0%2)[1512]
(g1%2)[1524]
(g1%2)[1535]
(g0%1)[1538]
(g0%1)[1535]
(g0%1)[1542]
(g0%1)[1539]
(g0%1)[1531]
(g0%1)[1545]
(g0%1)[1543]
(g0%1)[1551]
(g0%1)[1533]
(g1%2)[1549]
(g0%2)[1546]
(g0%2)[1544]
(g0%1)[1541](g0%1)[1538](g0%1)[1536]
(g0%2)[1561]
(g0%1)[1571]
(g1%2)[1571]
(g0%2)[1572]
(g0%1)[1580]
(g0%1)[1584]
(g1%2)[1575]
(g0%2)[1574]
(g1%2)[1579]
(g0%2)[1578]
(g0%1)[1566](g0%1)[1565](g0%1)[1564](g0%1)[1563](g0%1)[1562](g0%1)[1561]
(g1%2)[1533]
(g1%2)[1527]
(g0%1)[1540]
(g0%1)[1543]
(g0%2)[1529]
(g0%2)[1528](g0%2)[1527](g1%2)[1524](g1%2)[1523]
(g1%2)[1531]
(g1%2)[1540]
(g0%1)[1532]
(g1%2)[1529]
(g0%2)[1521]
(g1%2)[1524]
(g0%2)[1535]
(g0%1)[1542](g0%1)[1535]
(g0%1)[1533]
(g0%1)[1524]
(g1%2)[1527]
(g0%2)[1531]
(g1%2)[1542]
(g0%1)[1537]
(g0%1)[1523](g0%1)[1522](g0%1)[1519](g0%1)[1512]
(g0%1)[1527]
(g0%1)[1527]
(g0%1)[1526]
(g1%2)[1521]
(g0%2)[1535]
(g1%2)[1524]
(g1%2)[1528]
(g0%2)[1520]
(g1%2)[1533]
(g1%2)[1530]
(g1%2)[1535]
(g1%2)[1540]
(g0%1)[1529]
(g0%1)[1522]
(g1%2)[1537]
(g1%2)[1527](g1%2)[1526](g0%2)[1523](g0%2)[1522]
(g0%2)[1521](g0%2)[1520](g1%2)[1517](g1%2)[1516]
(g0%2)[1518]
(g1%2)[1527]
(g0%2)[1514]
(g0%1)[1516]
(g1%2)[1513]
(g0%2)[1517]
(g0%1)[1524]
(g1%2)[1525]
(g1%2)[1523]
(g0%1)[1534]
(g0%1)[1533]
(g0%1)[1536](g0%1)[1535](g0%1)[1534](g0%1)[1533]
(g1%2)[1528]
(g0%1)[1521]
(g1%2)[1524]
(g0%2)[1517]
(g0%2)[1513]
(g1%2)[1517]
(g1%8)[1536]
(g0%1)[1529]
(g1%2)[1524]
(g1%2)[1506]
(g0%2)[1491]
(g0%1)[1486]
(g1%2)[1489]
(g0%2)[1497]
(g1%2)[1499]
(g0%2)[1483]
(g0%2)[1469]
(g0%2)[1471]
(g1%2)[1463]
(g0%2)[1467](g0%2)[1466]
(g0%1)[1471]
(g1%2)[1467]
(g0%2)[1474]
(g0%2)[1478]
(g1%2)[1474]
(g0%1)[1462]
(g1%2)[1467]
(g1%2)[1485]
(g0%2)[1500]
(g0%1)[1514]
(g1%2)[1514]
(g0%2)[1504]
(g0%2)[1525]
(g0%2)[1518]
(g1%2)[1523]
(g1%2)[1528]
(g0%1)[1532]
(g0%1)[1536]
(g1%2)[1532]
(g0%2)[1539]
(g0%2)[1543]
(g1%2)[1539]
(g0%1)[1527]
(g1%2)[1532]
(g1%2)[1550]
(g0%2)[1565]
(g0%1)[1579]
(g1%2)[1579]
(g0%2)[1569]
(g0%2)[1590]
(g0%2)[1583]
(g1%2)[1588]
(g1%2)[1593]
(g0%1)[1597]
(g0%2)[1606]
(g0%2)[1618]
(g1%2)[1631]
(g0%1)[1650]
(g0%2)[1640]
(g1%2)[1638]
(g0%2)[1648]
(g1%2)[1645]
(g0%1)[1640]
(g0%1)[1630]
(g1%2)[1630]
(g0%2)[1646]
(g0%1)[1646]
(g0%2)[1639]
(g0%1)[1632](g0%1)[1628]
(g0%1)[1625]
(g1%2)[1624]
(g0%2)[1622](g0%2)[1621]
(g0%1)[1617]
(g0%1)[1620](g0%1)[1615]
(g0%1)[1627]
(g0%1)[1631]
(g0%1)[1633]
(g0%1)[1621](g0%1)[1620]
(g0%1)[1614](g0%1)[1613](g0%1)[1612](g0%1)[1611]
(g1%2)[1628]
(g1%2)[1647]
(g0%2)[1642]
(g1%2)[1635]
(g1%2)[1646](g1%2)[1645]
(g0%1)[1659]
(g1%2)[1659]
(g0%2)[1658]
(g0%2)[1663]
(g1%2)[1653]
(g1%2)[1659]
(g0%2)[1658]
(g0%1)[1665]
(g0%1)[1667](g0%1)[1662]
(g1%2)[1667]
(g1%2)[1665]
(g0%2)[1665]
(g1%2)[1669]
(g1%2)[1678]
(g0%1)[1681]
(g0%2)[1685]
(g0%1)[1697]
(g0%1)[1696]
(g0%1)[1698](g0%1)[1693]
(g1%2)[1698]
(g0%2)[1697](g0%2)[1696](g1%2)[1693](g1%2)[1692]
(g0%2)[1709]
(g0%1)[1702]
(g1%2)[1698]
(g1%2)[1706]
(g0%2)[1706]
(g0%1)[1708](g0%1)[1707](g0%1)[1706](g0%1)[1705](g0%1)[1704]
(g1%2)[1708]
(g0%1)[1683]
(g1%2)[1687]
(g0%2)[1695]
(g0%2)[1699]
(g0%2)[1689]
(g0%2)[1681]
(g0%1)[1692]
(g1%2)[1692]
(g0%2)[1689]
(g1%2)[1692]
(g1%2)[1693]
(g0%2)[1696]
(g0%2)[1685](g0%2)[1684]
(g0%2)[1681]
(g1%2)[1692]
(g1%2)[1682]
(g0%2)[1681]
(g1%2)[1680]
(g1%2)[1679]
(g0%2)[1684]
(g0%1)[1713]
(g1%2)[1712]
(g0%2)[1715]
(g0%1)[1721]
(g0%1)[1719]
(g0%1)[1721]
(g0%1)[1728]
(g0%1)[1717]
(g0%1)[1722]
(g0%1)[1726]
(g1%2)[1711]
(g0%2)[1720](g0%2)[1719](g1%2)[1716](g1%2)[1715]
(g1%2)[1722]
(g0%2)[1717]
(g0%2)[1707]
(g0%1)[1719](g0%1)[1718]
(g1%8)[1713]
(g0%2)[1696]
(g1%2)[1678]
(g0%2)[1678]
(g0%1)[1689]
(g0%1)[1690]
(g0%1)[1684]
(g0%1)[1682]
(g1%2)[1686]
(g0%1)[1677]
(g0%2)[1690]
(g0%2)[1697]
(g0%1)[1705]
(g0%1)[1697]
(g0%1)[1711]
(g1%2)[1703]
(g0%2)[1715]
(g0%1)[1708]
(g1%2)[1708]
(g0%1)[1704]
(g0%2)[1712]
(g0%2)[1697]
(g1%2)[1702]
(g1%2)[1697]
(g0%2)[1687]
(g1%2)[1690]
(g1%2)[1691]
(g0%2)[1681]
(g0%2)[1694]
(g0%1)[1692]
(g0%2)[1693]
(g0%1)[1693]
(g0%1)[1705]
(g1%2)[1701]
(g0%1)[1717]
(g0%2)[1699](g0%2)[1698](g1%2)[1695](g1%2)[1694]
(g0%2)[1692]
(g0%2)[1692]
(g1%2)[1708]
(g0%2)[1711]
(g1%2)[1718]
(g1%2)[1717]
(g1%2)[1716]
(g1%2)[1706]
(g0%2)[1712]
(g1%2)[1721]
(g1%2)[1701]
(g0%2)[1699]
(g0%2)[1690]
(g0%8)[1696]
(g0%1)[1711]
(g1%2)[1712]
(g0%2)[1710]
(g0%2)[1707]
(g0%2)[1719]
(g0%1)[1724](g0%1)[1723](g0%1)[1722]
(g0%2)[1718]
(g0%2)[1705]
(g0%1)[1724](g0%1)[1721]
(g0%1)[1712]
(g1%2)[1711]
(g1%2)[1720]
(g0%1)[1728]
(g0%2)[1719]
(g0%2)[1726]
(g0%1)[1706]
(g0%1)[1710]
(g0%2)[1667]
(g0%1)[1650]
(g0%1)[1657]
(g1%2)[1649]
(g1%2)[1636]
(g0%1)[1643]
(g1%2)[1642]
(g1%2)[1657]
(g0%2)[1652]
(g1%2)[1644]
(g1%2)[1629]
(g1%2)[1634]
(g0%2)[1650]
(g0%1)[1656](g0%1)[1655](g0%1)[1652](g0%1)[1648]
(g0%1)[1637]
(g1%2)[1641]
(g0%1)[1632](g0%1)[1631](g0%1)[1630](g0%1)[1629](g0%1)[1628]
(g1%2)[1635]
(g0%2)[1636]
(g0%1)[1635]
(g0%1)[1641]
(g1%2)[1644]
(g0%2)[1649]
(g0%1)[1640]
(g0%1)[1628]
(g1%2)[1620]
(g1%2)[1623](g1%2)[1622](g0%2)[1619](g0%2)[1618]
(g0%2)[1623]
(g1%2)[1621]
(g1%2)[1616]
(g0%2)[1616]
(g0%1)[1619]
(g0%1)[1622](g0%1)[1617]
(g1%2)[1622]
(g1%2)[1615](g1%2)[1614](g0%2)[1611](g0%2)[1610]
(g1%2)[1610]
(g0%2)[1613]
(g1%2)[1610]
(g0%1)[1601]
(g1%2)[1601]
(g0%1)[1605]
(g1%2)[1609]
(g1%2)[1605]
(g0%1)[1628]
(g1%2)[1625]
(g0%2)[1623](g0%2)[1622](g1%2)[1619]
(g1%2)[1631]
(g0%2)[1633]
(g0%2)[1642]
(g1%2)[1625]
(g0%8)[1634]
(g1%2)[1623](g1%2)[1622](g1%2)[1621](g0%2)[1620](g0%2)[1619]
(g1%2)[1613]
(g1%2)[1453]
(g1%2)[1451]
(g0%1)[1439]
(g0%2)[1440]
(g0%1)[1430](g0%1)[1429](g0%1)[1428](g0%1)[1427](g0%1)[1426](g0%1)[1425]
(g0%1)[1419]
(g1%2)[1422]
(g0%2)[1430]
(g0%2)[1427]
(g1%2)[1432]
(g0%2)[1428]
(g1%2)[1428]
(g1%2)[1420]
(g0%1)[1396]
(g0%2)[1383]
(g0%1)[1389]
(g1%2)[1396]
(g1%2)[1380]
(g1%2)[1395]
(g1%2)[1412]
(g1%2)[1404]
(g0%2)[1412](g0%2)[1411](g0%2)[1410]
(g0%1)[1398](g0%1)[1397](g0%1)[1396](g0%1)[1395]
(g0%1)[1358]
(g0%1)[1368](g0%1)[1367](g0%1)[1364]
(g1%2)[1355]
(g0%1)[1349]
(g0%2)[1351]
(g1%2)[1363]
(g1%2)[1361]
(g0%1)[1347]
(g0%1)[1350]
(g0%1)[1352](g0%1)[1347]
(g0%1)[1340]
(g0%1)[1342]
(g0%1)[1351]
(g0%1)[1347]
(g0%1)[1338]
(g1%2)[1338]
(g0%2)[1336]
(g0%2)[1341]
(g0%2)[1349]
(g1%2)[1329]
(g0%1)[1335]
(g1%2)[1345]
(g1%2)[1339]
(g0%1)[1330]
(g1%2)[1330]
(g1%2)[1343](g1%2)[1342](g0%2)[1339](g0%2)[1338]
(g0%2)[1341]
(g1%2)[1342]
(g0%2)[1353]
(g0%1)[1350]
(g1%2)[1346]
(g0%2)[1341]
(g0%1)[1350]
(g0%1)[1352]
(g1%2)[1356]
(g0%2)[1364]
(g0%2)[1370]
(g1%2)[1361]
(g0%2)[1357]
(g0%1)[1360]
(g0%2)[1347]
(g0%2)[1330]
(g1%2)[1331]
(g0%1)[1333]
(g1%2)[1333]
(g1%2)[1331](g1%2)[1330](g0%2)[1327](g0%2)[1326]
(g0%2)[1321]
(g1%2)[1331]
(g0%2)[1324]
(g0%2)[1332]
(g0%1)[1333](g0%1)[1332](g0%1)[1329](g0%1)[1322]
(g1%2)[1312](g1%2)[1311](g0%2)[1308](g0%2)[1307]
(g1%2)[1307]
(g1%2)[1312]
(g0%2)[1314]
(g0%1)[1298]
(g1%2)[1297]
(g0%1)[1293]
(g1%2)[1289]
(g0%2)[1293]
(g1%2)[1290]
(g0%2)[1303]
(g0%2)[1304]
(g1%2)[1291]
(g0%1)[1289](g0%1)[1288](g0%1)[1287](g0%1)[1286](g0%1)[1285](g0%1)[1284]
(g0%1)[1318]
(g0%1)[1317]
(g1%2)[1317]
(g1%2)[1302]
(g0%2)[1307]
(g0%2)[1310]
(g0%2)[1317]
(g0%1)[1305](g0%1)[1304](g0%1)[1303](g0%1)[1302](g0%1)[1301](g0%1)[1300]
(g0%1)[1276]
(g1%2)[1280]
(g1%2)[1260]
(g0%1)[1254](g0%1)[1253](g0%1)[1252]
(g0%1)[1251]
(g0%1)[1265]
(g0%1)[1272]
(g1%2)[1264]
(g1%2)[1256]
(g1%2)[1258]
(g0%1)[1236]
(g0%1)[1245]
(g0%1)[1255]
(g1%2)[1288]
(g1%2)[1276]
(g0%2)[1287]
(g0%1)[1279]
(g0%1)[1293]
(g0%1)[1285]
(g1%2)[1293]
(g1%2)[1301]
(g1%2)[1299]
(g0%1)[1279]
(g0%1)[1286]
(g0%1)[1288]
(g1%2)[1277]
(g0%1)[1287](g0%1)[1286](g0%1)[1285](g0%1)[1284](g0%1)[1283]
(g1%2)[1292]
(g0%1)[1299]
(g0%1)[1291]
(g0%1)[1291]
(g0%1)[1308](g0%1)[1307](g0%1)[1304]
(g0%1)[1309](g0%1)[1302]
(g0%1)[1300]
(g1%2)[1300]
(g0%2)[1288]
(g0%2)[1297]
(g1%2)[1301]
(g1%2)[1302]
(g0%2)[1304]
(g0%2)[1309]
(g0%1)[1289]
(g1%2)[1273]
(g0%2)[1276]
(g0%2)[1267]
(g0%2)[1261]
(g1%2)[1267]
(g1%2)[1285]
(g0%1)[1298](g0%1)[1297](g0%1)[1296](g0%1)[1295](g0%1)[1294]
(g0%2)[1277]
(g1%2)[1280]
(g0%2)[1273]
(g0%1)[1285]
(g0%1)[1286]
(g1%2)[1286]
(g1%2)[1296]
(g0%1)[1296]
(g1%2)[1298]
(g1%2)[1296]
(g0%2)[1313]
(g1%2)[1318]
(g0%2)[1313]
(g1%2)[1305]
(g0%1)[1299](g0%1)[1298]
(g1%2)[1287]
(g0%2)[1286]
(g0%1)[1291]
(g0%1)[1293](g0%1)[1292](g0%1)[1291](g0%1)[1290](g0%1)[1289]
(g1%2)[1293]
(g0%1)[1303](g0%1)[1302](g0%1)[1301](g0%1)[1300](g0%1)[1299](g0%1)[1298]
(g1%2)[1298]
(g0%2)[1296]
(g0%2)[1292]
(g0%1)[1296]
(g1%2)[1292]
(g0%2)[1301](g0%2)[1300](g1%2)[1297](g1%2)[1296]
(g0%2)[1295]
(g1%2)[1288]
(g0%2)[1307]
(g0%2)[1297]
(g0%2)[1316]
(g0%2)[1314]
(g0%1)[1303]
(g0%1)[1307]
(g1%2)[1303]
(g0%2)[1328]
(g0%1)[1319]
(g1%2)[1298]
(g0%1)[1287]
(g0%1)[1274]
(g0%1)[1281]
(g1%2)[1271]
(g0%2)[1271]
(g0%1)[1275](g0%1)[1273](g0%1)[1272](g0%1)[1268](g0%1)[1267]
(g0%1)[1266]
(g1%2)[1266]
(g1%2)[1271]
(g0%2)[1255]
(g1%2)[1265]
(g1%2)[1265](g1%2)[1264](g1%2)[1263](g0%2)[1262](g0%2)[1261](g0%2)[1260]
(g0%1)[1252]
(g0%1)[1254](g0%1)[1249]
(g1%2)[1254]
(g0%2)[1240]
(g0%2)[1248]
(g0%1)[1250]
(g0%2)[1255]
(g0%2)[1247]
(g0%2)[1251](g0%2)[1250](g0%2)[1249](g1%2)[1247](g1%2)[1246]
(g0%1)[1269]
(g0%1)[1284]
(g1%2)[1284]
(g1%2)[1270]
(g0%2)[1281]
(g0%1)[1284]
(g0%1)[1294](g0%1)[1287]
(g1%2)[1270]
(g0%1)[1264]
(g1%2)[1268]
(g1%2)[1275](g1%2)[1274](g0%2)[1271](g0%2)[1270]
(g1%2)[1262]
(g0%2)[1260]
(g0%2)[1251]
(g1%2)[1268]
(g1%8)[1259]
(g0%1)[1251]
(g1%2)[1250]
(g0%1)[1245]
(g1%2)[1251]
(g0%2)[1264]
(g0%2)[1260]
(g0%2)[1275](g0%2)[1274](g0%2)[1273](g1%2)[1272](g1%2)[1271](g1%2)[1270]
(g0%1)[1270](g0%1)[1269](g0%1)[1268](g0%1)[1267](g0%1)[1266](g0%1)[1265]
(g0%1)[1256]
(g1%2)[1256]
(g0%2)[1254]
(g0%2)[1253]
(g0%2)[1246]
(g0%2)[1240]
(g0%2)[1254](g0%2)[1253]
(g0%2)[1221]
(g1%2)[1193]
(g0%1)[1196]
(g0%2)[1200]
(g0%2)[1196]
(g0%2)[1191]
(g1%2)[1196]
(g0%1)[1202]
(g1%2)[1199]
(g0%1)[1178]
(g1%2)[1179]
(g1%2)[1170]
(g0%1)[1151]
(g0%1)[1151]
(g1%2)[1148]
(g1%2)[1150]
(g0%2)[1133]
(g1%2)[1128]
(g0%2)[1133]
(g1%2)[1141]
(g0%1)[1148](g0%1)[1147]
(g0%1)[1155]
(g0%1)[1162]
(g0%2)[1171]
(g0%2)[1164]
(g0%1)[1184]
(g0%1)[1180]
(g0%2)[1192]
(g0%1)[1189]
(g0%2)[1196]
(g1%2)[1192]
(g0%2)[1164]
(g0%1)[1148](g0%1)[1147](g0%1)[1146](g0%1)[1145](g0%1)[1144](g0%1)[1143]
(g0%1)[1152]
(g0%1)[1153]
(g0%1)[1152]
(g0%1)[1178]
(g1%2)[1178]
(g0%2)[1170](g0%2)[1169](g1%2)[1166](g1%2)[1165]
(g0%1)[1187]
(g0%2)[1193]
(g0%1)[1177](g0%1)[1174]
(g1%2)[1178]
(g0%1)[1208]
(g1%2)[1211]
(g1%2)[1219]
(g0%2)[1216]
(g0%2)[1199]
(g0%1)[1195]
(g0%2)[1211]
(g1%2)[1202]
(g0%2)[1210]
(g0%1)[1202]
(g1%2)[1202]
(g0%1)[1198]
(g0%1)[1196]
(g1%2)[1198]
(g0%1)[1191]
(g1%2)[1191]
(g0%2)[1189]
(g0%2)[1180]
(g0%2)[1178]
(g1%2)[1183](g1%2)[1182]
(g1%2)[1203]
(g1%2)[1173]
(g0%2)[1181]
(g1%2)[1202]
(g1%2)[1192]
(g0%2)[1186]
(g0%1)[1183]
(g1%2)[1190]
(g1%2)[1196]
(g1%2)[1149]
(g0%2)[1142]
(g0%2)[1125]
(g1%2)[1128]
(g1%2)[1109]
(g0%1)[1113]
(g0%1)[1102]
(g1%2)[1109]
(g0%2)[1082]
(g0%1)[1087]
(g0%2)[1087]
(g0%1)[1089]
(g1%2)[1092]
(g0%2)[1088]
(g0%1)[1093]
(g0%2)[1077](g0%2)[1076](g0%2)[1075](g1%2)[1074](g1%2)[1073](g1%2)[1072]
(g1%2)[1038]
(g1%2)[1041]
(g0%2)[1042]
(g0%1)[1048]
(g0%1)[1035]
(g1%2)[1036]
(g1%2)[1034](g1%2)[1033](g0%2)[1030](g0%2)[1029]
(g0%2)[1026]
(g1%2)[1031]
(g1%2)[1029]
(g0%1)[1039]
(g0%1)[1042](g0%1)[1037]
(g0%1)[1030]
(g1%2)[1045]
(g1%2)[1057]
(g1%2)[1031]
(g0%1)[1037]
(g1%2)[1033]
(g0%1)[1046](g0%1)[1045](g0%1)[1044](g0%1)[1043](g0%1)[1042]
(g1%2)[1034]
(g0%1)[1045]
(g1%2)[1015]
(g1%2)[1005]
(g0%1)[997]
(g0%1)[1008]
(g0%1)[1030]
(g0%1)[1038]
(g1%2)[1030]
(g0%1)[1046]
(g0%1)[1049](g0%1)[1044]
(g0%1)[1056]
(g1%2)[1047]
(g1%2)[1065]
(g0%1)[1082]
(g0%1)[1106]
(g0%1)[1115]
(g1%2)[1118]
(g1%2)[1118]
(g0%2)[1110]
(g1%2)[1124]
(g0%1)[1112]
(g1%2)[1119]
(g0%2)[1106]
(g0%2)[1109]
(g1%2)[1112]
(g0%2)[1113]
(g0%2)[1105]
(g0%1)[1097]
(g1%2)[1094]
(g0%2)[1089]
(g0%1)[1098]
(g0%1)[1118]
(g0%1)[1121](g0%1)[1116]
(g1%2)[1116]
(g0%1)[1109]
(g1%2)[1105]
(g0%2)[1097]
(g0%1)[1085]
(g1%2)[1085]
(g0%1)[1082](g0%1)[1075]
(g0%2)[1109]
(g0%2)[1128](g0%2)[1127](g1%2)[1124](g1%2)[1123]
(g1%2)[1128]
(g0%2)[1125]
(g1%2)[1128]
(g0%2)[1117]
(g0%2)[1117]
(g1%2)[1126]
(g0%2)[1135]
(g1%8)[1112]
(g0%2)[1099]
(g0%2)[1093]
(g1%2)[1100]
(g0%1)[1091]
(g1%2)[1091]
(g1%2)[1100]
(g0%2)[1098](g0%2)[1097](g1%2)[1094](g1%2)[1093]
(g0%2)[1092]
(g0%1)[1087]
(g0%2)[1083]
(g1%2)[1079]
(g1%2)[1095]
(g1%2)[1083]
(g0%1)[1075]
(g0%1)[1078](g0%1)[1073]
(g1%2)[1073]
(g1%2)[1062]
(g1%2)[1086]
(g1%2)[1084]
(g0%1)[1079](g0%1)[1078](g0%1)[1077](g0%1)[1076](g0%1)[1075]
(g0%1)[1074](g0%1)[1073](g0%1)[1072](g0%1)[1071](g0%1)[1070](g0%1)[1069]
(g0%1)[1082]
(g0%1)[1082]
(g1%2)[1079]
(g1%2)[1079]
(g0%2)[1071]
(g0%1)[1094]
(g1%2)[1098]
(g0%1)[1111]
(g0%1)[1111]
(g0%1)[1113](g0%1)[1108]
(g1%2)[1111]
(g0%2)[1117]
(g1%2)[1108]
(g0%2)[1119]
(g0%1)[1113]
(g1%8)[1112](g7%8)[1112]
(g0%2)[1114]
(g0%1)[1122]
(g0%1)[1122]
(g0%1)[1124](g0%1)[1119]
(g1%2)[1119]
(g0%2)[1119]
(g1%2)[1132]
(g0%2)[1116]
(g0%1)[1133]
(g0%2)[1096]
(g0%1)[1082]
(g1%2)[1079]
(g1%2)[1071]
(g1%2)[1080]
(g0%1)[1079]
(g0%2)[1073]
(g1%2)[1076]
(g0%1)[1082]
(g0%1)[1092]
(g1%2)[1088]
(g1%2)[1096]
(g1%2)[1080]
(g0%2)[1087]
(g0%2)[1099]
(g0%2)[1099]
(g0%1)[1103]
(g0%1)[1101]
(g0%1)[1090]
(g0%1)[1109]
(g1%2)[1113]
(g1%2)[1120](g1%2)[1119](g0%2)[1116](g0%2)[1115]
(g1%2)[1121]
(g0%2)[1107]
(g0%2)[1116]
(g0%2)[1126]
(g0%2)[1110]
(g0%1)[1117]
(g1%2)[1107]
(g1%2)[1125]
(g0%2)[1120]
(g1%2)[1121]
(g1%2)[1124](g1%2)[1123](g0%2)[1120](g0%2)[1119]
(g1%2)[1117]
(g1%2)[1123]
(g1%2)[1133]
(g0%1)[1115]
(g1%2)[1112]
(g1%2)[1112]
(g0%1)[1094]
(g1%2)[1102]
(g0%2)[1102]
(g0%2)[1101]
(g0%2)[1102]
(g0%1)[1118]
(g1%2)[1115]
(g0%2)[1118]
(g0%2)[1069](g0%2)[1068](g0%2)[1067](g1%2)[1066](g1%2)[1065](g1%2)[1064]
(g1%2)[1018]
(g0%1)[1008]
(g0%1)[1020]
(g0%1)[1022](g0%1)[1017]
(g1%2)[1017]
(g0%2)[1031]
(g0%2)[1030]
(g1%2)[1013]
(g1%2)[1016](g1%2)[1015](g0%2)[1012](g0%2)[1011]
(g1%2)[1009]
(g1%2)[1021]
(g0%2)[1025]
(g2%8)[1033]
(g0%1)[1015]
(g1%2)[1018]
(g0%2)[1028]
(g0%2)[1010]
(g0%2)[1020]
(g1%2)[1018]
(g0%2)[1020]
(g1%2)[1022]
(g1%2)[1022]
(g1%2)[1021]
(g0%2)[1016]
(g0%1)[1008]
(g1%2)[1017]
(g1%2)[1010]
(g0%1)[1003](g0%1)[1002](g0%1)[1001](g0%1)[1000](g0%1)[999](g0%1)[998]
(g0%1)[974]
(g1%2)[971]
(g0%2)[975]
(g0%1)[979]
(g1%2)[979]
(g1%2)[973]
(g0%2)[978]
(g0%1)[994]
(g0%1)[986]
(g1%2)[1003]
(g1%2)[999]
(g0%1)[1010]
(g1%2)[993]
(g0%1)[982]
(g1%2)[982]
(g0%1)[979]
(g1%2)[988]
(g1%2)[996]
(g1%2)[998]
(g0%2)[993]
(g0%1)[974](g0%1)[973]
(g0%1)[971]
(g0%1)[963]
(g0%1)[969]
(g1%2)[966]
(g0%2)[986]
(g0%2)[977]
(g0%2)[980]
(g1%2)[985]
(g1%2)[971]
(g0%1)[976](g0%1)[969](g0%1)[966](g0%1)[965]
(g0%1)[989]
(g1%2)[985]
(g0%2)[979]
(g0%1)[985](g0%1)[984](g0%1)[983](g0%1)[982](g0%1)[981](g0%1)[980]
(g0%1)[981]
(g0%1)[998](g0%1)[997](g0%1)[996](g0%1)[995](g0%1)[994](g0%1)[993]
(g0%1)[1001]
(g0%1)[1004](g0%1)[999]
(g1%2)[999]
(g0%2)[1011](g0%2)[1010](g1%2)[1007](g1%2)[1006]
(g1%2)[1011]
(g0%2)[1008]
(g1%2)[1011]
(g0%1)[1026]
(g0%1)[981]
(g1%2)[977]
(g0%2)[972]
(g0%1)[981]
(g0%1)[993]
(g0%1)[993]
(g1%2)[996]
(g1%2)[988]
(g1%2)[1000]
(g0%1)[994]
(g0%2)[997]
(g1%2)[1005]
(g0%1)[992](g0%1)[991](g0%1)[990](g0%1)[989]
(g2%8)[993]
