----- (0,0), 0, 'Switch FSE', offset=(0, 0), setmag=0, priority=2 ----- 53 55 (true, 53+146)
(g0%2)[53]
(g0%1)[55]
(g0%1)[62]
(g0%1)[64]
(g1%2)[47]
(g0%1)[47]
(g0%2)[76]
(g0%2)[72]
(g1%2)[86]
(g0%2)[96]
(g0%2)[105]
(g0%1)[128]
(g0%1)[122](g0%1)[119](g0%1)[118]
(g1%2)[125]
(g0%2)[121]
(g0%2)[135]
(g0%2)[159]
(g1%2)[133]
(g0%2)[134]
(g0%2)[133]
(g0%1)[145]
(g0%1)[156]
(g0%1)[179]
(g0%1)[181](g0%1)[176]
(g0%1)[183]
(g0%1)[182]
(g0%1)[185]
(g0%1)[198](g0%1)[197](g0%1)[196](g0%1)[195](g0%1)[194](g0%1)[193]
(g0%1)[205]
(g0%1)[194]
(g0%1)[228]
(g1%2)[224]
(g1%2)[231]
(g0%2)[231]
(g1%2)[244]
(g0%1)[252]
(g0%1)[246]
(g1%2)[250]
(g0%2)[258]
(g1%2)[255]
(g1%2)[255]
(g0%1)[241]
(g1%2)[237]
(g0%2)[227]
(g0%2)[242]
(g0%2)[249]
(g1%2)[249]
(g0%1)[265]
(g0%2)[256]
(g1%2)[224]
(g1%2)[204]
(g0%1)[122]
(g1%2)[122]
(g0%2)[129](g0%2)[128](g1%2)[125](g1%2)[124]
(g0%2)[135]
(g1%2)[139]
(g0%1)[149](g0%1)[144]
(g1%2)[151]
(g0%1)[113]
(g0%1)[106]
(g0%1)[109]
(g0%1)[104]
(g1%2)[96]
(g0%2)[98]
(g0%2)[74]
(g1%2)[71]
(g0%1)[70]
(g1%2)[41]
(g0%2)[39]
(g1%2)[32]
(g1%2)[21]
(g0%2)[24]
(g1%2)[13]
(g1%2)[29]
(g0%1)[49]
(g1%2)[50]
(g0%2)[49]
(g1%2)[55]
(g1%2)[39]
(g1%2)[39]
(g1%2)[27]
(g1%2)[29]
(g1%2)[35]
(g0%1)[60](g0%1)[53]
(g1%2)[44]
(g1%2)[32]
(g1%2)[44]
(g0%2)[42]
(g0%1)[50]
(g1%2)[41]
(g0%2)[47]
(g0%2)[53]
(g1%2)[48]
(g1%2)[49]
(g0%2)[54]
(g1%2)[47]
(g0%2)[40]
(g0%2)[57]
(g0%2)[60]
(g1%2)[45]
(g0%1)[31]
(g0%1)[32](g0%1)[31]
(g0%1)[37]
(g1%2)[39]
(g0%2)[43]
(g1%2)[37]
(g1%2)[42]
(g1%2)[39]
(g0%2)[54]
(g0%2)[44]
(g0%2)[54]
(g0%2)[42]
(g1%2)[37]
(g1%2)[16](g1%2)[15](g1%2)[14](g0%2)[13](g0%2)[12](g0%2)[11]
(g0%1)[16]
(g0%1)[24]
(g0%2)[29]
(g1%2)[33]
(g5%8)[35]
(g1%2)[27]
(g0%1)[25]
(g0%1)[18]
(g0%1)[32]
(g1%2)[25]
(g0%2)[21]
(g0%2)[36]
(g0%1)[49]
(g0%1)[51](g0%1)[46]
(g1%2)[51]
(g0%2)[50](g0%2)[49](g1%2)[46](g1%2)[45]
(g1%2)[46]
(g0%2)[49]
(g1%2)[55]
(g0%2)[39]
(g0%1)[32](g0%1)[31](g0%1)[30](g0%1)[29](g0%1)[28](g0%1)[27]
(g0%1)[24]
(g0%1)[34]
(g0%2)[45]
(g1%2)[56]
(g0%2)[45]
(g1%2)[50]
(g1%2)[46]
(g0%2)[41]
(g0%2)[48](g0%2)[47](g1%2)[44](g1%2)[43]
(g1%2)[50]
(g0%2)[48]
(g0%2)[49](g0%2)[48](g1%2)[45](g1%2)[44]
(g0%1)[55]
(g1%2)[58]
(g0%2)[68]
(g1%2)[60]
(g0%1)[42]
(g0%1)[42]
(g0%1)[45](g0%1)[40]
(g0%2)[51]
(g0%1)[44]
(g0%1)[39](g0%1)[38](g0%1)[37](g0%1)[36]
(g5%8)[42]
(g0%1)[13]
(g0%1)[26]
(g1%2)[22]
(g0%2)[29]
(g0%2)[33]
(g1%2)[29]
(g0%1)[17]
(g1%2)[22]
(g1%2)[40]
(g0%2)[55]
(g0%1)[69]
(g1%2)[65]
(g0%2)[57]
(g1%2)[51]
(g1%2)[66]
(g1%2)[58]
(g1%2)[69]
(g1%2)[72]
(g0%2)[66]
(g0%1)[60]
(g0%1)[65]
(g0%1)[73](g0%1)[72](g0%1)[69]
(g0%1)[73]
(g0%1)[79]
(g1%2)[57]
(g1%2)[64]
(g0%1)[85]
(g1%2)[96]
(g0%1)[54]
(g0%1)[47]
(g0%1)[53]
(g1%2)[55]
(g1%2)[30](g1%2)[29](g1%2)[22]
(g0%2)[33]
(g0%1)[3]
(g0%1)[-4]
(g0%1)[-6]
(g1%2)[-12]
(g0%2)[-1]
(g0%2)[14]
(g0%1)[110]
(g1%2)[109]
(g0%1)[104]
(g1%2)[122](g1%2)[121](g0%2)[118](g0%2)[117]
(g1%2)[118]
(g1%2)[130]
(g0%2)[118]
(g1%2)[130]
(g1%2)[125]
(g0%1)[179]
(g1%2)[182]
(g0%2)[189]
(g1%2)[186]
(g1%2)[199]
(g1%2)[219](g1%2)[218]
(g0%1)[231]
(g1%2)[227]
(g1%2)[235]
(g1%2)[231]
(g0%2)[235]
(g0%2)[244]
(g1%2)[246]
(g1%2)[230]
(g1%2)[232]
(g0%1)[234]
(g0%1)[244]
(g0%1)[238](g0%1)[235](g0%1)[234]
(g1%2)[241]
(g0%2)[237]
(g0%2)[251]
(g1%2)[265]
(g0%1)[240]
(g0%1)[240]
(g0%1)[212]
(g0%1)[204]
(g1%2)[216]
(g0%2)[211]
(g0%2)[205]
(g0%2)[213]
(g0%1)[219]
(g0%1)[174](g0%1)[173](g0%1)[170](g0%1)[163]
(g0%1)[159]
(g1%2)[155]
(g1%2)[151]
(g1%2)[152]
(g1%2)[158]
(g0%1)[172](g0%1)[171](g0%1)[168](g0%1)[161]
--(g0%1)[157]-- start in an arbitrary phase but even line
