----- (1,1), 4, 'FSE Cleanup', offset=(0, 0), setmag=-1, priority=1 -----
(g0%1)[-18](g0%1)[-15](g0%1)[-13](g0%1)[-12](g0%1)[-8] 
(g0%1)[-17](g0%1)[-14](g0%1)[-13] 
(g1%2)[9] 
(g0%1)[20](g0%1)[27](g0%1)[30](g0%1)[31] 
(g1%2)[27] 
(g0%1)[-1](g0%1)[4](g0%1)[8] 
(g0%2)[20] 
(g1%2)[4](g0%2)[9](g0%1)[11](g0%2)[14](g1%2)[15] 
(g0%2)[6](g0%2)[12] 
(g1%2)[65] 
(g0%1)[41] 
(g0%2)[58] 
(g1%2)[76] 
(g1%2)[72] 
(g0%2)[88] 
(g0%2)[65](g0%2)[66](g0%2)[67](g1%2)[68](g1%2)[69](g1%2)[70] 
(g0%2)[138] 
(g0%2)[134] 
(g1%2)[136] 
(g1%2)[175] 
(g0%1)[167] 
(g0%2)[172] 
(g1%2)[180] 
(g0%1)[144](g0%1)[145](g0%1)[148] 
(g0%2)[186] 
(g0%1)[153](g0%1)[154](g0%1)[155](g0%1)[156](g0%1)[157](g0%1)[158] 
(g1%2)[192] 
(g0%1)[196] 
(g0%1)[164](g0%1)[171](g0%1)[174](g0%1)[175] 
(g0%2)[204]
----- (1,1), 4, 'FSE Cleanup finished', offset=(0, 0), priority=1 -----
