Even Lines table for startSemiState 25
760 86382 (2)
759 86382 (2)
761 86382 (2)
758 86382 (2)
762 86382 (2)
757 86382 (2)
763 86382 (2)
756 86382 (2)
764 86382 (2)
755 86382 (2)
754 86382 (2)
765 86382 (2)
766 86382 (2)
753 86382 (2)
752 86382 (2)
767 86382 (2)
751 86382 (2)
768 86382 (2)
769 86382 (2)
770 86382 (2)
750 86382 (2)
771 86382 (2)
749 86382 (2)
772 86382 (2)
773 86382 (2)
774 86382 (2)
748 86382 (2)
747 86382 (2)
746 86382 (2)
745 86382 (2)
744 86382 (2)
743 86382 (2)
742 86382 (2)
741 86382 (2)
740 86382 (2)
739 86382 (2)
738 86382 (2)
775 86382 (2)
776 86382 (2)
777 86382 (2)
778 86382 (2)
779 86382 (2)
780 86382 (2)
737 86382 (2)
736 86382 (2)
735 86382 (2)
781 86382 (2)
782 86382 (2)
783 86382 (2)
784 86382 (2)
785 86382 (2)
734 86382 (2)
786 86382 (2)
787 86382 (2)
788 86382 (2)
789 86382 (2)
790 86382 (2)
733 86382 (2)
791 86382 (2)
732 86382 (2)
731 86382 (2)
730 86382 (2)
792 86382 (2)
729 86382 (2)
793 86382 (2)
794 86382 (2)
795 86382 (2)
728 86382 (2)
796 86382 (2)
797 86382 (2)
798 86382 (2)
799 86382 (2)
800 86382 (2)
727 86382 (2)
726 86382 (2)
725 86382 (2)
724 86382 (2)
723 86382 (2)
722 86382 (2)
801 86382 (2)
802 86382 (2)
721 86382 (2)
720 86382 (2)
803 86382 (2)
804 86382 (2)
805 86382 (2)
806 86382 (2)
719 86382 (2)
807 86382 (2)
808 86382 (2)
809 86382 (2)
810 86382 (2)
811 86382 (2)
718 86382 (2)
812 86382 (2)
813 86382 (2)
814 86382 (2)
717 86382 (2)
716 86382 (2)
815 86382 (2)
715 86382 (2)
816 86382 (2)
817 86382 (2)
818 86382 (2)
714 86382 (2)
713 86382 (2)
819 86394 (2)
820 86394 (2)
821 86406 (2)
822 86406 (2)
823 86418 (2)
824 86418 (2)
825 86430 (2)
826 86442 (2)
712 86382 (2)
711 86382 (2)
710 86382 (2)
709 86382 (2)
827 86454 (2)
708 86382 (2)
707 86394 (2)
706 86394 (2)
705 86406 (2)
828 86466 (2)
829 86478 (2)
704 86418 (2)
830 86490 (2)
831 86502 (2)
703 86430 (2)
702 86442 (2)
832 86514 (2)
701 86454 (2)
700 86466 (2)
699 86478 (2)
698 86490 (2)
697 86502 (2)
696 86514 (2)
833 86526 (2)
695 86526 (2)
834 86538 (2)
835 86550 (2)
694 86538 (2)
693 86550 (2)
692 86562 (2)
691 86574 (2)
836 86562 (2)
837 86574 (2)
690 86586 (2)
689 86598 (2)
838 86586 (2)
688 86610 (2)
839 86598 (2)
840 86610 (2)
687 86622 (2)
841 86622 (2)
842 86634 (2)
843 86646 (2)
844 86658 (2)
845 86670 (2)
846 86682 (2)
686 86634 (2)
685 86646 (2)
684 86658 (2)
847 86694 (2)
848 86706 (2)
849 86718 (2)
683 86670 (2)
682 86682 (2)
681 86694 (2)
680 86706 (2)
850 86730 (2)
679 86718 (2)
851 86742 (2)
678 86730 (2)
852 86754 (2)
853 86766 (2)
854 86778 (2)
677 86742 (2)
676 86754 (2)
855 86790 (2)
856 86802 (2)
675 86766 (2)
674 86778 (2)
673 86790 (2)
857 86814 (2)
672 86802 (2)
671 86814 (2)
670 86826 (2)
858 86826 (2)
669 86838 (2)
668 86850 (2)
859 86838 (2)
860 86850 (2)
861 86862 (2)
667 86874 (2)
666 86898 (2)
862 86874 (2)
863 86886 (2)
665 86922 (2)
664 86946 (2)
864 86898 (2)
865 86910 (2)
866 86922 (2)
867 86934 (2)
868 86946 (2)
663 86970 (2)
869 86958 (2)
662 86994 (2)
661 87018 (2)
870 86982 (2)
